3
64 124 186
     0 0.040327999740839 0.221000000834465 
0.00786800030618906 0.03955300152301788 -0.221000000834465 
     0 0.040327999740839 -0.221000000834465 
0.00786800030618906 0.03955300152301788 0.221000000834465 
0.01543300040066242 0.03725799918174744 -0.221000000834465 
0.01543300040066242 0.03725799918174744 0.221000000834465 
0.02240500040352345 0.03353099897503853 -0.221000000834465 
0.02240500040352345 0.03353099897503853 0.221000000834465 
0.02851600013673306 0.02851600013673306 -0.221000000834465 
0.02851600013673306 0.02851600013673306 0.221000000834465 
0.03353099897503853 0.02240500040352345 -0.221000000834465 
0.03353099897503853 0.02240500040352345 0.221000000834465 
0.03725799918174744 0.01543300040066242 -0.221000000834465 
0.03725799918174744 0.01543300040066242 0.221000000834465 
0.03955300152301788 0.00786800030618906 -0.221000000834465 
0.03955300152301788 0.00786800030618906 0.221000000834465 
0.040327999740839      0 -0.221000000834465 
0.040327999740839      0 0.221000000834465 
0.03955300152301788 -0.00786800030618906 -0.221000000834465 
0.03955300152301788 -0.00786800030618906 0.221000000834465 
0.03725799918174744 -0.01543300040066242 -0.221000000834465 
0.03725799918174744 -0.01543300040066242 0.221000000834465 
0.03353099897503853 -0.02240500040352345 -0.221000000834465 
0.03353099897503853 -0.02240500040352345 0.221000000834465 
0.02851600013673306 -0.02851600013673306 -0.221000000834465 
0.02851600013673306 -0.02851600013673306 0.221000000834465 
0.02240500040352345 -0.03353099897503853 -0.221000000834465 
0.02240500040352345 -0.03353099897503853 0.221000000834465 
0.01543300040066242 -0.03725799918174744 -0.221000000834465 
0.01543300040066242 -0.03725799918174744 0.221000000834465 
0.00786800030618906 -0.03955300152301788 -0.221000000834465 
0.00786800030618906 -0.03955300152301788 0.221000000834465 
     0 -0.040327999740839 -0.221000000834465 
     0 -0.040327999740839 0.221000000834465 
-0.00786800030618906 -0.03955300152301788 -0.221000000834465 
-0.00786800030618906 -0.03955300152301788 0.221000000834465 
-0.01543300040066242 -0.03725799918174744 -0.221000000834465 
-0.01543300040066242 -0.03725799918174744 0.221000000834465 
-0.02240500040352345 -0.03353099897503853 -0.221000000834465 
-0.02240500040352345 -0.03353099897503853 0.221000000834465 
-0.02851600013673306 -0.02851600013673306 -0.221000000834465 
-0.02851600013673306 -0.02851600013673306 0.221000000834465 
-0.03353099897503853 -0.02240500040352345 -0.221000000834465 
-0.03353099897503853 -0.02240500040352345 0.221000000834465 
-0.03725799918174744 -0.01543300040066242 -0.221000000834465 
-0.03725799918174744 -0.01543300040066242 0.221000000834465 
-0.03955300152301788 -0.007867000065743923 -0.221000000834465 
-0.03955300152301788 -0.007867000065743923 0.221000000834465 
-0.040327999740839      0 -0.221000000834465 
-0.040327999740839      0 0.221000000834465 
-0.03955300152301788 0.00786800030618906 -0.221000000834465 
-0.03955300152301788 0.00786800030618906 0.221000000834465 
-0.03725799918174744 0.01543300040066242 -0.221000000834465 
-0.03725799918174744 0.01543300040066242 0.221000000834465 
-0.03353099897503853 0.02240500040352345 -0.221000000834465 
-0.03353099897503853 0.02240500040352345 0.221000000834465 
-0.02851600013673306 0.02851600013673306 -0.221000000834465 
-0.02851600013673306 0.02851600013673306 0.221000000834465 
-0.02240500040352345 0.03353099897503853 -0.221000000834465 
-0.02240500040352345 0.03353099897503853 0.221000000834465 
-0.01543300040066242 0.03725799918174744 -0.221000000834465 
-0.01543300040066242 0.03725799918174744 0.221000000834465 
-0.007867000065743923 0.03955300152301788 -0.221000000834465 
-0.007867000065743923 0.03955300152301788 0.221000000834465 
3 46 49 47 
3 49 46 48 
3 46 45 44 
3 45 46 47 
3 34 33 32 
3 33 34 35 
3 37 34 36 
3 34 37 35 
3 30 33 31 
3 33 30 32 
3 9 6 8 
3 6 9 7 
3 1 3 2 
3 2 3 0 
3 9 10 11 
3 10 9 8 
3 50 49 48 
3 50 51 49 
3 51 50 53 
3 50 52 53 
3 54 55 52 
3 52 55 53 
3 55 54 56 
3 57 55 56 
3 57 58 59 
3 58 57 56 
3 61 58 60 
3 58 61 59 
3 39 38 40 
3 39 40 41 
3 38 39 36 
3 39 37 36 
3 26 27 25 
3 26 25 24 
3 30 29 28 
3 29 30 31 
3 29 26 28 
3 26 29 27 
3 22 23 20 
3 20 23 21 
3 23 22 24 
3 25 23 24 
3 6 5 4 
3 5 6 7 
3 5 1 4 
3 5 3 1 
3 15 14 16 
3 17 15 16 
3 19 18 20 
3 19 20 21 
3 18 19 16 
3 19 17 16 
3 42 43 40 
3 40 43 41 
3 45 43 44 
3 43 42 44 
3 62 46 44 
3 62 54 52 
3 62 30 28 
3 62 22 20 
3 1 62 4 
3 18 62 20 
3 50 62 52 
3 62 38 36 
3 58 62 60 
3 62 6 4 
3 42 62 44 
3 38 62 40 
3 62 14 12 
3 34 62 36 
3 62 1 2 
3 10 62 12 
3 46 62 48 
3 54 62 56 
3 26 62 28 
3 62 34 32 
3 30 62 32 
3 22 62 24 
3 6 62 8 
3 62 10 8 
3 14 62 16 
3 62 18 16 
3 62 42 40 
3 62 50 48 
3 62 58 56 
3 62 26 24 
3 13 10 12 
3 10 13 11 
3 14 13 12 
3 15 13 14 
3 27 63 25 
3 49 63 47 
3 63 57 59 
3 5 63 3 
3 51 63 49 
3 37 63 35 
3 63 45 47 
3 63 55 57 
3 63 33 35 
3 29 63 27 
3 9 63 7 
3 63 15 17 
3 19 63 17 
3 63 51 53 
3 63 23 25 
3 33 63 31 
3 61 63 59 
3 39 63 37 
3 63 9 11 
3 3 63 0 
3 55 63 53 
3 63 13 15 
3 63 39 41 
3 63 29 31 
3 23 63 21 
3 63 5 7 
3 63 43 45 
3 63 19 21 
3 43 63 41 
3 13 63 11 
3 63 2 0 
3 63 62 2 
3 63 61 60 
3 62 63 60 
Vertices and facets:
- p46(v31): -0.04 -0.0079 -0.22
  neighbors: f214 f215 f218 f219 f326 f342
- p49(v18): -0.04     0  0.22
  neighbors: f214 f215 f246 f247 f367 f370
- p47(v11): -0.04 -0.0079  0.22
  neighbors: f214 f219 f367 f372
- p48(v0): -0.04     0 -0.22
  neighbors: f215 f246 f342 f353
- p45(v32): -0.037 -0.015  0.22
  neighbors: f218 f219 f322 f372 f392
- p44(v19): -0.037 -0.015 -0.22
  neighbors: f218 f322 f323 f326 f336
- p33(v38):     0 -0.04  0.22
  neighbors: f222 f224 f230 f231 f374 f381
- p34(v37): -0.0079 -0.04 -0.22
  neighbors: f222 f224 f226 f227 f339 f345
- p32(v3):     0 -0.04 -0.22
  neighbors: f222 f231 f345 f346
- p35(v24): -0.0079 -0.04  0.22
  neighbors: f224 f227 f371 f374
- p37(v39): -0.015 -0.037  0.22
  neighbors: f226 f227 f275 f371 f383
- p36(v13): -0.015 -0.037 -0.22
  neighbors: f226 f274 f275 f333 f339
- p30(v40): 0.0079 -0.04 -0.22
  neighbors: f230 f231 f282 f283 f328 f346
- p31(v15): 0.0079 -0.04  0.22
  neighbors: f230 f283 f381 f389
- p9(v44): 0.029 0.029  0.22
  neighbors: f234 f236 f242 f243 f376 f384
- p6(v43): 0.022 0.034 -0.22
  neighbors: f234 f236 f298 f299 f335 f348
- p8(v10): 0.029 0.029 -0.22
  neighbors: f234 f243 f348 f349
- p7(v28): 0.022 0.034  0.22
  neighbors: f236 f299 f376 f391
- p3(v45): 0.0079  0.04  0.22
  neighbors: f238 f240 f303 f369 f385
- p1(v27): 0.0079  0.04 -0.22
  neighbors: f238 f302 f303 f330 f340
- p2(v6):     0  0.04 -0.22
  neighbors: f238 f240 f340 f398 f399
- p0(v2):     0  0.04  0.22
  neighbors: f240 f385 f398
- p10(v46): 0.034 0.022 -0.22
  neighbors: f242 f243 f341 f349 f358 f359
- p11(v17): 0.034 0.022  0.22
  neighbors: f242 f359 f384 f395
- p50(v50): -0.04 0.0079 -0.22
  neighbors: f246 f247 f250 f252 f332 f353
- p51(v34): -0.04 0.0079  0.22
  neighbors: f247 f250 f370 f379
- p53(v7): -0.037 0.015  0.22
  neighbors: f250 f252 f255 f379 f386
- p52(v20): -0.037 0.015 -0.22
  neighbors: f252 f254 f255 f327 f332
- p55(v51): -0.034 0.022  0.22
  neighbors: f254 f255 f258 f260 f373 f386
- p54(v33): -0.034 0.022 -0.22
  neighbors: f254 f258 f327 f343
- p56(v12): -0.029 0.029 -0.22
  neighbors: f258 f260 f263 f343 f354
- p57(v35): -0.029 0.029  0.22
  neighbors: f260 f262 f263 f368 f373
- p58(v52): -0.022 0.034 -0.22
  neighbors: f262 f263 f266 f267 f334 f354
- p59(v21): -0.022 0.034  0.22
  neighbors: f262 f267 f368 f382
- p61(v53): -0.015 0.037  0.22
  neighbors: f266 f267 f382 f402
- p60(v36): -0.015 0.037 -0.22
  neighbors: f266 f334 f402 f403
- p39(v54): -0.022 -0.034  0.22
  neighbors: f270 f272 f274 f275 f383 f388
- p38(v22): -0.022 -0.034 -0.22
  neighbors: f270 f274 f333 f337
- p40(v8): -0.029 -0.029 -0.22
  neighbors: f270 f272 f318 f319 f337 f352
- p41(v5): -0.029 -0.029  0.22
  neighbors: f272 f319 f388 f394
- p26(v55): 0.022 -0.034 -0.22
  neighbors: f278 f280 f286 f287 f344 f355
- p27(v41): 0.022 -0.034  0.22
  neighbors: f278 f287 f366 f375
- p25(v26): 0.029 -0.029  0.22
  neighbors: f278 f280 f295 f366 f380
- p24(v14): 0.029 -0.029 -0.22
  neighbors: f280 f294 f295 f347 f355
- p29(v56): 0.015 -0.037  0.22
  neighbors: f282 f283 f286 f287 f375 f389
- p28(v25): 0.015 -0.037 -0.22
  neighbors: f282 f286 f328 f344
- p23(v57): 0.034 -0.022  0.22
  neighbors: f290 f292 f294 f295 f380 f390
- p22(v42): 0.034 -0.022 -0.22
  neighbors: f290 f294 f329 f347
- p20(v23): 0.037 -0.015 -0.22
  neighbors: f290 f292 f310 f311 f329 f331
- p21(v9): 0.037 -0.015  0.22
  neighbors: f292 f311 f390 f393
- p5(v58): 0.015 0.037  0.22
  neighbors: f298 f299 f302 f303 f369 f391
- p4(v16): 0.015 0.037 -0.22
  neighbors: f298 f302 f330 f335
- p15(v59):  0.04 0.0079  0.22
  neighbors: f306 f308 f363 f377 f387
- p14(v47):  0.04 0.0079 -0.22
  neighbors: f306 f338 f350 f362 f363
- p16(v1):  0.04     0 -0.22
  neighbors: f306 f308 f314 f315 f350 f351
- p17(v30):  0.04     0  0.22
  neighbors: f308 f315 f377 f378
- p19(v60):  0.04 -0.0079  0.22
  neighbors: f310 f311 f314 f315 f378 f393
- p18(v48):  0.04 -0.0079 -0.22
  neighbors: f310 f314 f331 f351
- p43(v61): -0.034 -0.022  0.22
  neighbors: f318 f319 f322 f323 f392 f394
- p42(v49): -0.034 -0.022 -0.22
  neighbors: f318 f323 f336 f352
- p62(v62): -0.0079  0.04 -0.22
  neighbors: f326 f327 f328 f329 f330 f331 f332 f333 f334 f335 f336 f337 f338 f339 f340 f341 f342 f343 f344 f345 f346 f347 f348 f349 f350 f351 f352 f353 f354 f355 f399 f403
- p12(v29): 0.037 0.015 -0.22
  neighbors: f338 f341 f358 f362
- p13(v63): 0.037 0.015  0.22
  neighbors: f358 f359 f362 f363 f387 f395
- p63(v64): -0.0079  0.04  0.22
  neighbors: f366 f367 f368 f369 f370 f371 f372 f373 f374 f375 f376 f377 f378 f379 f380 f381 f382 f383 f384 f385 f386 f387 f388 f389 f390 f391 f392 f393 f394 f395 f398 f399 f402 f403
- f214
    - flags: top simplicial tricoplanar seen keepcentrum
    - owner of normal & centrum is facet f214
    - normal:   -0.9952 -0.09804       -0
    - offset: -0.04013373
    - center: -0.03994050063192844 -0.003933500032871962      0 
    - vertices: p46(v31) p49(v18) p47(v11)
    - neighboring facets: f367 f219 f215
- f215
    - flags: bottom simplicial tricoplanar seen
    - owner of normal & centrum is facet f214
    - normal:   -0.9952 -0.09804       -0
    - offset: -0.04013373
    - center: -0.03994050063192844 -0.003933500032871962      0 
    - vertices: p46(v31) p49(v18) p48(v0)
    - neighboring facets: f246 f342 f214
- f218
    - flags: bottom simplicial tricoplanar seen keepcentrum
    - owner of normal & centrum is facet f218
    - normal:   -0.9569  -0.2903        0
    - offset: -0.04013359
    - center: -0.03840550035238266 -0.01165000023320317      0 
    - vertices: p45(v32) p46(v31) p44(v19)
    - neighboring facets: f326 f322 f219
- f219
    - flags: top simplicial tricoplanar
    - owner of normal & centrum is facet f218
    - normal:   -0.9569  -0.2903        0
    - offset: -0.04013359
    - center: -0.03840550035238266 -0.01165000023320317      0 
    - vertices: p45(v32) p46(v31) p47(v11)
    - neighboring facets: f214 f372 f218
- f222
    - flags: bottom simplicial tricoplanar seen keepcentrum
    - owner of normal & centrum is facet f222
    - normal:  -0.09803  -0.9952        0
    - offset: -0.04013378
    - center: -0.00393400015309453 -0.03994050063192844      0 
    - vertices: p33(v38) p34(v37) p32(v3)
    - neighboring facets: f345 f231 f224
- f224
    - flags: top simplicial tricoplanar seen
    - owner of normal & centrum is facet f222
    - normal:  -0.09803  -0.9952        0
    - offset: -0.04013378
    - center: -0.00393400015309453 -0.03994050063192844      0 
    - vertices: p33(v38) p34(v37) p35(v24)
    - neighboring facets: f227 f374 f222
- f226
    - flags: top simplicial tricoplanar seen keepcentrum
    - owner of normal & centrum is facet f226
    - normal:   -0.2903  -0.9569        0
    - offset: -0.04013373
    - center: -0.01165050035342574 -0.03840550035238267      0 
    - vertices: p37(v39) p34(v37) p36(v13)
    - neighboring facets: f339 f275 f227
- f227
    - flags: bottom simplicial tricoplanar
    - owner of normal & centrum is facet f226
    - normal:   -0.2903  -0.9569        0
    - offset: -0.04013373
    - center: -0.01165050035342574 -0.03840550035238267      0 
    - vertices: p37(v39) p34(v37) p35(v24)
    - neighboring facets: f224 f371 f226
- f230
    - flags: top simplicial tricoplanar seen keepcentrum
    - owner of normal & centrum is facet f230
    - normal:   0.09803  -0.9952        0
    - offset: -0.04013378
    - center: 0.00393400015309453 -0.03994050063192844      0 
    - vertices: p30(v40) p33(v38) p31(v15)
    - neighboring facets: f381 f283 f231
- f231
    - flags: bottom simplicial tricoplanar
    - owner of normal & centrum is facet f230
    - normal:   0.09803  -0.9952        0
    - offset: -0.04013378
    - center: 0.00393400015309453 -0.03994050063192844      0 
    - vertices: p30(v40) p33(v38) p32(v3)
    - neighboring facets: f222 f346 f230
- f234
    - flags: top simplicial tricoplanar seen keepcentrum
    - owner of normal & centrum is facet f234
    - normal:    0.6344    0.773       -0
    - offset: -0.04013346
    - center: 0.02546050027012825 0.03102349955588579      0 
    - vertices: p9(v44) p6(v43) p8(v10)
    - neighboring facets: f348 f243 f236
- f236
    - flags: bottom simplicial tricoplanar seen
    - owner of normal & centrum is facet f234
    - normal:    0.6344    0.773       -0
    - offset: -0.04013346
    - center: 0.02546050027012825 0.03102349955588579      0 
    - vertices: p9(v44) p6(v43) p7(v28)
    - neighboring facets: f299 f376 f234
- f238
    - flags: bottom simplicial tricoplanar seen keepcentrum
    - owner of normal & centrum is facet f238
    - normal:   0.09803   0.9952       -0
    - offset: -0.04013378
    - center: 0.00393400015309453 0.03994050063192844      0 
    - vertices: p3(v45) p1(v27) p2(v6)
    - neighboring facets: f340 f240 f303
- f240
    - flags: bottom simplicial tricoplanar seen
    - owner of normal & centrum is facet f238
    - normal:   0.09803   0.9952       -0
    - offset: -0.04013378
    - center: 0.00393400015309453 0.03994050063192844      0 
    - vertices: p3(v45) p2(v6) p0(v2)
    - neighboring facets: f398 f385 f238
- f242
    - flags: bottom simplicial tricoplanar seen keepcentrum
    - owner of normal & centrum is facet f242
    - normal:     0.773   0.6344        0
    - offset: -0.04013346
    - center: 0.03102349955588579 0.02546050027012825      0 
    - vertices: p10(v46) p9(v44) p11(v17)
    - neighboring facets: f384 f359 f243
- f243
    - flags: top simplicial tricoplanar
    - owner of normal & centrum is facet f242
    - normal:     0.773   0.6344        0
    - offset: -0.04013346
    - center: 0.03102349955588579 0.02546050027012825      0 
    - vertices: p10(v46) p9(v44) p8(v10)
    - neighboring facets: f234 f349 f242
- f246
    - flags: top simplicial tricoplanar keepcentrum
    - owner of normal & centrum is facet f246
    - normal:   -0.9952  0.09803        0
    - offset: -0.04013378
    - center: -0.03994050063192844 0.00393400015309453      0 
    - vertices: p50(v50) p49(v18) p48(v0)
    - neighboring facets: f215 f353 f247
- f247
    - flags: top simplicial tricoplanar seen
    - owner of normal & centrum is facet f246
    - normal:   -0.9952  0.09803        0
    - offset: -0.04013378
    - center: -0.03994050063192844 0.00393400015309453      0 
    - vertices: p50(v50) p51(v34) p49(v18)
    - neighboring facets: f370 f246 f250
- f250
    - flags: bottom simplicial tricoplanar seen keepcentrum
    - owner of normal & centrum is facet f250
    - normal:   -0.9569   0.2903        0
    - offset: -0.04013373
    - center: -0.03840550035238267 0.01165050035342574      0 
    - vertices: p50(v50) p51(v34) p53(v7)
    - neighboring facets: f379 f252 f247
- f252
    - flags: top simplicial tricoplanar seen
    - owner of normal & centrum is facet f250
    - normal:   -0.9569   0.2903        0
    - offset: -0.04013373
    - center: -0.03840550035238267 0.01165050035342574      0 
    - vertices: p50(v50) p52(v20) p53(v7)
    - neighboring facets: f255 f250 f332
- f254
    - flags: bottom simplicial tricoplanar seen keepcentrum
    - owner of normal & centrum is facet f254
    - normal:   -0.8819   0.4714       -0
    - offset: -0.04013352
    - center: -0.03539449907839298 0.01891900040209293      0 
    - vertices: p55(v51) p54(v33) p52(v20)
    - neighboring facets: f327 f255 f258
- f255
    - flags: bottom simplicial tricoplanar
    - owner of normal & centrum is facet f254
    - normal:   -0.8819   0.4714       -0
    - offset: -0.04013352
    - center: -0.03539449907839298 0.01891900040209293      0 
    - vertices: p55(v51) p52(v20) p53(v7)
    - neighboring facets: f252 f386 f254
- f258
    - flags: top simplicial tricoplanar seen keepcentrum
    - owner of normal & centrum is facet f258
    - normal:    -0.773   0.6344        0
    - offset: -0.04013346
    - center: -0.03102349955588579 0.02546050027012825      0 
    - vertices: p55(v51) p54(v33) p56(v12)
    - neighboring facets: f343 f260 f254
- f260
    - flags: bottom simplicial tricoplanar seen
    - owner of normal & centrum is facet f258
    - normal:    -0.773   0.6344        0
    - offset: -0.04013346
    - center: -0.03102349955588579 0.02546050027012825      0 
    - vertices: p55(v51) p57(v35) p56(v12)
    - neighboring facets: f263 f258 f373
- f262
    - flags: bottom simplicial tricoplanar seen keepcentrum
    - owner of normal & centrum is facet f262
    - normal:   -0.6344    0.773       -0
    - offset: -0.04013346
    - center: -0.02546050027012825 0.03102349955588579      0 
    - vertices: p58(v52) p57(v35) p59(v21)
    - neighboring facets: f368 f267 f263
- f263
    - flags: top simplicial tricoplanar
    - owner of normal & centrum is facet f262
    - normal:   -0.6344    0.773       -0
    - offset: -0.04013346
    - center: -0.02546050027012825 0.03102349955588579      0 
    - vertices: p58(v52) p57(v35) p56(v12)
    - neighboring facets: f260 f354 f262
- f266
    - flags: top simplicial tricoplanar seen keepcentrum
    - owner of normal & centrum is facet f266
    - normal:   -0.4714   0.8819        0
    - offset: -0.04013352
    - center: -0.01891900040209293 0.03539449907839298      0 
    - vertices: p61(v53) p58(v52) p60(v36)
    - neighboring facets: f334 f402 f267
- f267
    - flags: bottom simplicial tricoplanar
    - owner of normal & centrum is facet f266
    - normal:   -0.4714   0.8819        0
    - offset: -0.04013352
    - center: -0.01891900040209293 0.03539449907839298      0 
    - vertices: p61(v53) p58(v52) p59(v21)
    - neighboring facets: f262 f382 f266
- f270
    - flags: top simplicial tricoplanar seen keepcentrum
    - owner of normal & centrum is facet f270
    - normal:   -0.6344   -0.773        0
    - offset: -0.04013346
    - center: -0.02546050027012825 -0.03102349955588579      0 
    - vertices: p39(v54) p38(v22) p40(v8)
    - neighboring facets: f337 f272 f274
- f272
    - flags: top simplicial tricoplanar seen
    - owner of normal & centrum is facet f270
    - normal:   -0.6344   -0.773        0
    - offset: -0.04013346
    - center: -0.02546050027012825 -0.03102349955588579      0 
    - vertices: p39(v54) p40(v8) p41(v5)
    - neighboring facets: f319 f388 f270
- f274
    - flags: bottom simplicial tricoplanar seen keepcentrum
    - owner of normal & centrum is facet f274
    - normal:   -0.4714  -0.8819       -0
    - offset: -0.04013352
    - center: -0.01891900040209293 -0.03539449907839298      0 
    - vertices: p39(v54) p38(v22) p36(v13)
    - neighboring facets: f333 f275 f270
- f275
    - flags: top simplicial tricoplanar
    - owner of normal & centrum is facet f274
    - normal:   -0.4714  -0.8819       -0
    - offset: -0.04013352
    - center: -0.01891900040209293 -0.03539449907839298      0 
    - vertices: p39(v54) p37(v39) p36(v13)
    - neighboring facets: f226 f274 f383
- f278
    - flags: top simplicial tricoplanar seen keepcentrum
    - owner of normal & centrum is facet f278
    - normal:    0.6344   -0.773        0
    - offset: -0.04013346
    - center: 0.02546050027012825 -0.03102349955588579      0 
    - vertices: p26(v55) p27(v41) p25(v26)
    - neighboring facets: f366 f280 f287
- f280
    - flags: top simplicial tricoplanar seen
    - owner of normal & centrum is facet f278
    - normal:    0.6344   -0.773        0
    - offset: -0.04013346
    - center: 0.02546050027012825 -0.03102349955588579      0 
    - vertices: p26(v55) p25(v26) p24(v14)
    - neighboring facets: f295 f355 f278
- f282
    - flags: bottom simplicial tricoplanar seen keepcentrum
    - owner of normal & centrum is facet f282
    - normal:    0.2903  -0.9569       -0
    - offset: -0.04013373
    - center: 0.01165050035342574 -0.03840550035238267      0 
    - vertices: p29(v56) p30(v40) p28(v25)
    - neighboring facets: f328 f286 f283
- f283
    - flags: top simplicial tricoplanar
    - owner of normal & centrum is facet f282
    - normal:    0.2903  -0.9569       -0
    - offset: -0.04013373
    - center: 0.01165050035342574 -0.03840550035238267      0 
    - vertices: p29(v56) p30(v40) p31(v15)
    - neighboring facets: f230 f389 f282
- f286
    - flags: top simplicial tricoplanar seen keepcentrum
    - owner of normal & centrum is facet f286
    - normal:    0.4714  -0.8819       -0
    - offset: -0.04013352
    - center: 0.01891900040209293 -0.03539449907839298      0 
    - vertices: p29(v56) p26(v55) p28(v25)
    - neighboring facets: f344 f282 f287
- f287
    - flags: bottom simplicial tricoplanar
    - owner of normal & centrum is facet f286
    - normal:    0.4714  -0.8819       -0
    - offset: -0.04013352
    - center: 0.01891900040209293 -0.03539449907839298      0 
    - vertices: p29(v56) p26(v55) p27(v41)
    - neighboring facets: f278 f375 f286
- f290
    - flags: bottom simplicial tricoplanar seen keepcentrum
    - owner of normal & centrum is facet f290
    - normal:    0.8819  -0.4714       -0
    - offset: -0.04013352
    - center: 0.03539449907839298 -0.01891900040209293      0 
    - vertices: p23(v57) p22(v42) p20(v23)
    - neighboring facets: f329 f292 f294
- f292
    - flags: bottom simplicial tricoplanar seen
    - owner of normal & centrum is facet f290
    - normal:    0.8819  -0.4714       -0
    - offset: -0.04013352
    - center: 0.03539449907839298 -0.01891900040209293      0 
    - vertices: p23(v57) p20(v23) p21(v9)
    - neighboring facets: f311 f390 f290
- f294
    - flags: top simplicial tricoplanar seen keepcentrum
    - owner of normal & centrum is facet f294
    - normal:     0.773  -0.6344       -0
    - offset: -0.04013346
    - center: 0.03102349955588579 -0.02546050027012825      0 
    - vertices: p23(v57) p22(v42) p24(v14)
    - neighboring facets: f347 f295 f290
- f295
    - flags: bottom simplicial tricoplanar
    - owner of normal & centrum is facet f294
    - normal:     0.773  -0.6344       -0
    - offset: -0.04013346
    - center: 0.03102349955588579 -0.02546050027012825      0 
    - vertices: p23(v57) p25(v26) p24(v14)
    - neighboring facets: f280 f294 f380
- f298
    - flags: bottom simplicial tricoplanar seen keepcentrum
    - owner of normal & centrum is facet f298
    - normal:    0.4714   0.8819       -0
    - offset: -0.04013352
    - center: 0.01891900040209293 0.03539449907839298      0 
    - vertices: p5(v58) p6(v43) p4(v16)
    - neighboring facets: f335 f302 f299
- f299
    - flags: top simplicial tricoplanar
    - owner of normal & centrum is facet f298
    - normal:    0.4714   0.8819       -0
    - offset: -0.04013352
    - center: 0.01891900040209293 0.03539449907839298      0 
    - vertices: p5(v58) p6(v43) p7(v28)
    - neighboring facets: f236 f391 f298
- f302
    - flags: top simplicial tricoplanar seen keepcentrum
    - owner of normal & centrum is facet f302
    - normal:    0.2903   0.9569        0
    - offset: -0.04013373
    - center: 0.01165050035342574 0.03840550035238267      0 
    - vertices: p5(v58) p1(v27) p4(v16)
    - neighboring facets: f330 f298 f303
- f303
    - flags: top simplicial tricoplanar
    - owner of normal & centrum is facet f302
    - normal:    0.2903   0.9569        0
    - offset: -0.04013373
    - center: 0.01165050035342574 0.03840550035238267      0 
    - vertices: p5(v58) p3(v45) p1(v27)
    - neighboring facets: f238 f302 f369
- f306
    - flags: top simplicial tricoplanar seen keepcentrum
    - owner of normal & centrum is facet f306
    - normal:    0.9952  0.09803       -0
    - offset: -0.04013378
    - center: 0.03994050063192844 0.00393400015309453      0 
    - vertices: p15(v59) p14(v47) p16(v1)
    - neighboring facets: f350 f308 f363
- f308
    - flags: bottom simplicial tricoplanar seen
    - owner of normal & centrum is facet f306
    - normal:    0.9952  0.09803       -0
    - offset: -0.04013378
    - center: 0.03994050063192844 0.00393400015309453      0 
    - vertices: p15(v59) p17(v30) p16(v1)
    - neighboring facets: f315 f306 f377
- f310
    - flags: top simplicial tricoplanar seen keepcentrum
    - owner of normal & centrum is facet f310
    - normal:    0.9569  -0.2903        0
    - offset: -0.04013373
    - center: 0.03840550035238267 -0.01165050035342574      0 
    - vertices: p19(v60) p18(v48) p20(v23)
    - neighboring facets: f331 f311 f314
- f311
    - flags: top simplicial tricoplanar
    - owner of normal & centrum is facet f310
    - normal:    0.9569  -0.2903        0
    - offset: -0.04013373
    - center: 0.03840550035238267 -0.01165050035342574      0 
    - vertices: p19(v60) p20(v23) p21(v9)
    - neighboring facets: f292 f393 f310
- f314
    - flags: bottom simplicial tricoplanar seen keepcentrum
    - owner of normal & centrum is facet f314
    - normal:    0.9952 -0.09803        0
    - offset: -0.04013378
    - center: 0.03994050063192844 -0.00393400015309453      0 
    - vertices: p19(v60) p18(v48) p16(v1)
    - neighboring facets: f351 f315 f310
- f315
    - flags: top simplicial tricoplanar
    - owner of normal & centrum is facet f314
    - normal:    0.9952 -0.09803        0
    - offset: -0.04013378
    - center: 0.03994050063192844 -0.00393400015309453      0 
    - vertices: p19(v60) p17(v30) p16(v1)
    - neighboring facets: f308 f314 f378
- f318
    - flags: bottom simplicial tricoplanar seen keepcentrum
    - owner of normal & centrum is facet f318
    - normal:    -0.773  -0.6344       -0
    - offset: -0.04013346
    - center: -0.03102349955588579 -0.02546050027012825      0 
    - vertices: p43(v61) p42(v49) p40(v8)
    - neighboring facets: f352 f319 f323
- f319
    - flags: bottom simplicial tricoplanar
    - owner of normal & centrum is facet f318
    - normal:    -0.773  -0.6344       -0
    - offset: -0.04013346
    - center: -0.03102349955588579 -0.02546050027012825      0 
    - vertices: p43(v61) p40(v8) p41(v5)
    - neighboring facets: f272 f394 f318
- f322
    - flags: bottom simplicial tricoplanar keepcentrum
    - owner of normal & centrum is facet f322
    - normal:   -0.8819  -0.4714       -0
    - offset: -0.04013352
    - center: -0.03539449907839298 -0.01891900040209293      0 
    - vertices: p43(v61) p45(v32) p44(v19)
    - neighboring facets: f218 f323 f392
- f323
    - flags: top simplicial tricoplanar seen
    - owner of normal & centrum is facet f322
    - normal:   -0.8819  -0.4714       -0
    - offset: -0.04013352
    - center: -0.03539449907839298 -0.01891900040209293      0 
    - vertices: p43(v61) p42(v49) p44(v19)
    - neighboring facets: f336 f322 f318
- f326
    - flags: top simplicial tricoplanar keepcentrum
    - owner of normal & centrum is facet f326
    - normal:         0        0       -1
    - offset:     -0.221
    - center: -0.001714777822295825 -0.004139777686860826 -0.221000000834465 
    - vertices: p62(v62) p46(v31) p44(v19)
    - neighboring facets: f218 f336 f342
- f327
    - flags: top simplicial tricoplanar
    - owner of normal & centrum is facet f326
    - normal:         0        0       -1
    - offset:     -0.221
    - center: -0.001714777822295825 -0.004139777686860826 -0.221000000834465 
    - vertices: p62(v62) p54(v33) p52(v20)
    - neighboring facets: f254 f332 f343
- f328
    - flags: top simplicial tricoplanar
    - owner of normal & centrum is facet f326
    - normal:         0        0       -1
    - offset:     -0.221
    - center: -0.001714777822295825 -0.004139777686860826 -0.221000000834465 
    - vertices: p62(v62) p30(v40) p28(v25)
    - neighboring facets: f282 f344 f346
- f329
    - flags: top simplicial tricoplanar
    - owner of normal & centrum is facet f326
    - normal:         0        0       -1
    - offset:     -0.221
    - center: -0.001714777822295825 -0.004139777686860826 -0.221000000834465 
    - vertices: p62(v62) p22(v42) p20(v23)
    - neighboring facets: f290 f331 f347
- f330
    - flags: bottom simplicial tricoplanar
    - owner of normal & centrum is facet f326
    - normal:         0        0       -1
    - offset:     -0.221
    - center: -0.001714777822295825 -0.004139777686860826 -0.221000000834465 
    - vertices: p62(v62) p1(v27) p4(v16)
    - neighboring facets: f302 f335 f340
- f331
    - flags: bottom simplicial tricoplanar
    - owner of normal & centrum is facet f326
    - normal:         0        0       -1
    - offset:     -0.221
    - center: -0.001714777822295825 -0.004139777686860826 -0.221000000834465 
    - vertices: p62(v62) p18(v48) p20(v23)
    - neighboring facets: f310 f329 f351
- f332
    - flags: bottom simplicial tricoplanar
    - owner of normal & centrum is facet f326
    - normal:         0        0       -1
    - offset:     -0.221
    - center: -0.001714777822295825 -0.004139777686860826 -0.221000000834465 
    - vertices: p62(v62) p50(v50) p52(v20)
    - neighboring facets: f252 f327 f353
- f333
    - flags: top simplicial tricoplanar
    - owner of normal & centrum is facet f326
    - normal:         0        0       -1
    - offset:     -0.221
    - center: -0.001714777822295825 -0.004139777686860826 -0.221000000834465 
    - vertices: p62(v62) p38(v22) p36(v13)
    - neighboring facets: f274 f339 f337
- f334
    - flags: bottom simplicial tricoplanar
    - owner of normal & centrum is facet f326
    - normal:         0        0       -1
    - offset:     -0.221
    - center: -0.001714777822295825 -0.004139777686860826 -0.221000000834465 
    - vertices: p62(v62) p58(v52) p60(v36)
    - neighboring facets: f266 f403 f354
- f335
    - flags: top simplicial tricoplanar
    - owner of normal & centrum is facet f326
    - normal:         0        0       -1
    - offset:     -0.221
    - center: -0.001714777822295825 -0.004139777686860826 -0.221000000834465 
    - vertices: p62(v62) p6(v43) p4(v16)
    - neighboring facets: f298 f330 f348
- f336
    - flags: bottom simplicial tricoplanar
    - owner of normal & centrum is facet f326
    - normal:         0        0       -1
    - offset:     -0.221
    - center: -0.001714777822295825 -0.004139777686860826 -0.221000000834465 
    - vertices: p62(v62) p42(v49) p44(v19)
    - neighboring facets: f323 f326 f352
- f337
    - flags: bottom simplicial tricoplanar
    - owner of normal & centrum is facet f326
    - normal:         0        0       -1
    - offset:     -0.221
    - center: -0.001714777822295825 -0.004139777686860826 -0.221000000834465 
    - vertices: p62(v62) p38(v22) p40(v8)
    - neighboring facets: f270 f352 f333
- f338
    - flags: top simplicial tricoplanar seen
    - owner of normal & centrum is facet f326
    - normal:         0        0       -1
    - offset:     -0.221
    - center: -0.001714777822295825 -0.004139777686860826 -0.221000000834465 
    - vertices: p62(v62) p14(v47) p12(v29)
    - neighboring facets: f362 f341 f350
- f339
    - flags: bottom simplicial tricoplanar
    - owner of normal & centrum is facet f326
    - normal:         0        0       -1
    - offset:     -0.221
    - center: -0.001714777822295825 -0.004139777686860826 -0.221000000834465 
    - vertices: p62(v62) p34(v37) p36(v13)
    - neighboring facets: f226 f333 f345
- f340
    - flags: top simplicial tricoplanar
    - owner of normal & centrum is facet f326
    - normal:         0        0       -1
    - offset:     -0.221
    - center: -0.001714777822295825 -0.004139777686860826 -0.221000000834465 
    - vertices: p62(v62) p1(v27) p2(v6)
    - neighboring facets: f238 f399 f330
- f341
    - flags: bottom simplicial tricoplanar seen
    - owner of normal & centrum is facet f326
    - normal:         0        0       -1
    - offset:     -0.221
    - center: -0.001714777822295825 -0.004139777686860826 -0.221000000834465 
    - vertices: p62(v62) p10(v46) p12(v29)
    - neighboring facets: f358 f338 f349
- f342
    - flags: bottom simplicial tricoplanar
    - owner of normal & centrum is facet f326
    - normal:         0        0       -1
    - offset:     -0.221
    - center: -0.001714777822295825 -0.004139777686860826 -0.221000000834465 
    - vertices: p62(v62) p46(v31) p48(v0)
    - neighboring facets: f215 f353 f326
- f343
    - flags: bottom simplicial tricoplanar
    - owner of normal & centrum is facet f326
    - normal:         0        0       -1
    - offset:     -0.221
    - center: -0.001714777822295825 -0.004139777686860826 -0.221000000834465 
    - vertices: p62(v62) p54(v33) p56(v12)
    - neighboring facets: f258 f354 f327
- f344
    - flags: bottom simplicial tricoplanar
    - owner of normal & centrum is facet f326
    - normal:         0        0       -1
    - offset:     -0.221
    - center: -0.001714777822295825 -0.004139777686860826 -0.221000000834465 
    - vertices: p62(v62) p26(v55) p28(v25)
    - neighboring facets: f286 f328 f355
- f345
    - flags: top simplicial tricoplanar
    - owner of normal & centrum is facet f326
    - normal:         0        0       -1
    - offset:     -0.221
    - center: -0.001714777822295825 -0.004139777686860826 -0.221000000834465 
    - vertices: p62(v62) p34(v37) p32(v3)
    - neighboring facets: f222 f346 f339
- f346
    - flags: bottom simplicial tricoplanar
    - owner of normal & centrum is facet f326
    - normal:         0        0       -1
    - offset:     -0.221
    - center: -0.001714777822295825 -0.004139777686860826 -0.221000000834465 
    - vertices: p62(v62) p30(v40) p32(v3)
    - neighboring facets: f231 f345 f328
- f347
    - flags: bottom simplicial tricoplanar
    - owner of normal & centrum is facet f326
    - normal:         0        0       -1
    - offset:     -0.221
    - center: -0.001714777822295825 -0.004139777686860826 -0.221000000834465 
    - vertices: p62(v62) p22(v42) p24(v14)
    - neighboring facets: f294 f355 f329
- f348
    - flags: bottom simplicial tricoplanar
    - owner of normal & centrum is facet f326
    - normal:         0        0       -1
    - offset:     -0.221
    - center: -0.001714777822295825 -0.004139777686860826 -0.221000000834465 
    - vertices: p62(v62) p6(v43) p8(v10)
    - neighboring facets: f234 f349 f335
- f349
    - flags: top simplicial tricoplanar
    - owner of normal & centrum is facet f326
    - normal:         0        0       -1
    - offset:     -0.221
    - center: -0.001714777822295825 -0.004139777686860826 -0.221000000834465 
    - vertices: p62(v62) p10(v46) p8(v10)
    - neighboring facets: f243 f348 f341
- f350
    - flags: bottom simplicial tricoplanar
    - owner of normal & centrum is facet f326
    - normal:         0        0       -1
    - offset:     -0.221
    - center: -0.001714777822295825 -0.004139777686860826 -0.221000000834465 
    - vertices: p62(v62) p14(v47) p16(v1)
    - neighboring facets: f306 f351 f338
- f351
    - flags: top simplicial tricoplanar
    - owner of normal & centrum is facet f326
    - normal:         0        0       -1
    - offset:     -0.221
    - center: -0.001714777822295825 -0.004139777686860826 -0.221000000834465 
    - vertices: p62(v62) p18(v48) p16(v1)
    - neighboring facets: f314 f350 f331
- f352
    - flags: top simplicial tricoplanar
    - owner of normal & centrum is facet f326
    - normal:         0        0       -1
    - offset:     -0.221
    - center: -0.001714777822295825 -0.004139777686860826 -0.221000000834465 
    - vertices: p62(v62) p42(v49) p40(v8)
    - neighboring facets: f318 f337 f336
- f353
    - flags: top simplicial tricoplanar
    - owner of normal & centrum is facet f326
    - normal:         0        0       -1
    - offset:     -0.221
    - center: -0.001714777822295825 -0.004139777686860826 -0.221000000834465 
    - vertices: p62(v62) p50(v50) p48(v0)
    - neighboring facets: f246 f342 f332
- f354
    - flags: top simplicial tricoplanar
    - owner of normal & centrum is facet f326
    - normal:         0        0       -1
    - offset:     -0.221
    - center: -0.001714777822295825 -0.004139777686860826 -0.221000000834465 
    - vertices: p62(v62) p58(v52) p56(v12)
    - neighboring facets: f263 f343 f334
- f355
    - flags: top simplicial tricoplanar
    - owner of normal & centrum is facet f326
    - normal:         0        0       -1
    - offset:     -0.221
    - center: -0.001714777822295825 -0.004139777686860826 -0.221000000834465 
    - vertices: p62(v62) p26(v55) p24(v14)
    - neighboring facets: f280 f347 f344
- f358
    - flags: top simplicial tricoplanar keepcentrum
    - owner of normal & centrum is facet f358
    - normal:    0.8819   0.4714       -0
    - offset: -0.04013352
    - center: 0.03539449907839298 0.01891900040209293      0 
    - vertices: p13(v63) p10(v46) p12(v29)
    - neighboring facets: f341 f362 f359
- f359
    - flags: bottom simplicial tricoplanar
    - owner of normal & centrum is facet f358
    - normal:    0.8819   0.4714       -0
    - offset: -0.04013352
    - center: 0.03539449907839298 0.01891900040209293      0 
    - vertices: p13(v63) p10(v46) p11(v17)
    - neighboring facets: f242 f395 f358
- f362
    - flags: bottom simplicial tricoplanar keepcentrum
    - owner of normal & centrum is facet f362
    - normal:    0.9569   0.2903        0
    - offset: -0.04013373
    - center: 0.03840550035238267 0.01165050035342574      0 
    - vertices: p13(v63) p14(v47) p12(v29)
    - neighboring facets: f338 f358 f363
- f363
    - flags: bottom simplicial tricoplanar
    - owner of normal & centrum is facet f362
    - normal:    0.9569   0.2903        0
    - offset: -0.04013373
    - center: 0.03840550035238267 0.01165050035342574      0 
    - vertices: p13(v63) p15(v59) p14(v47)
    - neighboring facets: f306 f362 f387
- f366
    - flags: bottom simplicial tricoplanar keepcentrum
    - owner of normal & centrum is facet f366
    - normal:        -0       -0        1
    - offset:     -0.221
    - center: -0.00993366694698731 0.00225866637710068 0.221000000834465 
    - vertices: p63(v64) p27(v41) p25(v26)
    - neighboring facets: f278 f380 f375
- f367
    - flags: bottom simplicial tricoplanar
    - owner of normal & centrum is facet f366
    - normal:        -0       -0        1
    - offset:     -0.221
    - center: -0.00993366694698731 0.00225866637710068 0.221000000834465 
    - vertices: p63(v64) p49(v18) p47(v11)
    - neighboring facets: f214 f372 f370
- f368
    - flags: top simplicial tricoplanar
    - owner of normal & centrum is facet f366
    - normal:        -0       -0        1
    - offset:     -0.221
    - center: -0.00993366694698731 0.00225866637710068 0.221000000834465 
    - vertices: p63(v64) p57(v35) p59(v21)
    - neighboring facets: f262 f382 f373
- f369
    - flags: bottom simplicial tricoplanar
    - owner of normal & centrum is facet f366
    - normal:        -0       -0        1
    - offset:     -0.221
    - center: -0.00993366694698731 0.00225866637710068 0.221000000834465 
    - vertices: p63(v64) p5(v58) p3(v45)
    - neighboring facets: f303 f385 f391
- f370
    - flags: bottom simplicial tricoplanar
    - owner of normal & centrum is facet f366
    - normal:        -0       -0        1
    - offset:     -0.221
    - center: -0.00993366694698731 0.00225866637710068 0.221000000834465 
    - vertices: p63(v64) p51(v34) p49(v18)
    - neighboring facets: f247 f367 f379
- f371
    - flags: bottom simplicial tricoplanar
    - owner of normal & centrum is facet f366
    - normal:        -0       -0        1
    - offset:     -0.221
    - center: -0.00993366694698731 0.00225866637710068 0.221000000834465 
    - vertices: p63(v64) p37(v39) p35(v24)
    - neighboring facets: f227 f374 f383
- f372
    - flags: top simplicial tricoplanar
    - owner of normal & centrum is facet f366
    - normal:        -0       -0        1
    - offset:     -0.221
    - center: -0.00993366694698731 0.00225866637710068 0.221000000834465 
    - vertices: p63(v64) p45(v32) p47(v11)
    - neighboring facets: f219 f367 f392
- f373
    - flags: top simplicial tricoplanar
    - owner of normal & centrum is facet f366
    - normal:        -0       -0        1
    - offset:     -0.221
    - center: -0.00993366694698731 0.00225866637710068 0.221000000834465 
    - vertices: p63(v64) p55(v51) p57(v35)
    - neighboring facets: f260 f368 f386
- f374
    - flags: top simplicial tricoplanar
    - owner of normal & centrum is facet f366
    - normal:        -0       -0        1
    - offset:     -0.221
    - center: -0.00993366694698731 0.00225866637710068 0.221000000834465 
    - vertices: p63(v64) p33(v38) p35(v24)
    - neighboring facets: f224 f371 f381
- f375
    - flags: bottom simplicial tricoplanar
    - owner of normal & centrum is facet f366
    - normal:        -0       -0        1
    - offset:     -0.221
    - center: -0.00993366694698731 0.00225866637710068 0.221000000834465 
    - vertices: p63(v64) p29(v56) p27(v41)
    - neighboring facets: f287 f366 f389
- f376
    - flags: bottom simplicial tricoplanar
    - owner of normal & centrum is facet f366
    - normal:        -0       -0        1
    - offset:     -0.221
    - center: -0.00993366694698731 0.00225866637710068 0.221000000834465 
    - vertices: p63(v64) p9(v44) p7(v28)
    - neighboring facets: f236 f391 f384
- f377
    - flags: top simplicial tricoplanar
    - owner of normal & centrum is facet f366
    - normal:        -0       -0        1
    - offset:     -0.221
    - center: -0.00993366694698731 0.00225866637710068 0.221000000834465 
    - vertices: p63(v64) p15(v59) p17(v30)
    - neighboring facets: f308 f378 f387
- f378
    - flags: bottom simplicial tricoplanar
    - owner of normal & centrum is facet f366
    - normal:        -0       -0        1
    - offset:     -0.221
    - center: -0.00993366694698731 0.00225866637710068 0.221000000834465 
    - vertices: p63(v64) p19(v60) p17(v30)
    - neighboring facets: f315 f377 f393
- f379
    - flags: top simplicial tricoplanar
    - owner of normal & centrum is facet f366
    - normal:        -0       -0        1
    - offset:     -0.221
    - center: -0.00993366694698731 0.00225866637710068 0.221000000834465 
    - vertices: p63(v64) p51(v34) p53(v7)
    - neighboring facets: f250 f386 f370
- f380
    - flags: top simplicial tricoplanar
    - owner of normal & centrum is facet f366
    - normal:        -0       -0        1
    - offset:     -0.221
    - center: -0.00993366694698731 0.00225866637710068 0.221000000834465 
    - vertices: p63(v64) p23(v57) p25(v26)
    - neighboring facets: f295 f366 f390
- f381
    - flags: bottom simplicial tricoplanar
    - owner of normal & centrum is facet f366
    - normal:        -0       -0        1
    - offset:     -0.221
    - center: -0.00993366694698731 0.00225866637710068 0.221000000834465 
    - vertices: p63(v64) p33(v38) p31(v15)
    - neighboring facets: f230 f389 f374
- f382
    - flags: bottom simplicial tricoplanar
    - owner of normal & centrum is facet f366
    - normal:        -0       -0        1
    - offset:     -0.221
    - center: -0.00993366694698731 0.00225866637710068 0.221000000834465 
    - vertices: p63(v64) p61(v53) p59(v21)
    - neighboring facets: f267 f368 f402
- f383
    - flags: bottom simplicial tricoplanar
    - owner of normal & centrum is facet f366
    - normal:        -0       -0        1
    - offset:     -0.221
    - center: -0.00993366694698731 0.00225866637710068 0.221000000834465 
    - vertices: p63(v64) p39(v54) p37(v39)
    - neighboring facets: f275 f371 f388
- f384
    - flags: top simplicial tricoplanar
    - owner of normal & centrum is facet f366
    - normal:        -0       -0        1
    - offset:     -0.221
    - center: -0.00993366694698731 0.00225866637710068 0.221000000834465 
    - vertices: p63(v64) p9(v44) p11(v17)
    - neighboring facets: f242 f395 f376
- f385
    - flags: bottom simplicial tricoplanar
    - owner of normal & centrum is facet f366
    - normal:        -0       -0        1
    - offset:     -0.221
    - center: -0.00993366694698731 0.00225866637710068 0.221000000834465 
    - vertices: p63(v64) p3(v45) p0(v2)
    - neighboring facets: f240 f398 f369
- f386
    - flags: bottom simplicial tricoplanar
    - owner of normal & centrum is facet f366
    - normal:        -0       -0        1
    - offset:     -0.221
    - center: -0.00993366694698731 0.00225866637710068 0.221000000834465 
    - vertices: p63(v64) p55(v51) p53(v7)
    - neighboring facets: f255 f379 f373
- f387
    - flags: top simplicial tricoplanar
    - owner of normal & centrum is facet f366
    - normal:        -0       -0        1
    - offset:     -0.221
    - center: -0.00993366694698731 0.00225866637710068 0.221000000834465 
    - vertices: p63(v64) p13(v63) p15(v59)
    - neighboring facets: f363 f377 f395
- f388
    - flags: top simplicial tricoplanar
    - owner of normal & centrum is facet f366
    - normal:        -0       -0        1
    - offset:     -0.221
    - center: -0.00993366694698731 0.00225866637710068 0.221000000834465 
    - vertices: p63(v64) p39(v54) p41(v5)
    - neighboring facets: f272 f394 f383
- f389
    - flags: top simplicial tricoplanar
    - owner of normal & centrum is facet f366
    - normal:        -0       -0        1
    - offset:     -0.221
    - center: -0.00993366694698731 0.00225866637710068 0.221000000834465 
    - vertices: p63(v64) p29(v56) p31(v15)
    - neighboring facets: f283 f381 f375
- f390
    - flags: bottom simplicial tricoplanar
    - owner of normal & centrum is facet f366
    - normal:        -0       -0        1
    - offset:     -0.221
    - center: -0.00993366694698731 0.00225866637710068 0.221000000834465 
    - vertices: p63(v64) p23(v57) p21(v9)
    - neighboring facets: f292 f393 f380
- f391
    - flags: top simplicial tricoplanar
    - owner of normal & centrum is facet f366
    - normal:        -0       -0        1
    - offset:     -0.221
    - center: -0.00993366694698731 0.00225866637710068 0.221000000834465 
    - vertices: p63(v64) p5(v58) p7(v28)
    - neighboring facets: f299 f376 f369
- f392
    - flags: top simplicial tricoplanar
    - owner of normal & centrum is facet f366
    - normal:        -0       -0        1
    - offset:     -0.221
    - center: -0.00993366694698731 0.00225866637710068 0.221000000834465 
    - vertices: p63(v64) p43(v61) p45(v32)
    - neighboring facets: f322 f372 f394
- f393
    - flags: top simplicial tricoplanar
    - owner of normal & centrum is facet f366
    - normal:        -0       -0        1
    - offset:     -0.221
    - center: -0.00993366694698731 0.00225866637710068 0.221000000834465 
    - vertices: p63(v64) p19(v60) p21(v9)
    - neighboring facets: f311 f390 f378
- f394
    - flags: bottom simplicial tricoplanar
    - owner of normal & centrum is facet f366
    - normal:        -0       -0        1
    - offset:     -0.221
    - center: -0.00993366694698731 0.00225866637710068 0.221000000834465 
    - vertices: p63(v64) p43(v61) p41(v5)
    - neighboring facets: f319 f388 f392
- f395
    - flags: bottom simplicial tricoplanar
    - owner of normal & centrum is facet f366
    - normal:        -0       -0        1
    - offset:     -0.221
    - center: -0.00993366694698731 0.00225866637710068 0.221000000834465 
    - vertices: p63(v64) p13(v63) p11(v17)
    - neighboring facets: f359 f384 f387
- f398
    - flags: top simplicial tricoplanar keepcentrum
    - owner of normal & centrum is facet f398
    - normal:  -0.09804   0.9952        0
    - offset: -0.04013373
    - center: -0.003933500032871962 0.03994050063192844      0 
    - vertices: p63(v64) p2(v6) p0(v2)
    - neighboring facets: f240 f385 f399
- f399
    - flags: top simplicial tricoplanar
    - owner of normal & centrum is facet f398
    - normal:  -0.09804   0.9952        0
    - offset: -0.04013373
    - center: -0.003933500032871962 0.03994050063192844      0 
    - vertices: p63(v64) p62(v62) p2(v6)
    - neighboring facets: f340 f398 f403
- f402
    - flags: top simplicial tricoplanar keepcentrum
    - owner of normal & centrum is facet f402
    - normal:   -0.2903   0.9569        0
    - offset: -0.04013359
    - center: -0.01165000023320317 0.03840550035238266      0 
    - vertices: p63(v64) p61(v53) p60(v36)
    - neighboring facets: f266 f403 f382
- f403
    - flags: bottom simplicial tricoplanar
    - owner of normal & centrum is facet f402
    - normal:   -0.2903   0.9569        0
    - offset: -0.04013359
    - center: -0.01165000023320317 0.03840550035238266      0 
    - vertices: p63(v64) p62(v62) p60(v36)
    - neighboring facets: f334 f402 f399
