3
64 124 186
     0 0.0226840004324913 0.04675000160932541 
0.004424999933689833 0.02224799990653992 -0.04675000160932541 
     0 0.0226840004324913 -0.04675000160932541 
0.004424999933689833 0.02224799990653992 0.04675000160932541 
0.008681000210344791 0.02095800079405308 -0.04675000160932541 
0.008681000210344791 0.02095800079405308 0.04675000160932541 
0.01260299980640411 0.01886099949479103 -0.04675000160932541 
0.01260299980640411 0.01886099949479103 0.04675000160932541 
0.01603999920189381 0.01603999920189381 -0.04675000160932541 
0.01603999920189381 0.01603999920189381 0.04675000160932541 
0.01886099949479103 0.01260299980640411 -0.04675000160932541 
0.01886099949479103 0.01260299980640411 0.04675000160932541 
0.02095800079405308 0.008681000210344791 -0.04675000160932541 
0.02095800079405308 0.008681000210344791 0.04675000160932541 
0.02224799990653992 0.004424999933689833 -0.04675000160932541 
0.02224799990653992 0.004424999933689833 0.04675000160932541 
0.0226840004324913      0 -0.04675000160932541 
0.0226840004324913      0 0.04675000160932541 
0.02224799990653992 -0.004424999933689833 -0.04675000160932541 
0.02224799990653992 -0.004424999933689833 0.04675000160932541 
0.02095800079405308 -0.008681000210344791 -0.04675000160932541 
0.02095800079405308 -0.008681000210344791 0.04675000160932541 
0.01886099949479103 -0.01260299980640411 -0.04675000160932541 
0.01886099949479103 -0.01260299980640411 0.04675000160932541 
0.01603999920189381 -0.01603999920189381 -0.04675000160932541 
0.01603999920189381 -0.01603999920189381 0.04675000160932541 
0.01260299980640411 -0.01886099949479103 -0.04675000160932541 
0.01260299980640411 -0.01886099949479103 0.04675000160932541 
0.008681000210344791 -0.02095800079405308 -0.04675000160932541 
0.008681000210344791 -0.02095800079405308 0.04675000160932541 
0.004424999933689833 -0.02224799990653992 -0.04675000160932541 
0.004424999933689833 -0.02224799990653992 0.04675000160932541 
     0 -0.0226840004324913 -0.04675000160932541 
     0 -0.0226840004324913 0.04675000160932541 
-0.004424999933689833 -0.02224799990653992 -0.04675000160932541 
-0.004424999933689833 -0.02224799990653992 0.04675000160932541 
-0.008681000210344791 -0.02095800079405308 -0.04675000160932541 
-0.008681000210344791 -0.02095800079405308 0.04675000160932541 
-0.01260299980640411 -0.01886099949479103 -0.04675000160932541 
-0.01260299980640411 -0.01886099949479103 0.04675000160932541 
-0.01603999920189381 -0.01603999920189381 -0.04675000160932541 
-0.01603999920189381 -0.01603999920189381 0.04675000160932541 
-0.01886099949479103 -0.01260299980640411 -0.04675000160932541 
-0.01886099949479103 -0.01260299980640411 0.04675000160932541 
-0.02095800079405308 -0.008681000210344791 -0.04675000160932541 
-0.02095800079405308 -0.008681000210344791 0.04675000160932541 
-0.02224799990653992 -0.004424999933689833 -0.04675000160932541 
-0.02224799990653992 -0.004424999933689833 0.04675000160932541 
-0.0226840004324913      0 -0.04675000160932541 
-0.0226840004324913      0 0.04675000160932541 
-0.02224799990653992 0.00442600017413497 -0.04675000160932541 
-0.02224799990653992 0.00442600017413497 0.04675000160932541 
-0.02095800079405308 0.008681000210344791 -0.04675000160932541 
-0.02095800079405308 0.008681000210344791 0.04675000160932541 
-0.01886099949479103 0.01260299980640411 -0.04675000160932541 
-0.01886099949479103 0.01260299980640411 0.04675000160932541 
-0.01603999920189381 0.01603999920189381 -0.04675000160932541 
-0.01603999920189381 0.01603999920189381 0.04675000160932541 
-0.01260299980640411 0.01886099949479103 -0.04675000160932541 
-0.01260299980640411 0.01886099949479103 0.04675000160932541 
-0.008681000210344791 0.02095800079405308 -0.04675000160932541 
-0.008681000210344791 0.02095800079405308 0.04675000160932541 
-0.004424999933689833 0.02224799990653992 -0.04675000160932541 
-0.004424999933689833 0.02224799990653992 0.04675000160932541 
3 46 49 47 
3 49 46 48 
3 46 45 44 
3 45 46 47 
3 34 33 32 
3 33 34 35 
3 37 34 36 
3 34 37 35 
3 30 33 31 
3 33 30 32 
3 30 29 28 
3 29 30 31 
3 9 6 8 
3 6 9 7 
3 6 5 4 
3 5 6 7 
3 9 10 11 
3 10 9 8 
3 54 55 52 
3 52 55 53 
3 50 49 48 
3 50 51 49 
3 51 50 53 
3 50 52 53 
3 61 58 60 
3 58 61 59 
3 39 38 40 
3 39 40 41 
3 38 39 36 
3 39 37 36 
3 26 27 24 
3 27 25 24 
3 27 26 28 
3 29 27 28 
3 22 23 20 
3 20 23 21 
3 23 22 24 
3 25 23 24 
3 1 3 2 
3 2 3 0 
3 3 1 4 
3 5 3 4 
3 15 14 17 
3 17 14 16 
3 13 10 12 
3 10 13 11 
3 14 13 12 
3 13 14 15 
3 19 18 20 
3 19 20 21 
3 18 19 16 
3 19 17 16 
3 42 43 40 
3 40 43 41 
3 45 43 44 
3 43 42 44 
3 58 57 56 
3 57 58 59 
3 57 54 56 
3 57 55 54 
3 62 46 44 
3 62 54 52 
3 26 62 28 
3 62 22 20 
3 1 62 4 
3 18 62 20 
3 50 62 52 
3 62 38 36 
3 62 30 28 
3 62 6 4 
3 42 62 44 
3 38 62 40 
3 10 62 12 
3 34 62 36 
3 62 1 2 
3 58 62 60 
3 46 62 48 
3 54 62 56 
3 62 14 12 
3 62 34 32 
3 30 62 32 
3 62 26 24 
3 22 62 24 
3 6 62 8 
3 62 10 8 
3 62 18 16 
3 62 42 40 
3 62 50 48 
3 62 58 56 
3 14 62 16 
3 39 63 37 
3 49 63 47 
3 51 63 49 
3 63 5 7 
3 63 15 17 
3 37 63 35 
3 63 45 47 
3 63 43 45 
3 63 33 35 
3 63 27 29 
3 9 63 7 
3 63 13 15 
3 19 63 17 
3 63 51 53 
3 33 63 31 
3 61 63 59 
3 63 29 31 
3 63 9 11 
3 63 23 25 
3 63 3 5 
3 55 63 53 
3 57 63 55 
3 63 39 41 
3 27 63 25 
3 23 63 21 
3 3 63 0 
3 13 63 11 
3 63 19 21 
3 43 63 41 
3 63 57 59 
3 63 2 0 
3 63 62 2 
3 63 61 60 
3 62 63 60 
Vertices and facets:
- p46(v31): -0.022 -0.0044 -0.047
  neighbors: f213 f214 f217 f218 f333 f349
- p49(v18): -0.023     0 0.047
  neighbors: f213 f214 f253 f254 f366 f367
- p47(v11): -0.022 -0.0044 0.047
  neighbors: f213 f218 f366 f371
- p48(v0): -0.023     0 -0.047
  neighbors: f214 f253 f349 f360
- p45(v32): -0.021 -0.0087 0.047
  neighbors: f217 f218 f321 f371 f372
- p44(v19): -0.021 -0.0087 -0.047
  neighbors: f217 f321 f322 f333 f343
- p33(v37):     0 -0.023 0.047
  neighbors: f221 f223 f229 f230 f373 f379
- p34(v36): -0.0044 -0.022 -0.047
  neighbors: f221 f223 f225 f226 f346 f352
- p32(v3):     0 -0.023 -0.047
  neighbors: f221 f230 f352 f353
- p35(v24): -0.0044 -0.022 0.047
  neighbors: f223 f226 f370 f373
- p37(v38): -0.0087 -0.021 0.047
  neighbors: f225 f226 f270 f365 f370
- p36(v13): -0.0087 -0.021 -0.047
  neighbors: f225 f269 f270 f340 f346
- p30(v39): 0.0044 -0.022 -0.047
  neighbors: f229 f230 f233 f234 f341 f353
- p31(v15): 0.0044 -0.022 0.047
  neighbors: f229 f234 f379 f381
- p29(v41): 0.0087 -0.021 0.047
  neighbors: f233 f234 f278 f374 f381
- p28(v25): 0.0087 -0.021 -0.047
  neighbors: f233 f277 f278 f335 f341
- p9(v44): 0.016 0.016 0.047
  neighbors: f237 f239 f245 f246 f375 f382
- p6(v43): 0.013 0.019 -0.047
  neighbors: f237 f239 f241 f242 f342 f356
- p8(v10): 0.016 0.016 -0.047
  neighbors: f237 f246 f356 f357
- p7(v28): 0.013 0.019 0.047
  neighbors: f239 f242 f368 f375
- p5(v45): 0.0087 0.021 0.047
  neighbors: f241 f242 f294 f368 f384
- p4(v16): 0.0087 0.021 -0.047
  neighbors: f241 f293 f294 f337 f342
- p10(v46): 0.019 0.013 -0.047
  neighbors: f245 f246 f301 f302 f345 f357
- p11(v17): 0.019 0.013 0.047
  neighbors: f245 f302 f382 f391
- p55(v50): -0.019 0.013 0.047
  neighbors: f249 f251 f330 f385 f386
- p54(v33): -0.019 0.013 -0.047
  neighbors: f249 f329 f330 f334 f350
- p52(v20): -0.021 0.0087 -0.047
  neighbors: f249 f251 f258 f334 f339
- p53(v7): -0.021 0.0087 0.047
  neighbors: f251 f257 f258 f378 f385
- p50(v51): -0.022 0.0044 -0.047
  neighbors: f253 f254 f257 f258 f339 f360
- p51(v34): -0.022 0.0044 0.047
  neighbors: f254 f257 f367 f378
- p61(v53): -0.0087 0.021 0.047
  neighbors: f261 f263 f380 f401
- p58(v52): -0.013 0.019 -0.047
  neighbors: f261 f263 f325 f326 f348 f361
- p60(v35): -0.0087 0.021 -0.047
  neighbors: f261 f348 f401 f402
- p59(v21): -0.013 0.019 0.047
  neighbors: f263 f326 f380 f394
- p39(v54): -0.013 -0.019 0.047
  neighbors: f265 f267 f269 f270 f365 f387
- p38(v22): -0.013 -0.019 -0.047
  neighbors: f265 f269 f340 f344
- p40(v8): -0.016 -0.016 -0.047
  neighbors: f265 f267 f317 f318 f344 f359
- p41(v5): -0.016 -0.016 0.047
  neighbors: f267 f318 f387 f393
- p27(v55): 0.013 -0.019 0.047
  neighbors: f273 f275 f277 f278 f374 f388
- p26(v40): 0.013 -0.019 -0.047
  neighbors: f273 f277 f335 f354
- p24(v14): 0.016 -0.016 -0.047
  neighbors: f273 f275 f285 f286 f354 f355
- p25(v26): 0.016 -0.016 0.047
  neighbors: f275 f286 f383 f388
- p23(v56): 0.019 -0.013 0.047
  neighbors: f281 f283 f285 f286 f383 f389
- p22(v42): 0.019 -0.013 -0.047
  neighbors: f281 f285 f336 f355
- p20(v23): 0.021 -0.0087 -0.047
  neighbors: f281 f283 f309 f310 f336 f338
- p21(v9): 0.021 -0.0087 0.047
  neighbors: f283 f310 f389 f392
- p3(v57): 0.0044 0.022 0.047
  neighbors: f289 f290 f293 f294 f384 f390
- p1(v27): 0.0044 0.022 -0.047
  neighbors: f289 f293 f337 f347
- p2(v6):     0 0.023 -0.047
  neighbors: f289 f290 f347 f397 f398
- p0(v2):     0 0.023 0.047
  neighbors: f290 f390 f397
- p14(v58): 0.022 0.0044 -0.047
  neighbors: f297 f299 f305 f306 f351 f362
- p15(v47): 0.022 0.0044 0.047
  neighbors: f297 f306 f369 f376
- p17(v30): 0.023     0 0.047
  neighbors: f297 f299 f314 f369 f377
- p16(v1): 0.023     0 -0.047
  neighbors: f299 f313 f314 f358 f362
- p13(v59): 0.021 0.0087 0.047
  neighbors: f301 f302 f305 f306 f376 f391
- p12(v29): 0.021 0.0087 -0.047
  neighbors: f301 f305 f345 f351
- p19(v60): 0.022 -0.0044 0.047
  neighbors: f309 f310 f313 f314 f377 f392
- p18(v48): 0.022 -0.0044 -0.047
  neighbors: f309 f313 f338 f358
- p43(v61): -0.019 -0.013 0.047
  neighbors: f317 f318 f321 f322 f372 f393
- p42(v49): -0.019 -0.013 -0.047
  neighbors: f317 f322 f343 f359
- p57(v62): -0.016 0.016 0.047
  neighbors: f325 f326 f329 f330 f386 f394
- p56(v12): -0.016 0.016 -0.047
  neighbors: f325 f329 f350 f361
- p62(v63): -0.0044 0.022 -0.047
  neighbors: f333 f334 f335 f336 f337 f338 f339 f340 f341 f342 f343 f344 f345 f346 f347 f348 f349 f350 f351 f352 f353 f354 f355 f356 f357 f358 f359 f360 f361 f362 f398 f402
- p63(v64): -0.0044 0.022 0.047
  neighbors: f365 f366 f367 f368 f369 f370 f371 f372 f373 f374 f375 f376 f377 f378 f379 f380 f381 f382 f383 f384 f385 f386 f387 f388 f389 f390 f391 f392 f393 f394 f397 f398 f401 f402
- f213
    - flags: top simplicial tricoplanar seen keepcentrum
    - owner of normal & centrum is facet f213
    - normal:   -0.9952 -0.09806       -0
    - offset: -0.02257468
    - center: -0.02246600016951561 -0.002212499966844916      0 
    - vertices: p46(v31) p49(v18) p47(v11)
    - neighboring facets: f366 f218 f214
- f214
    - flags: bottom simplicial tricoplanar seen
    - owner of normal & centrum is facet f213
    - normal:   -0.9952 -0.09806       -0
    - offset: -0.02257468
    - center: -0.02246600016951561 -0.002212499966844916      0 
    - vertices: p46(v31) p49(v18) p48(v0)
    - neighboring facets: f253 f349 f213
- f217
    - flags: bottom simplicial tricoplanar seen keepcentrum
    - owner of normal & centrum is facet f217
    - normal:    -0.957  -0.2901        0
    - offset: -0.02257502
    - center: -0.02160300035029649 -0.006553000072017311      0 
    - vertices: p45(v32) p46(v31) p44(v19)
    - neighboring facets: f333 f321 f218
- f218
    - flags: top simplicial tricoplanar
    - owner of normal & centrum is facet f217
    - normal:    -0.957  -0.2901        0
    - offset: -0.02257502
    - center: -0.02160300035029649 -0.006553000072017311      0 
    - vertices: p45(v32) p46(v31) p47(v11)
    - neighboring facets: f213 f371 f217
- f221
    - flags: bottom simplicial tricoplanar seen keepcentrum
    - owner of normal & centrum is facet f221
    - normal:  -0.09806  -0.9952        0
    - offset: -0.02257468
    - center: -0.002212499966844916 -0.02246600016951561      0 
    - vertices: p33(v37) p34(v36) p32(v3)
    - neighboring facets: f352 f230 f223
- f223
    - flags: top simplicial tricoplanar seen
    - owner of normal & centrum is facet f221
    - normal:  -0.09806  -0.9952        0
    - offset: -0.02257468
    - center: -0.002212499966844916 -0.02246600016951561      0 
    - vertices: p33(v37) p34(v36) p35(v24)
    - neighboring facets: f226 f373 f221
- f225
    - flags: top simplicial tricoplanar seen keepcentrum
    - owner of normal & centrum is facet f225
    - normal:   -0.2901   -0.957        0
    - offset: -0.02257502
    - center: -0.006553000072017311 -0.02160300035029649      0 
    - vertices: p37(v38) p34(v36) p36(v13)
    - neighboring facets: f346 f270 f226
- f226
    - flags: bottom simplicial tricoplanar
    - owner of normal & centrum is facet f225
    - normal:   -0.2901   -0.957        0
    - offset: -0.02257502
    - center: -0.006553000072017311 -0.02160300035029649      0 
    - vertices: p37(v38) p34(v36) p35(v24)
    - neighboring facets: f223 f370 f225
- f229
    - flags: top simplicial tricoplanar seen keepcentrum
    - owner of normal & centrum is facet f229
    - normal:   0.09806  -0.9952        0
    - offset: -0.02257468
    - center: 0.002212499966844916 -0.02246600016951561      0 
    - vertices: p30(v39) p33(v37) p31(v15)
    - neighboring facets: f379 f234 f230
- f230
    - flags: bottom simplicial tricoplanar
    - owner of normal & centrum is facet f229
    - normal:   0.09806  -0.9952        0
    - offset: -0.02257468
    - center: 0.002212499966844916 -0.02246600016951561      0 
    - vertices: p30(v39) p33(v37) p32(v3)
    - neighboring facets: f221 f353 f229
- f233
    - flags: bottom simplicial tricoplanar seen keepcentrum
    - owner of normal & centrum is facet f233
    - normal:    0.2901   -0.957       -0
    - offset: -0.02257502
    - center: 0.006553000072017311 -0.02160300035029649      0 
    - vertices: p29(v41) p30(v39) p28(v25)
    - neighboring facets: f341 f278 f234
- f234
    - flags: top simplicial tricoplanar
    - owner of normal & centrum is facet f233
    - normal:    0.2901   -0.957       -0
    - offset: -0.02257502
    - center: 0.006553000072017311 -0.02160300035029649      0 
    - vertices: p29(v41) p30(v39) p31(v15)
    - neighboring facets: f229 f381 f233
- f237
    - flags: top simplicial tricoplanar seen keepcentrum
    - owner of normal & centrum is facet f237
    - normal:    0.6344    0.773       -0
    - offset: -0.02257488
    - center: 0.01432149950414896 0.01745049934834242      0 
    - vertices: p9(v44) p6(v43) p8(v10)
    - neighboring facets: f356 f246 f239
- f239
    - flags: bottom simplicial tricoplanar seen
    - owner of normal & centrum is facet f237
    - normal:    0.6344    0.773       -0
    - offset: -0.02257488
    - center: 0.01432149950414896 0.01745049934834242      0 
    - vertices: p9(v44) p6(v43) p7(v28)
    - neighboring facets: f242 f375 f237
- f241
    - flags: bottom simplicial tricoplanar seen keepcentrum
    - owner of normal & centrum is facet f241
    - normal:    0.4715   0.8819       -0
    - offset: -0.02257522
    - center: 0.01064200000837445 0.01990950014442205      0 
    - vertices: p5(v45) p6(v43) p4(v16)
    - neighboring facets: f342 f294 f242
- f242
    - flags: top simplicial tricoplanar
    - owner of normal & centrum is facet f241
    - normal:    0.4715   0.8819       -0
    - offset: -0.02257522
    - center: 0.01064200000837445 0.01990950014442205      0 
    - vertices: p5(v45) p6(v43) p7(v28)
    - neighboring facets: f239 f368 f241
- f245
    - flags: bottom simplicial tricoplanar seen keepcentrum
    - owner of normal & centrum is facet f245
    - normal:     0.773   0.6344        0
    - offset: -0.02257488
    - center: 0.01745049934834242 0.01432149950414896      0 
    - vertices: p10(v46) p9(v44) p11(v17)
    - neighboring facets: f382 f302 f246
- f246
    - flags: top simplicial tricoplanar
    - owner of normal & centrum is facet f245
    - normal:     0.773   0.6344        0
    - offset: -0.02257488
    - center: 0.01745049934834242 0.01432149950414896      0 
    - vertices: p10(v46) p9(v44) p8(v10)
    - neighboring facets: f237 f357 f245
- f249
    - flags: bottom simplicial tricoplanar seen keepcentrum
    - owner of normal & centrum is facet f249
    - normal:   -0.8819   0.4715       -0
    - offset: -0.02257522
    - center: -0.01990950014442205 0.01064200000837445      0 
    - vertices: p55(v50) p54(v33) p52(v20)
    - neighboring facets: f334 f251 f330
- f251
    - flags: bottom simplicial tricoplanar seen
    - owner of normal & centrum is facet f249
    - normal:   -0.8819   0.4715       -0
    - offset: -0.02257522
    - center: -0.01990950014442205 0.01064200000837445      0 
    - vertices: p55(v50) p52(v20) p53(v7)
    - neighboring facets: f258 f385 f249
- f253
    - flags: top simplicial tricoplanar keepcentrum
    - owner of normal & centrum is facet f253
    - normal:   -0.9952  0.09803        0
    - offset: -0.02257473
    - center: -0.02246600016951561 0.002213000087067485      0 
    - vertices: p50(v51) p49(v18) p48(v0)
    - neighboring facets: f214 f360 f254
- f254
    - flags: top simplicial tricoplanar seen
    - owner of normal & centrum is facet f253
    - normal:   -0.9952  0.09803        0
    - offset: -0.02257473
    - center: -0.02246600016951561 0.002213000087067485      0 
    - vertices: p50(v51) p51(v34) p49(v18)
    - neighboring facets: f367 f253 f257
- f257
    - flags: bottom simplicial tricoplanar seen keepcentrum
    - owner of normal & centrum is facet f257
    - normal:    -0.957   0.2901        0
    - offset: -0.02257516
    - center: -0.02160300035029649 0.00655350019223988      0 
    - vertices: p50(v51) p51(v34) p53(v7)
    - neighboring facets: f378 f258 f254
- f258
    - flags: top simplicial tricoplanar
    - owner of normal & centrum is facet f257
    - normal:    -0.957   0.2901        0
    - offset: -0.02257516
    - center: -0.02160300035029649 0.00655350019223988      0 
    - vertices: p50(v51) p52(v20) p53(v7)
    - neighboring facets: f251 f257 f339
- f261
    - flags: top simplicial tricoplanar seen keepcentrum
    - owner of normal & centrum is facet f261
    - normal:   -0.4715   0.8819        0
    - offset: -0.02257522
    - center: -0.01064200000837445 0.01990950014442205      0 
    - vertices: p61(v53) p58(v52) p60(v35)
    - neighboring facets: f348 f401 f263
- f263
    - flags: bottom simplicial tricoplanar seen
    - owner of normal & centrum is facet f261
    - normal:   -0.4715   0.8819        0
    - offset: -0.02257522
    - center: -0.01064200000837445 0.01990950014442205      0 
    - vertices: p61(v53) p58(v52) p59(v21)
    - neighboring facets: f326 f380 f261
- f265
    - flags: top simplicial tricoplanar seen keepcentrum
    - owner of normal & centrum is facet f265
    - normal:   -0.6344   -0.773        0
    - offset: -0.02257488
    - center: -0.01432149950414896 -0.01745049934834242      0 
    - vertices: p39(v54) p38(v22) p40(v8)
    - neighboring facets: f344 f267 f269
- f267
    - flags: top simplicial tricoplanar seen
    - owner of normal & centrum is facet f265
    - normal:   -0.6344   -0.773        0
    - offset: -0.02257488
    - center: -0.01432149950414896 -0.01745049934834242      0 
    - vertices: p39(v54) p40(v8) p41(v5)
    - neighboring facets: f318 f387 f265
- f269
    - flags: bottom simplicial tricoplanar seen keepcentrum
    - owner of normal & centrum is facet f269
    - normal:   -0.4715  -0.8819       -0
    - offset: -0.02257522
    - center: -0.01064200000837445 -0.01990950014442205      0 
    - vertices: p39(v54) p38(v22) p36(v13)
    - neighboring facets: f340 f270 f265
- f270
    - flags: top simplicial tricoplanar
    - owner of normal & centrum is facet f269
    - normal:   -0.4715  -0.8819       -0
    - offset: -0.02257522
    - center: -0.01064200000837445 -0.01990950014442205      0 
    - vertices: p39(v54) p37(v38) p36(v13)
    - neighboring facets: f225 f269 f365
- f273
    - flags: bottom simplicial tricoplanar seen keepcentrum
    - owner of normal & centrum is facet f273
    - normal:    0.6344   -0.773        0
    - offset: -0.02257488
    - center: 0.01432149950414896 -0.01745049934834242      0 
    - vertices: p27(v55) p26(v40) p24(v14)
    - neighboring facets: f354 f275 f277
- f275
    - flags: top simplicial tricoplanar seen
    - owner of normal & centrum is facet f273
    - normal:    0.6344   -0.773        0
    - offset: -0.02257488
    - center: 0.01432149950414896 -0.01745049934834242      0 
    - vertices: p27(v55) p25(v26) p24(v14)
    - neighboring facets: f286 f273 f388
- f277
    - flags: top simplicial tricoplanar seen keepcentrum
    - owner of normal & centrum is facet f277
    - normal:    0.4715  -0.8819        0
    - offset: -0.02257522
    - center: 0.01064200000837445 -0.01990950014442205      0 
    - vertices: p27(v55) p26(v40) p28(v25)
    - neighboring facets: f335 f278 f273
- f278
    - flags: bottom simplicial tricoplanar
    - owner of normal & centrum is facet f277
    - normal:    0.4715  -0.8819        0
    - offset: -0.02257522
    - center: 0.01064200000837445 -0.01990950014442205      0 
    - vertices: p27(v55) p29(v41) p28(v25)
    - neighboring facets: f233 f277 f374
- f281
    - flags: bottom simplicial tricoplanar seen keepcentrum
    - owner of normal & centrum is facet f281
    - normal:    0.8819  -0.4715       -0
    - offset: -0.02257522
    - center: 0.01990950014442205 -0.01064200000837445      0 
    - vertices: p23(v56) p22(v42) p20(v23)
    - neighboring facets: f336 f283 f285
- f283
    - flags: bottom simplicial tricoplanar seen
    - owner of normal & centrum is facet f281
    - normal:    0.8819  -0.4715       -0
    - offset: -0.02257522
    - center: 0.01990950014442205 -0.01064200000837445      0 
    - vertices: p23(v56) p20(v23) p21(v9)
    - neighboring facets: f310 f389 f281
- f285
    - flags: top simplicial tricoplanar seen keepcentrum
    - owner of normal & centrum is facet f285
    - normal:     0.773  -0.6344       -0
    - offset: -0.02257488
    - center: 0.01745049934834242 -0.01432149950414896      0 
    - vertices: p23(v56) p22(v42) p24(v14)
    - neighboring facets: f355 f286 f281
- f286
    - flags: bottom simplicial tricoplanar
    - owner of normal & centrum is facet f285
    - normal:     0.773  -0.6344       -0
    - offset: -0.02257488
    - center: 0.01745049934834242 -0.01432149950414896      0 
    - vertices: p23(v56) p25(v26) p24(v14)
    - neighboring facets: f275 f285 f383
- f289
    - flags: bottom simplicial tricoplanar seen keepcentrum
    - owner of normal & centrum is facet f289
    - normal:   0.09806   0.9952       -0
    - offset: -0.02257468
    - center: 0.002212499966844916 0.02246600016951561      0 
    - vertices: p3(v57) p1(v27) p2(v6)
    - neighboring facets: f347 f290 f293
- f290
    - flags: bottom simplicial tricoplanar seen
    - owner of normal & centrum is facet f289
    - normal:   0.09806   0.9952       -0
    - offset: -0.02257468
    - center: 0.002212499966844916 0.02246600016951561      0 
    - vertices: p3(v57) p2(v6) p0(v2)
    - neighboring facets: f397 f390 f289
- f293
    - flags: top simplicial tricoplanar seen keepcentrum
    - owner of normal & centrum is facet f293
    - normal:    0.2901    0.957        0
    - offset: -0.02257502
    - center: 0.006553000072017311 0.02160300035029649      0 
    - vertices: p3(v57) p1(v27) p4(v16)
    - neighboring facets: f337 f294 f289
- f294
    - flags: bottom simplicial tricoplanar
    - owner of normal & centrum is facet f293
    - normal:    0.2901    0.957        0
    - offset: -0.02257502
    - center: 0.006553000072017311 0.02160300035029649      0 
    - vertices: p3(v57) p5(v45) p4(v16)
    - neighboring facets: f241 f293 f384
- f297
    - flags: bottom simplicial tricoplanar seen keepcentrum
    - owner of normal & centrum is facet f297
    - normal:    0.9952  0.09806       -0
    - offset: -0.02257468
    - center: 0.02246600016951561 0.002212499966844916      0 
    - vertices: p14(v58) p15(v47) p17(v30)
    - neighboring facets: f369 f299 f306
- f299
    - flags: bottom simplicial tricoplanar seen
    - owner of normal & centrum is facet f297
    - normal:    0.9952  0.09806       -0
    - offset: -0.02257468
    - center: 0.02246600016951561 0.002212499966844916      0 
    - vertices: p14(v58) p17(v30) p16(v1)
    - neighboring facets: f314 f362 f297
- f301
    - flags: top simplicial tricoplanar seen keepcentrum
    - owner of normal & centrum is facet f301
    - normal:    0.8819   0.4715       -0
    - offset: -0.02257522
    - center: 0.01990950014442205 0.01064200000837445      0 
    - vertices: p13(v59) p10(v46) p12(v29)
    - neighboring facets: f345 f305 f302
- f302
    - flags: bottom simplicial tricoplanar
    - owner of normal & centrum is facet f301
    - normal:    0.8819   0.4715       -0
    - offset: -0.02257522
    - center: 0.01990950014442205 0.01064200000837445      0 
    - vertices: p13(v59) p10(v46) p11(v17)
    - neighboring facets: f245 f391 f301
- f305
    - flags: bottom simplicial tricoplanar seen keepcentrum
    - owner of normal & centrum is facet f305
    - normal:     0.957   0.2901       -0
    - offset: -0.02257502
    - center: 0.02160300035029649 0.006553000072017311      0 
    - vertices: p13(v59) p14(v58) p12(v29)
    - neighboring facets: f351 f301 f306
- f306
    - flags: top simplicial tricoplanar
    - owner of normal & centrum is facet f305
    - normal:     0.957   0.2901       -0
    - offset: -0.02257502
    - center: 0.02160300035029649 0.006553000072017311      0 
    - vertices: p13(v59) p14(v58) p15(v47)
    - neighboring facets: f297 f376 f305
- f309
    - flags: top simplicial tricoplanar seen keepcentrum
    - owner of normal & centrum is facet f309
    - normal:     0.957  -0.2901        0
    - offset: -0.02257502
    - center: 0.02160300035029649 -0.006553000072017311      0 
    - vertices: p19(v60) p18(v48) p20(v23)
    - neighboring facets: f338 f310 f313
- f310
    - flags: top simplicial tricoplanar
    - owner of normal & centrum is facet f309
    - normal:     0.957  -0.2901        0
    - offset: -0.02257502
    - center: 0.02160300035029649 -0.006553000072017311      0 
    - vertices: p19(v60) p20(v23) p21(v9)
    - neighboring facets: f283 f392 f309
- f313
    - flags: bottom simplicial tricoplanar seen keepcentrum
    - owner of normal & centrum is facet f313
    - normal:    0.9952 -0.09806        0
    - offset: -0.02257468
    - center: 0.02246600016951561 -0.002212499966844916      0 
    - vertices: p19(v60) p18(v48) p16(v1)
    - neighboring facets: f358 f314 f309
- f314
    - flags: top simplicial tricoplanar
    - owner of normal & centrum is facet f313
    - normal:    0.9952 -0.09806        0
    - offset: -0.02257468
    - center: 0.02246600016951561 -0.002212499966844916      0 
    - vertices: p19(v60) p17(v30) p16(v1)
    - neighboring facets: f299 f313 f377
- f317
    - flags: bottom simplicial tricoplanar seen keepcentrum
    - owner of normal & centrum is facet f317
    - normal:    -0.773  -0.6344       -0
    - offset: -0.02257488
    - center: -0.01745049934834242 -0.01432149950414896      0 
    - vertices: p43(v61) p42(v49) p40(v8)
    - neighboring facets: f359 f318 f322
- f318
    - flags: bottom simplicial tricoplanar
    - owner of normal & centrum is facet f317
    - normal:    -0.773  -0.6344       -0
    - offset: -0.02257488
    - center: -0.01745049934834242 -0.01432149950414896      0 
    - vertices: p43(v61) p40(v8) p41(v5)
    - neighboring facets: f267 f393 f317
- f321
    - flags: bottom simplicial tricoplanar keepcentrum
    - owner of normal & centrum is facet f321
    - normal:   -0.8819  -0.4715       -0
    - offset: -0.02257522
    - center: -0.01990950014442205 -0.01064200000837445      0 
    - vertices: p43(v61) p45(v32) p44(v19)
    - neighboring facets: f217 f322 f372
- f322
    - flags: top simplicial tricoplanar seen
    - owner of normal & centrum is facet f321
    - normal:   -0.8819  -0.4715       -0
    - offset: -0.02257522
    - center: -0.01990950014442205 -0.01064200000837445      0 
    - vertices: p43(v61) p42(v49) p44(v19)
    - neighboring facets: f343 f321 f317
- f325
    - flags: bottom simplicial tricoplanar seen keepcentrum
    - owner of normal & centrum is facet f325
    - normal:   -0.6344    0.773        0
    - offset: -0.02257488
    - center: -0.01432149950414896 0.01745049934834242      0 
    - vertices: p57(v62) p58(v52) p56(v12)
    - neighboring facets: f361 f329 f326
- f326
    - flags: top simplicial tricoplanar
    - owner of normal & centrum is facet f325
    - normal:   -0.6344    0.773        0
    - offset: -0.02257488
    - center: -0.01432149950414896 0.01745049934834242      0 
    - vertices: p57(v62) p58(v52) p59(v21)
    - neighboring facets: f263 f394 f325
- f329
    - flags: top simplicial tricoplanar seen keepcentrum
    - owner of normal & centrum is facet f329
    - normal:    -0.773   0.6344        0
    - offset: -0.02257488
    - center: -0.01745049934834242 0.01432149950414896      0 
    - vertices: p57(v62) p54(v33) p56(v12)
    - neighboring facets: f350 f325 f330
- f330
    - flags: top simplicial tricoplanar
    - owner of normal & centrum is facet f329
    - normal:    -0.773   0.6344        0
    - offset: -0.02257488
    - center: -0.01745049934834242 0.01432149950414896      0 
    - vertices: p57(v62) p55(v50) p54(v33)
    - neighboring facets: f249 f329 f386
- f333
    - flags: top simplicial tricoplanar keepcentrum
    - owner of normal & centrum is facet f333
    - normal:         0        0       -1
    - offset:   -0.04675
    - center: -0.000964555578927199 -0.002328666754894787 -0.04675000160932541 
    - vertices: p62(v63) p46(v31) p44(v19)
    - neighboring facets: f217 f343 f349
- f334
    - flags: top simplicial tricoplanar
    - owner of normal & centrum is facet f333
    - normal:         0        0       -1
    - offset:   -0.04675
    - center: -0.000964555578927199 -0.002328666754894787 -0.04675000160932541 
    - vertices: p62(v63) p54(v33) p52(v20)
    - neighboring facets: f249 f339 f350
- f335
    - flags: bottom simplicial tricoplanar
    - owner of normal & centrum is facet f333
    - normal:         0        0       -1
    - offset:   -0.04675
    - center: -0.000964555578927199 -0.002328666754894787 -0.04675000160932541 
    - vertices: p62(v63) p26(v40) p28(v25)
    - neighboring facets: f277 f341 f354
- f336
    - flags: top simplicial tricoplanar
    - owner of normal & centrum is facet f333
    - normal:         0        0       -1
    - offset:   -0.04675
    - center: -0.000964555578927199 -0.002328666754894787 -0.04675000160932541 
    - vertices: p62(v63) p22(v42) p20(v23)
    - neighboring facets: f281 f338 f355
- f337
    - flags: bottom simplicial tricoplanar
    - owner of normal & centrum is facet f333
    - normal:         0        0       -1
    - offset:   -0.04675
    - center: -0.000964555578927199 -0.002328666754894787 -0.04675000160932541 
    - vertices: p62(v63) p1(v27) p4(v16)
    - neighboring facets: f293 f342 f347
- f338
    - flags: bottom simplicial tricoplanar
    - owner of normal & centrum is facet f333
    - normal:         0        0       -1
    - offset:   -0.04675
    - center: -0.000964555578927199 -0.002328666754894787 -0.04675000160932541 
    - vertices: p62(v63) p18(v48) p20(v23)
    - neighboring facets: f309 f336 f358
- f339
    - flags: bottom simplicial tricoplanar
    - owner of normal & centrum is facet f333
    - normal:         0        0       -1
    - offset:   -0.04675
    - center: -0.000964555578927199 -0.002328666754894787 -0.04675000160932541 
    - vertices: p62(v63) p50(v51) p52(v20)
    - neighboring facets: f258 f334 f360
- f340
    - flags: top simplicial tricoplanar
    - owner of normal & centrum is facet f333
    - normal:         0        0       -1
    - offset:   -0.04675
    - center: -0.000964555578927199 -0.002328666754894787 -0.04675000160932541 
    - vertices: p62(v63) p38(v22) p36(v13)
    - neighboring facets: f269 f346 f344
- f341
    - flags: top simplicial tricoplanar
    - owner of normal & centrum is facet f333
    - normal:         0        0       -1
    - offset:   -0.04675
    - center: -0.000964555578927199 -0.002328666754894787 -0.04675000160932541 
    - vertices: p62(v63) p30(v39) p28(v25)
    - neighboring facets: f233 f335 f353
- f342
    - flags: top simplicial tricoplanar
    - owner of normal & centrum is facet f333
    - normal:         0        0       -1
    - offset:   -0.04675
    - center: -0.000964555578927199 -0.002328666754894787 -0.04675000160932541 
    - vertices: p62(v63) p6(v43) p4(v16)
    - neighboring facets: f241 f337 f356
- f343
    - flags: bottom simplicial tricoplanar
    - owner of normal & centrum is facet f333
    - normal:         0        0       -1
    - offset:   -0.04675
    - center: -0.000964555578927199 -0.002328666754894787 -0.04675000160932541 
    - vertices: p62(v63) p42(v49) p44(v19)
    - neighboring facets: f322 f333 f359
- f344
    - flags: bottom simplicial tricoplanar
    - owner of normal & centrum is facet f333
    - normal:         0        0       -1
    - offset:   -0.04675
    - center: -0.000964555578927199 -0.002328666754894787 -0.04675000160932541 
    - vertices: p62(v63) p38(v22) p40(v8)
    - neighboring facets: f265 f359 f340
- f345
    - flags: bottom simplicial tricoplanar
    - owner of normal & centrum is facet f333
    - normal:         0        0       -1
    - offset:   -0.04675
    - center: -0.000964555578927199 -0.002328666754894787 -0.04675000160932541 
    - vertices: p62(v63) p10(v46) p12(v29)
    - neighboring facets: f301 f351 f357
- f346
    - flags: bottom simplicial tricoplanar
    - owner of normal & centrum is facet f333
    - normal:         0        0       -1
    - offset:   -0.04675
    - center: -0.000964555578927199 -0.002328666754894787 -0.04675000160932541 
    - vertices: p62(v63) p34(v36) p36(v13)
    - neighboring facets: f225 f340 f352
- f347
    - flags: top simplicial tricoplanar
    - owner of normal & centrum is facet f333
    - normal:         0        0       -1
    - offset:   -0.04675
    - center: -0.000964555578927199 -0.002328666754894787 -0.04675000160932541 
    - vertices: p62(v63) p1(v27) p2(v6)
    - neighboring facets: f289 f398 f337
- f348
    - flags: bottom simplicial tricoplanar
    - owner of normal & centrum is facet f333
    - normal:         0        0       -1
    - offset:   -0.04675
    - center: -0.000964555578927199 -0.002328666754894787 -0.04675000160932541 
    - vertices: p62(v63) p58(v52) p60(v35)
    - neighboring facets: f261 f402 f361
- f349
    - flags: bottom simplicial tricoplanar
    - owner of normal & centrum is facet f333
    - normal:         0        0       -1
    - offset:   -0.04675
    - center: -0.000964555578927199 -0.002328666754894787 -0.04675000160932541 
    - vertices: p62(v63) p46(v31) p48(v0)
    - neighboring facets: f214 f360 f333
- f350
    - flags: bottom simplicial tricoplanar
    - owner of normal & centrum is facet f333
    - normal:         0        0       -1
    - offset:   -0.04675
    - center: -0.000964555578927199 -0.002328666754894787 -0.04675000160932541 
    - vertices: p62(v63) p54(v33) p56(v12)
    - neighboring facets: f329 f361 f334
- f351
    - flags: top simplicial tricoplanar
    - owner of normal & centrum is facet f333
    - normal:         0        0       -1
    - offset:   -0.04675
    - center: -0.000964555578927199 -0.002328666754894787 -0.04675000160932541 
    - vertices: p62(v63) p14(v58) p12(v29)
    - neighboring facets: f305 f345 f362
- f352
    - flags: top simplicial tricoplanar
    - owner of normal & centrum is facet f333
    - normal:         0        0       -1
    - offset:   -0.04675
    - center: -0.000964555578927199 -0.002328666754894787 -0.04675000160932541 
    - vertices: p62(v63) p34(v36) p32(v3)
    - neighboring facets: f221 f353 f346
- f353
    - flags: bottom simplicial tricoplanar
    - owner of normal & centrum is facet f333
    - normal:         0        0       -1
    - offset:   -0.04675
    - center: -0.000964555578927199 -0.002328666754894787 -0.04675000160932541 
    - vertices: p62(v63) p30(v39) p32(v3)
    - neighboring facets: f230 f352 f341
- f354
    - flags: top simplicial tricoplanar
    - owner of normal & centrum is facet f333
    - normal:         0        0       -1
    - offset:   -0.04675
    - center: -0.000964555578927199 -0.002328666754894787 -0.04675000160932541 
    - vertices: p62(v63) p26(v40) p24(v14)
    - neighboring facets: f273 f355 f335
- f355
    - flags: bottom simplicial tricoplanar
    - owner of normal & centrum is facet f333
    - normal:         0        0       -1
    - offset:   -0.04675
    - center: -0.000964555578927199 -0.002328666754894787 -0.04675000160932541 
    - vertices: p62(v63) p22(v42) p24(v14)
    - neighboring facets: f285 f354 f336
- f356
    - flags: bottom simplicial tricoplanar
    - owner of normal & centrum is facet f333
    - normal:         0        0       -1
    - offset:   -0.04675
    - center: -0.000964555578927199 -0.002328666754894787 -0.04675000160932541 
    - vertices: p62(v63) p6(v43) p8(v10)
    - neighboring facets: f237 f357 f342
- f357
    - flags: top simplicial tricoplanar
    - owner of normal & centrum is facet f333
    - normal:         0        0       -1
    - offset:   -0.04675
    - center: -0.000964555578927199 -0.002328666754894787 -0.04675000160932541 
    - vertices: p62(v63) p10(v46) p8(v10)
    - neighboring facets: f246 f356 f345
- f358
    - flags: top simplicial tricoplanar
    - owner of normal & centrum is facet f333
    - normal:         0        0       -1
    - offset:   -0.04675
    - center: -0.000964555578927199 -0.002328666754894787 -0.04675000160932541 
    - vertices: p62(v63) p18(v48) p16(v1)
    - neighboring facets: f313 f362 f338
- f359
    - flags: top simplicial tricoplanar
    - owner of normal & centrum is facet f333
    - normal:         0        0       -1
    - offset:   -0.04675
    - center: -0.000964555578927199 -0.002328666754894787 -0.04675000160932541 
    - vertices: p62(v63) p42(v49) p40(v8)
    - neighboring facets: f317 f344 f343
- f360
    - flags: top simplicial tricoplanar
    - owner of normal & centrum is facet f333
    - normal:         0        0       -1
    - offset:   -0.04675
    - center: -0.000964555578927199 -0.002328666754894787 -0.04675000160932541 
    - vertices: p62(v63) p50(v51) p48(v0)
    - neighboring facets: f253 f349 f339
- f361
    - flags: top simplicial tricoplanar
    - owner of normal & centrum is facet f333
    - normal:         0        0       -1
    - offset:   -0.04675
    - center: -0.000964555578927199 -0.002328666754894787 -0.04675000160932541 
    - vertices: p62(v63) p58(v52) p56(v12)
    - neighboring facets: f325 f350 f348
- f362
    - flags: bottom simplicial tricoplanar
    - owner of normal & centrum is facet f333
    - normal:         0        0       -1
    - offset:   -0.04675
    - center: -0.000964555578927199 -0.002328666754894787 -0.04675000160932541 
    - vertices: p62(v63) p14(v58) p16(v1)
    - neighboring facets: f299 f358 f351
- f365
    - flags: bottom simplicial tricoplanar keepcentrum
    - owner of normal & centrum is facet f365
    - normal:        -0       -0        1
    - offset:   -0.04675
    - center: -0.005587666657649809 0.001270555632395877 0.04675000160932541 
    - vertices: p63(v64) p39(v54) p37(v38)
    - neighboring facets: f270 f370 f387
- f366
    - flags: bottom simplicial tricoplanar
    - owner of normal & centrum is facet f365
    - normal:        -0       -0        1
    - offset:   -0.04675
    - center: -0.005587666657649809 0.001270555632395877 0.04675000160932541 
    - vertices: p63(v64) p49(v18) p47(v11)
    - neighboring facets: f213 f371 f367
- f367
    - flags: bottom simplicial tricoplanar
    - owner of normal & centrum is facet f365
    - normal:        -0       -0        1
    - offset:   -0.04675
    - center: -0.005587666657649809 0.001270555632395877 0.04675000160932541 
    - vertices: p63(v64) p51(v34) p49(v18)
    - neighboring facets: f254 f366 f378
- f368
    - flags: top simplicial tricoplanar
    - owner of normal & centrum is facet f365
    - normal:        -0       -0        1
    - offset:   -0.04675
    - center: -0.005587666657649809 0.001270555632395877 0.04675000160932541 
    - vertices: p63(v64) p5(v45) p7(v28)
    - neighboring facets: f242 f375 f384
- f369
    - flags: top simplicial tricoplanar
    - owner of normal & centrum is facet f365
    - normal:        -0       -0        1
    - offset:   -0.04675
    - center: -0.005587666657649809 0.001270555632395877 0.04675000160932541 
    - vertices: p63(v64) p15(v47) p17(v30)
    - neighboring facets: f297 f377 f376
- f370
    - flags: bottom simplicial tricoplanar
    - owner of normal & centrum is facet f365
    - normal:        -0       -0        1
    - offset:   -0.04675
    - center: -0.005587666657649809 0.001270555632395877 0.04675000160932541 
    - vertices: p63(v64) p37(v38) p35(v24)
    - neighboring facets: f226 f373 f365
- f371
    - flags: top simplicial tricoplanar
    - owner of normal & centrum is facet f365
    - normal:        -0       -0        1
    - offset:   -0.04675
    - center: -0.005587666657649809 0.001270555632395877 0.04675000160932541 
    - vertices: p63(v64) p45(v32) p47(v11)
    - neighboring facets: f218 f366 f372
- f372
    - flags: top simplicial tricoplanar
    - owner of normal & centrum is facet f365
    - normal:        -0       -0        1
    - offset:   -0.04675
    - center: -0.005587666657649809 0.001270555632395877 0.04675000160932541 
    - vertices: p63(v64) p43(v61) p45(v32)
    - neighboring facets: f321 f371 f393
- f373
    - flags: top simplicial tricoplanar
    - owner of normal & centrum is facet f365
    - normal:        -0       -0        1
    - offset:   -0.04675
    - center: -0.005587666657649809 0.001270555632395877 0.04675000160932541 
    - vertices: p63(v64) p33(v37) p35(v24)
    - neighboring facets: f223 f370 f379
- f374
    - flags: top simplicial tricoplanar
    - owner of normal & centrum is facet f365
    - normal:        -0       -0        1
    - offset:   -0.04675
    - center: -0.005587666657649809 0.001270555632395877 0.04675000160932541 
    - vertices: p63(v64) p27(v55) p29(v41)
    - neighboring facets: f278 f381 f388
- f375
    - flags: bottom simplicial tricoplanar
    - owner of normal & centrum is facet f365
    - normal:        -0       -0        1
    - offset:   -0.04675
    - center: -0.005587666657649809 0.001270555632395877 0.04675000160932541 
    - vertices: p63(v64) p9(v44) p7(v28)
    - neighboring facets: f239 f368 f382
- f376
    - flags: top simplicial tricoplanar
    - owner of normal & centrum is facet f365
    - normal:        -0       -0        1
    - offset:   -0.04675
    - center: -0.005587666657649809 0.001270555632395877 0.04675000160932541 
    - vertices: p63(v64) p13(v59) p15(v47)
    - neighboring facets: f306 f369 f391
- f377
    - flags: bottom simplicial tricoplanar
    - owner of normal & centrum is facet f365
    - normal:        -0       -0        1
    - offset:   -0.04675
    - center: -0.005587666657649809 0.001270555632395877 0.04675000160932541 
    - vertices: p63(v64) p19(v60) p17(v30)
    - neighboring facets: f314 f369 f392
- f378
    - flags: top simplicial tricoplanar
    - owner of normal & centrum is facet f365
    - normal:        -0       -0        1
    - offset:   -0.04675
    - center: -0.005587666657649809 0.001270555632395877 0.04675000160932541 
    - vertices: p63(v64) p51(v34) p53(v7)
    - neighboring facets: f257 f385 f367
- f379
    - flags: bottom simplicial tricoplanar
    - owner of normal & centrum is facet f365
    - normal:        -0       -0        1
    - offset:   -0.04675
    - center: -0.005587666657649809 0.001270555632395877 0.04675000160932541 
    - vertices: p63(v64) p33(v37) p31(v15)
    - neighboring facets: f229 f381 f373
- f380
    - flags: bottom simplicial tricoplanar
    - owner of normal & centrum is facet f365
    - normal:        -0       -0        1
    - offset:   -0.04675
    - center: -0.005587666657649809 0.001270555632395877 0.04675000160932541 
    - vertices: p63(v64) p61(v53) p59(v21)
    - neighboring facets: f263 f394 f401
- f381
    - flags: top simplicial tricoplanar
    - owner of normal & centrum is facet f365
    - normal:        -0       -0        1
    - offset:   -0.04675
    - center: -0.005587666657649809 0.001270555632395877 0.04675000160932541 
    - vertices: p63(v64) p29(v41) p31(v15)
    - neighboring facets: f234 f379 f374
- f382
    - flags: top simplicial tricoplanar
    - owner of normal & centrum is facet f365
    - normal:        -0       -0        1
    - offset:   -0.04675
    - center: -0.005587666657649809 0.001270555632395877 0.04675000160932541 
    - vertices: p63(v64) p9(v44) p11(v17)
    - neighboring facets: f245 f391 f375
- f383
    - flags: top simplicial tricoplanar
    - owner of normal & centrum is facet f365
    - normal:        -0       -0        1
    - offset:   -0.04675
    - center: -0.005587666657649809 0.001270555632395877 0.04675000160932541 
    - vertices: p63(v64) p23(v56) p25(v26)
    - neighboring facets: f286 f388 f389
- f384
    - flags: top simplicial tricoplanar
    - owner of normal & centrum is facet f365
    - normal:        -0       -0        1
    - offset:   -0.04675
    - center: -0.005587666657649809 0.001270555632395877 0.04675000160932541 
    - vertices: p63(v64) p3(v57) p5(v45)
    - neighboring facets: f294 f368 f390
- f385
    - flags: bottom simplicial tricoplanar
    - owner of normal & centrum is facet f365
    - normal:        -0       -0        1
    - offset:   -0.04675
    - center: -0.005587666657649809 0.001270555632395877 0.04675000160932541 
    - vertices: p63(v64) p55(v50) p53(v7)
    - neighboring facets: f251 f378 f386
- f386
    - flags: bottom simplicial tricoplanar
    - owner of normal & centrum is facet f365
    - normal:        -0       -0        1
    - offset:   -0.04675
    - center: -0.005587666657649809 0.001270555632395877 0.04675000160932541 
    - vertices: p63(v64) p57(v62) p55(v50)
    - neighboring facets: f330 f385 f394
- f387
    - flags: top simplicial tricoplanar
    - owner of normal & centrum is facet f365
    - normal:        -0       -0        1
    - offset:   -0.04675
    - center: -0.005587666657649809 0.001270555632395877 0.04675000160932541 
    - vertices: p63(v64) p39(v54) p41(v5)
    - neighboring facets: f267 f393 f365
- f388
    - flags: bottom simplicial tricoplanar
    - owner of normal & centrum is facet f365
    - normal:        -0       -0        1
    - offset:   -0.04675
    - center: -0.005587666657649809 0.001270555632395877 0.04675000160932541 
    - vertices: p63(v64) p27(v55) p25(v26)
    - neighboring facets: f275 f383 f374
- f389
    - flags: bottom simplicial tricoplanar
    - owner of normal & centrum is facet f365
    - normal:        -0       -0        1
    - offset:   -0.04675
    - center: -0.005587666657649809 0.001270555632395877 0.04675000160932541 
    - vertices: p63(v64) p23(v56) p21(v9)
    - neighboring facets: f283 f392 f383
- f390
    - flags: bottom simplicial tricoplanar
    - owner of normal & centrum is facet f365
    - normal:        -0       -0        1
    - offset:   -0.04675
    - center: -0.005587666657649809 0.001270555632395877 0.04675000160932541 
    - vertices: p63(v64) p3(v57) p0(v2)
    - neighboring facets: f290 f397 f384
- f391
    - flags: bottom simplicial tricoplanar
    - owner of normal & centrum is facet f365
    - normal:        -0       -0        1
    - offset:   -0.04675
    - center: -0.005587666657649809 0.001270555632395877 0.04675000160932541 
    - vertices: p63(v64) p13(v59) p11(v17)
    - neighboring facets: f302 f382 f376
- f392
    - flags: top simplicial tricoplanar
    - owner of normal & centrum is facet f365
    - normal:        -0       -0        1
    - offset:   -0.04675
    - center: -0.005587666657649809 0.001270555632395877 0.04675000160932541 
    - vertices: p63(v64) p19(v60) p21(v9)
    - neighboring facets: f310 f389 f377
- f393
    - flags: bottom simplicial tricoplanar
    - owner of normal & centrum is facet f365
    - normal:        -0       -0        1
    - offset:   -0.04675
    - center: -0.005587666657649809 0.001270555632395877 0.04675000160932541 
    - vertices: p63(v64) p43(v61) p41(v5)
    - neighboring facets: f318 f387 f372
- f394
    - flags: top simplicial tricoplanar
    - owner of normal & centrum is facet f365
    - normal:        -0       -0        1
    - offset:   -0.04675
    - center: -0.005587666657649809 0.001270555632395877 0.04675000160932541 
    - vertices: p63(v64) p57(v62) p59(v21)
    - neighboring facets: f326 f380 f386
- f397
    - flags: top simplicial tricoplanar keepcentrum
    - owner of normal & centrum is facet f397
    - normal:  -0.09806   0.9952        0
    - offset: -0.02257468
    - center: -0.002212499966844916 0.02246600016951561      0 
    - vertices: p63(v64) p2(v6) p0(v2)
    - neighboring facets: f290 f390 f398
- f398
    - flags: top simplicial tricoplanar
    - owner of normal & centrum is facet f397
    - normal:  -0.09806   0.9952        0
    - offset: -0.02257468
    - center: -0.002212499966844916 0.02246600016951561      0 
    - vertices: p63(v64) p62(v63) p2(v6)
    - neighboring facets: f347 f397 f402
- f401
    - flags: top simplicial tricoplanar keepcentrum
    - owner of normal & centrum is facet f401
    - normal:   -0.2901    0.957        0
    - offset: -0.02257502
    - center: -0.006553000072017311 0.02160300035029649      0 
    - vertices: p63(v64) p61(v53) p60(v35)
    - neighboring facets: f261 f402 f380
- f402
    - flags: bottom simplicial tricoplanar
    - owner of normal & centrum is facet f401
    - normal:   -0.2901    0.957        0
    - offset: -0.02257502
    - center: -0.006553000072017311 0.02160300035029649      0 
    - vertices: p63(v64) p62(v63) p60(v35)
    - neighboring facets: f348 f401 f398
