3
64 124 186
     0 0.02520499937236309 0.1615000069141388 
0.004916999954730272 0.02472000010311604 -0.1615000069141388 
     0 0.02520499937236309 -0.1615000069141388 
0.004916999954730272 0.02472000010311604 0.1615000069141388 
0.009645000100135803 0.02328599989414215 -0.1615000069141388 
0.009645000100135803 0.02328599989414215 0.1615000069141388 
0.01400300022214651 0.02095700055360794 -0.1615000069141388 
0.01400300022214651 0.02095700055360794 0.1615000069141388 
0.01782199926674366 0.01782199926674366 -0.1615000069141388 
0.01782199926674366 0.01782199926674366 0.1615000069141388 
0.02095700055360794 0.01400300022214651 -0.1615000069141388 
0.02095700055360794 0.01400300022214651 0.1615000069141388 
0.02328599989414215 0.009645000100135803 -0.1615000069141388 
0.02328599989414215 0.009645000100135803 0.1615000069141388 
0.02472000010311604 0.004916999954730272 -0.1615000069141388 
0.02472000010311604 0.004916999954730272 0.1615000069141388 
0.02520499937236309      0 -0.1615000069141388 
0.02520499937236309      0 0.1615000069141388 
0.02472000010311604 -0.004916999954730272 -0.1615000069141388 
0.02472000010311604 -0.004916999954730272 0.1615000069141388 
0.02328599989414215 -0.009645000100135803 -0.1615000069141388 
0.02328599989414215 -0.009645000100135803 0.1615000069141388 
0.02095700055360794 -0.01400300022214651 -0.1615000069141388 
0.02095700055360794 -0.01400300022214651 0.1615000069141388 
0.01782199926674366 -0.01782199926674366 -0.1615000069141388 
0.01782199926674366 -0.01782199926674366 0.1615000069141388 
0.01400300022214651 -0.02095700055360794 -0.1615000069141388 
0.01400300022214651 -0.02095700055360794 0.1615000069141388 
0.009645000100135803 -0.02328599989414215 -0.1615000069141388 
0.009645000100135803 -0.02328599989414215 0.1615000069141388 
0.004916999954730272 -0.02472000010311604 -0.1615000069141388 
0.004916999954730272 -0.02472000010311604 0.1615000069141388 
     0 -0.02520499937236309 -0.1615000069141388 
     0 -0.02520499937236309 0.1615000069141388 
-0.004916999954730272 -0.02472000010311604 -0.1615000069141388 
-0.004916999954730272 -0.02472000010311604 0.1615000069141388 
-0.009645000100135803 -0.02328599989414215 -0.1615000069141388 
-0.009645000100135803 -0.02328599989414215 0.1615000069141388 
-0.01400300022214651 -0.02095700055360794 -0.1615000069141388 
-0.01400300022214651 -0.02095700055360794 0.1615000069141388 
-0.01782199926674366 -0.01782199926674366 -0.1615000069141388 
-0.01782199926674366 -0.01782199926674366 0.1615000069141388 
-0.02095700055360794 -0.01400300022214651 -0.1615000069141388 
-0.02095700055360794 -0.01400300022214651 0.1615000069141388 
-0.02328599989414215 -0.009645000100135803 -0.1615000069141388 
-0.02328599989414215 -0.009645000100135803 0.1615000069141388 
-0.02472000010311604 -0.004916999954730272 -0.1615000069141388 
-0.02472000010311604 -0.004916999954730272 0.1615000069141388 
-0.02520499937236309      0 -0.1615000069141388 
-0.02520499937236309      0 0.1615000069141388 
-0.02472000010311604 0.004916999954730272 -0.1615000069141388 
-0.02472000010311604 0.004916999954730272 0.1615000069141388 
-0.02328599989414215 0.009645000100135803 -0.1615000069141388 
-0.02328599989414215 0.009645000100135803 0.1615000069141388 
-0.02095700055360794 0.01400300022214651 -0.1615000069141388 
-0.02095700055360794 0.01400300022214651 0.1615000069141388 
-0.01782199926674366 0.01782199926674366 -0.1615000069141388 
-0.01782199926674366 0.01782199926674366 0.1615000069141388 
-0.01400300022214651 0.02095700055360794 -0.1615000069141388 
-0.01400300022214651 0.02095700055360794 0.1615000069141388 
-0.009645000100135803 0.02328599989414215 -0.1615000069141388 
-0.009645000100135803 0.02328599989414215 0.1615000069141388 
-0.004916999954730272 0.02472000010311604 -0.1615000069141388 
-0.004916999954730272 0.02472000010311604 0.1615000069141388 
3 46 49 47 
3 49 46 48 
3 34 33 32 
3 33 34 35 
3 39 38 40 
3 39 40 41 
3 30 33 31 
3 33 30 32 
3 9 6 8 
3 6 9 7 
3 6 5 4 
3 5 6 7 
3 9 10 11 
3 10 9 8 
3 46 45 44 
3 45 46 47 
3 42 43 41 
3 40 42 41 
3 42 45 43 
3 45 42 44 
3 54 55 52 
3 52 55 53 
3 50 49 48 
3 50 51 49 
3 51 50 53 
3 50 52 53 
3 61 58 60 
3 58 61 59 
3 37 34 36 
3 34 37 35 
3 38 37 36 
3 39 37 38 
3 26 27 24 
3 27 25 24 
3 22 23 20 
3 20 23 21 
3 23 22 24 
3 25 23 24 
3 1 3 2 
3 2 3 0 
3 3 1 4 
3 5 3 4 
3 15 14 17 
3 17 14 16 
3 13 10 12 
3 10 13 11 
3 14 13 12 
3 13 14 15 
3 19 18 20 
3 19 20 21 
3 18 19 16 
3 19 17 16 
3 58 57 56 
3 57 58 59 
3 57 54 56 
3 57 55 54 
3 62 46 44 
3 62 54 52 
3 26 62 28 
3 62 22 20 
3 1 62 4 
3 18 62 20 
3 50 62 52 
3 62 38 36 
3 62 30 28 
3 62 6 4 
3 42 62 44 
3 38 62 40 
3 10 62 12 
3 34 62 36 
3 62 1 2 
3 58 62 60 
3 46 62 48 
3 54 62 56 
3 62 14 12 
3 62 34 32 
3 30 62 32 
3 62 26 24 
3 22 62 24 
3 6 62 8 
3 62 10 8 
3 62 18 16 
3 62 42 40 
3 62 50 48 
3 62 58 56 
3 14 62 16 
3 30 29 28 
3 29 30 31 
3 29 26 28 
3 29 27 26 
3 61 63 59 
3 49 63 47 
3 51 63 49 
3 63 5 7 
3 45 63 43 
3 63 37 39 
3 63 15 17 
3 19 63 17 
3 63 33 35 
3 27 63 25 
3 9 63 7 
3 63 13 15 
3 43 63 41 
3 63 51 53 
3 33 63 31 
3 63 39 41 
3 63 9 11 
3 63 23 25 
3 63 3 5 
3 63 45 47 
3 55 63 53 
3 29 63 27 
3 37 63 35 
3 57 63 55 
3 23 63 21 
3 3 63 0 
3 13 63 11 
3 63 19 21 
3 63 57 59 
3 63 29 31 
3 63 2 0 
3 63 62 2 
3 63 61 60 
3 62 63 60 
Vertices and facets:
- p46(v31): -0.025 -0.0049 -0.16
  neighbors: f215 f216 f243 f244 f327 f343
- p49(v18): -0.025     0  0.16
  neighbors: f215 f216 f259 f260 f368 f369
- p47(v11): -0.025 -0.0049  0.16
  neighbors: f215 f244 f368 f386
- p48(v0): -0.025     0 -0.16
  neighbors: f216 f259 f343 f354
- p33(v37):     0 -0.025  0.16
  neighbors: f219 f221 f227 f228 f375 f381
- p34(v36): -0.0049 -0.025 -0.16
  neighbors: f219 f221 f271 f272 f340 f346
- p32(v3):     0 -0.025 -0.16
  neighbors: f219 f228 f346 f347
- p35(v24): -0.0049 -0.025  0.16
  neighbors: f221 f272 f375 f389
- p39(v38): -0.014 -0.021  0.16
  neighbors: f223 f225 f276 f372 f382
- p38(v22): -0.014 -0.021 -0.16
  neighbors: f223 f275 f276 f334 f338
- p40(v8): -0.018 -0.018 -0.16
  neighbors: f223 f225 f248 f338 f353
- p41(v5): -0.018 -0.018  0.16
  neighbors: f225 f247 f248 f379 f382
- p30(v39): 0.0049 -0.025 -0.16
  neighbors: f227 f228 f335 f347 f359 f360
- p31(v15): 0.0049 -0.025  0.16
  neighbors: f227 f360 f381 f396
- p9(v43): 0.018 0.018  0.16
  neighbors: f231 f233 f239 f240 f377 f383
- p6(v42): 0.014 0.021 -0.16
  neighbors: f231 f233 f235 f236 f336 f350
- p8(v10): 0.018 0.018 -0.16
  neighbors: f231 f240 f350 f351
- p7(v28): 0.014 0.021  0.16
  neighbors: f233 f236 f370 f377
- p5(v44): 0.0096 0.023  0.16
  neighbors: f235 f236 f296 f370 f385
- p4(v16): 0.0096 0.023 -0.16
  neighbors: f235 f295 f296 f331 f336
- p10(v45): 0.021 0.014 -0.16
  neighbors: f239 f240 f303 f304 f339 f351
- p11(v17): 0.021 0.014  0.16
  neighbors: f239 f304 f383 f393
- p45(v48): -0.023 -0.0096  0.16
  neighbors: f243 f244 f251 f252 f371 f386
- p44(v19): -0.023 -0.0096 -0.16
  neighbors: f243 f252 f327 f337
- p42(v49): -0.021 -0.014 -0.16
  neighbors: f247 f248 f251 f252 f337 f353
- p43(v32): -0.021 -0.014  0.16
  neighbors: f247 f251 f371 f379
- p55(v50): -0.021 0.014  0.16
  neighbors: f255 f257 f324 f387 f390
- p54(v33): -0.021 0.014 -0.16
  neighbors: f255 f323 f324 f328 f344
- p52(v20): -0.023 0.0096 -0.16
  neighbors: f255 f257 f264 f328 f333
- p53(v7): -0.023 0.0096  0.16
  neighbors: f257 f263 f264 f380 f387
- p50(v51): -0.025 0.0049 -0.16
  neighbors: f259 f260 f263 f264 f333 f354
- p51(v34): -0.025 0.0049  0.16
  neighbors: f260 f263 f369 f380
- p61(v53): -0.0096 0.023  0.16
  neighbors: f267 f269 f367 f403
- p58(v52): -0.014 0.021 -0.16
  neighbors: f267 f269 f319 f320 f342 f355
- p60(v35): -0.0096 0.023 -0.16
  neighbors: f267 f342 f403 f404
- p59(v21): -0.014 0.021  0.16
  neighbors: f269 f320 f367 f395
- p37(v54): -0.0096 -0.023  0.16
  neighbors: f271 f272 f275 f276 f372 f389
- p36(v13): -0.0096 -0.023 -0.16
  neighbors: f271 f275 f334 f340
- p27(v55): 0.014 -0.021  0.16
  neighbors: f279 f281 f364 f376 f388
- p26(v40): 0.014 -0.021 -0.16
  neighbors: f279 f329 f348 f363 f364
- p24(v14): 0.018 -0.018 -0.16
  neighbors: f279 f281 f287 f288 f348 f349
- p25(v26): 0.018 -0.018  0.16
  neighbors: f281 f288 f376 f384
- p23(v56): 0.021 -0.014  0.16
  neighbors: f283 f285 f287 f288 f384 f391
- p22(v41): 0.021 -0.014 -0.16
  neighbors: f283 f287 f330 f349
- p20(v23): 0.023 -0.0096 -0.16
  neighbors: f283 f285 f311 f312 f330 f332
- p21(v9): 0.023 -0.0096  0.16
  neighbors: f285 f312 f391 f394
- p3(v57): 0.0049 0.025  0.16
  neighbors: f291 f292 f295 f296 f385 f392
- p1(v27): 0.0049 0.025 -0.16
  neighbors: f291 f295 f331 f341
- p2(v6):     0 0.025 -0.16
  neighbors: f291 f292 f341 f399 f400
- p0(v2):     0 0.025  0.16
  neighbors: f292 f392 f399
- p14(v58): 0.025 0.0049 -0.16
  neighbors: f299 f301 f307 f308 f345 f356
- p15(v46): 0.025 0.0049  0.16
  neighbors: f299 f308 f373 f378
- p17(v30): 0.025     0  0.16
  neighbors: f299 f301 f316 f373 f374
- p16(v1): 0.025     0 -0.16
  neighbors: f301 f315 f316 f352 f356
- p13(v59): 0.023 0.0096  0.16
  neighbors: f303 f304 f307 f308 f378 f393
- p12(v29): 0.023 0.0096 -0.16
  neighbors: f303 f307 f339 f345
- p19(v60): 0.025 -0.0049  0.16
  neighbors: f311 f312 f315 f316 f374 f394
- p18(v47): 0.025 -0.0049 -0.16
  neighbors: f311 f315 f332 f352
- p57(v61): -0.018 0.018  0.16
  neighbors: f319 f320 f323 f324 f390 f395
- p56(v12): -0.018 0.018 -0.16
  neighbors: f319 f323 f344 f355
- p62(v62): -0.0049 0.025 -0.16
  neighbors: f327 f328 f329 f330 f331 f332 f333 f334 f335 f336 f337 f338 f339 f340 f341 f342 f343 f344 f345 f346 f347 f348 f349 f350 f351 f352 f353 f354 f355 f356 f400 f404
- p28(v25): 0.0096 -0.023 -0.16
  neighbors: f329 f335 f359 f363
- p29(v63): 0.0096 -0.023  0.16
  neighbors: f359 f360 f363 f364 f388 f396
- p63(v64): -0.0049 0.025  0.16
  neighbors: f367 f368 f369 f370 f371 f372 f373 f374 f375 f376 f377 f378 f379 f380 f381 f382 f383 f384 f385 f386 f387 f388 f389 f390 f391 f392 f393 f394 f395 f396 f399 f400 f403 f404
- f215
    - flags: top simplicial tricoplanar seen keepcentrum
    - owner of normal & centrum is facet f215
    - normal:   -0.9952 -0.09816       -0
    - offset: -0.02508327
    - center: -0.02496249973773956 -0.002458499977365136      0 
    - vertices: p46(v31) p49(v18) p47(v11)
    - neighboring facets: f368 f244 f216
- f216
    - flags: bottom simplicial tricoplanar seen
    - owner of normal & centrum is facet f215
    - normal:   -0.9952 -0.09816       -0
    - offset: -0.02508327
    - center: -0.02496249973773956 -0.002458499977365136      0 
    - vertices: p46(v31) p49(v18) p48(v0)
    - neighboring facets: f259 f343 f215
- f219
    - flags: bottom simplicial tricoplanar seen keepcentrum
    - owner of normal & centrum is facet f219
    - normal:  -0.09816  -0.9952        0
    - offset: -0.02508327
    - center: -0.002458499977365136 -0.02496249973773956      0 
    - vertices: p33(v37) p34(v36) p32(v3)
    - neighboring facets: f346 f228 f221
- f221
    - flags: top simplicial tricoplanar seen
    - owner of normal & centrum is facet f219
    - normal:  -0.09816  -0.9952        0
    - offset: -0.02508327
    - center: -0.002458499977365136 -0.02496249973773956      0 
    - vertices: p33(v37) p34(v36) p35(v24)
    - neighboring facets: f272 f375 f219
- f223
    - flags: top simplicial tricoplanar seen keepcentrum
    - owner of normal & centrum is facet f223
    - normal:   -0.6345  -0.7729        0
    - offset: -0.02508307
    - center: -0.01591249974444509 -0.0193894999101758      0 
    - vertices: p39(v38) p38(v22) p40(v8)
    - neighboring facets: f338 f225 f276
- f225
    - flags: top simplicial tricoplanar seen
    - owner of normal & centrum is facet f223
    - normal:   -0.6345  -0.7729        0
    - offset: -0.02508307
    - center: -0.01591249974444509 -0.0193894999101758      0 
    - vertices: p39(v38) p40(v8) p41(v5)
    - neighboring facets: f248 f382 f223
- f227
    - flags: top simplicial tricoplanar seen keepcentrum
    - owner of normal & centrum is facet f227
    - normal:   0.09816  -0.9952        0
    - offset: -0.02508327
    - center: 0.002458499977365136 -0.02496249973773956      0 
    - vertices: p30(v39) p33(v37) p31(v15)
    - neighboring facets: f381 f360 f228
- f228
    - flags: bottom simplicial tricoplanar
    - owner of normal & centrum is facet f227
    - normal:   0.09816  -0.9952        0
    - offset: -0.02508327
    - center: 0.002458499977365136 -0.02496249973773956      0 
    - vertices: p30(v39) p33(v37) p32(v3)
    - neighboring facets: f219 f347 f227
- f231
    - flags: top simplicial tricoplanar seen keepcentrum
    - owner of normal & centrum is facet f231
    - normal:    0.6345   0.7729       -0
    - offset: -0.02508307
    - center: 0.01591249974444509 0.0193894999101758      0 
    - vertices: p9(v43) p6(v42) p8(v10)
    - neighboring facets: f350 f240 f233
- f233
    - flags: bottom simplicial tricoplanar seen
    - owner of normal & centrum is facet f231
    - normal:    0.6345   0.7729       -0
    - offset: -0.02508307
    - center: 0.01591249974444509 0.0193894999101758      0 
    - vertices: p9(v43) p6(v42) p7(v28)
    - neighboring facets: f236 f377 f231
- f235
    - flags: bottom simplicial tricoplanar seen keepcentrum
    - owner of normal & centrum is facet f235
    - normal:    0.4713    0.882       -0
    - offset: -0.02508322
    - center: 0.01182400016114116 0.02212150022387504      0 
    - vertices: p5(v44) p6(v42) p4(v16)
    - neighboring facets: f336 f296 f236
- f236
    - flags: top simplicial tricoplanar
    - owner of normal & centrum is facet f235
    - normal:    0.4713    0.882       -0
    - offset: -0.02508322
    - center: 0.01182400016114116 0.02212150022387504      0 
    - vertices: p5(v44) p6(v42) p7(v28)
    - neighboring facets: f233 f370 f235
- f239
    - flags: bottom simplicial tricoplanar seen keepcentrum
    - owner of normal & centrum is facet f239
    - normal:    0.7729   0.6345        0
    - offset: -0.02508307
    - center: 0.0193894999101758 0.01591249974444509      0 
    - vertices: p10(v45) p9(v43) p11(v17)
    - neighboring facets: f383 f304 f240
- f240
    - flags: top simplicial tricoplanar
    - owner of normal & centrum is facet f239
    - normal:    0.7729   0.6345        0
    - offset: -0.02508307
    - center: 0.0193894999101758 0.01591249974444509      0 
    - vertices: p10(v45) p9(v43) p8(v10)
    - neighboring facets: f231 f351 f239
- f243
    - flags: bottom simplicial tricoplanar seen keepcentrum
    - owner of normal & centrum is facet f243
    - normal:    -0.957  -0.2902        0
    - offset:  -0.025083
    - center: -0.02400299999862909 -0.007281000027433038      0 
    - vertices: p45(v48) p46(v31) p44(v19)
    - neighboring facets: f327 f252 f244
- f244
    - flags: top simplicial tricoplanar
    - owner of normal & centrum is facet f243
    - normal:    -0.957  -0.2902        0
    - offset:  -0.025083
    - center: -0.02400299999862909 -0.007281000027433038      0 
    - vertices: p45(v48) p46(v31) p47(v11)
    - neighboring facets: f215 f386 f243
- f247
    - flags: top simplicial tricoplanar seen keepcentrum
    - owner of normal & centrum is facet f247
    - normal:   -0.7729  -0.6345       -0
    - offset: -0.02508307
    - center: -0.0193894999101758 -0.01591249974444509      0 
    - vertices: p42(v49) p43(v32) p41(v5)
    - neighboring facets: f379 f248 f251
- f248
    - flags: bottom simplicial tricoplanar
    - owner of normal & centrum is facet f247
    - normal:   -0.7729  -0.6345       -0
    - offset: -0.02508307
    - center: -0.0193894999101758 -0.01591249974444509      0 
    - vertices: p42(v49) p40(v8) p41(v5)
    - neighboring facets: f225 f247 f353
- f251
    - flags: top simplicial tricoplanar seen keepcentrum
    - owner of normal & centrum is facet f251
    - normal:    -0.882  -0.4713       -0
    - offset: -0.02508322
    - center: -0.02212150022387505 -0.01182400016114116      0 
    - vertices: p42(v49) p45(v48) p43(v32)
    - neighboring facets: f371 f247 f252
- f252
    - flags: bottom simplicial tricoplanar
    - owner of normal & centrum is facet f251
    - normal:    -0.882  -0.4713       -0
    - offset: -0.02508322
    - center: -0.02212150022387505 -0.01182400016114116      0 
    - vertices: p42(v49) p45(v48) p44(v19)
    - neighboring facets: f243 f337 f251
- f255
    - flags: bottom simplicial tricoplanar seen keepcentrum
    - owner of normal & centrum is facet f255
    - normal:    -0.882   0.4713       -0
    - offset: -0.02508322
    - center: -0.02212150022387504 0.01182400016114116      0 
    - vertices: p55(v50) p54(v33) p52(v20)
    - neighboring facets: f328 f257 f324
- f257
    - flags: bottom simplicial tricoplanar seen
    - owner of normal & centrum is facet f255
    - normal:    -0.882   0.4713       -0
    - offset: -0.02508322
    - center: -0.02212150022387504 0.01182400016114116      0 
    - vertices: p55(v50) p52(v20) p53(v7)
    - neighboring facets: f264 f387 f255
- f259
    - flags: top simplicial tricoplanar keepcentrum
    - owner of normal & centrum is facet f259
    - normal:   -0.9952  0.09816        0
    - offset: -0.02508327
    - center: -0.02496249973773956 0.002458499977365136      0 
    - vertices: p50(v51) p49(v18) p48(v0)
    - neighboring facets: f216 f354 f260
- f260
    - flags: top simplicial tricoplanar seen
    - owner of normal & centrum is facet f259
    - normal:   -0.9952  0.09816        0
    - offset: -0.02508327
    - center: -0.02496249973773956 0.002458499977365136      0 
    - vertices: p50(v51) p51(v34) p49(v18)
    - neighboring facets: f369 f259 f263
- f263
    - flags: bottom simplicial tricoplanar seen keepcentrum
    - owner of normal & centrum is facet f263
    - normal:    -0.957   0.2902        0
    - offset:  -0.025083
    - center: -0.02400299999862909 0.007281000027433038      0 
    - vertices: p50(v51) p51(v34) p53(v7)
    - neighboring facets: f380 f264 f260
- f264
    - flags: top simplicial tricoplanar
    - owner of normal & centrum is facet f263
    - normal:    -0.957   0.2902        0
    - offset:  -0.025083
    - center: -0.02400299999862909 0.007281000027433038      0 
    - vertices: p50(v51) p52(v20) p53(v7)
    - neighboring facets: f257 f263 f333
- f267
    - flags: top simplicial tricoplanar seen keepcentrum
    - owner of normal & centrum is facet f267
    - normal:   -0.4713    0.882        0
    - offset: -0.02508322
    - center: -0.01182400016114116 0.02212150022387504      0 
    - vertices: p61(v53) p58(v52) p60(v35)
    - neighboring facets: f342 f403 f269
- f269
    - flags: bottom simplicial tricoplanar seen
    - owner of normal & centrum is facet f267
    - normal:   -0.4713    0.882        0
    - offset: -0.02508322
    - center: -0.01182400016114116 0.02212150022387504      0 
    - vertices: p61(v53) p58(v52) p59(v21)
    - neighboring facets: f320 f367 f267
- f271
    - flags: top simplicial tricoplanar seen keepcentrum
    - owner of normal & centrum is facet f271
    - normal:   -0.2902   -0.957        0
    - offset:  -0.025083
    - center: -0.007281000027433038 -0.02400299999862909      0 
    - vertices: p37(v54) p34(v36) p36(v13)
    - neighboring facets: f340 f275 f272
- f272
    - flags: bottom simplicial tricoplanar
    - owner of normal & centrum is facet f271
    - normal:   -0.2902   -0.957        0
    - offset:  -0.025083
    - center: -0.007281000027433038 -0.02400299999862909      0 
    - vertices: p37(v54) p34(v36) p35(v24)
    - neighboring facets: f221 f389 f271
- f275
    - flags: bottom simplicial tricoplanar seen keepcentrum
    - owner of normal & centrum is facet f275
    - normal:   -0.4713   -0.882       -0
    - offset: -0.02508322
    - center: -0.01182400016114116 -0.02212150022387504      0 
    - vertices: p37(v54) p38(v22) p36(v13)
    - neighboring facets: f334 f271 f276
- f276
    - flags: bottom simplicial tricoplanar
    - owner of normal & centrum is facet f275
    - normal:   -0.4713   -0.882       -0
    - offset: -0.02508322
    - center: -0.01182400016114116 -0.02212150022387504      0 
    - vertices: p37(v54) p39(v38) p38(v22)
    - neighboring facets: f223 f275 f372
- f279
    - flags: bottom simplicial tricoplanar seen keepcentrum
    - owner of normal & centrum is facet f279
    - normal:    0.6345  -0.7729        0
    - offset: -0.02508307
    - center: 0.01591249974444509 -0.0193894999101758      0 
    - vertices: p27(v55) p26(v40) p24(v14)
    - neighboring facets: f348 f281 f364
- f281
    - flags: top simplicial tricoplanar seen
    - owner of normal & centrum is facet f279
    - normal:    0.6345  -0.7729        0
    - offset: -0.02508307
    - center: 0.01591249974444509 -0.0193894999101758      0 
    - vertices: p27(v55) p25(v26) p24(v14)
    - neighboring facets: f288 f279 f376
- f283
    - flags: bottom simplicial tricoplanar seen keepcentrum
    - owner of normal & centrum is facet f283
    - normal:     0.882  -0.4713       -0
    - offset: -0.02508322
    - center: 0.02212150022387504 -0.01182400016114116      0 
    - vertices: p23(v56) p22(v41) p20(v23)
    - neighboring facets: f330 f285 f287
- f285
    - flags: bottom simplicial tricoplanar seen
    - owner of normal & centrum is facet f283
    - normal:     0.882  -0.4713       -0
    - offset: -0.02508322
    - center: 0.02212150022387504 -0.01182400016114116      0 
    - vertices: p23(v56) p20(v23) p21(v9)
    - neighboring facets: f312 f391 f283
- f287
    - flags: top simplicial tricoplanar seen keepcentrum
    - owner of normal & centrum is facet f287
    - normal:    0.7729  -0.6345       -0
    - offset: -0.02508307
    - center: 0.0193894999101758 -0.01591249974444509      0 
    - vertices: p23(v56) p22(v41) p24(v14)
    - neighboring facets: f349 f288 f283
- f288
    - flags: bottom simplicial tricoplanar
    - owner of normal & centrum is facet f287
    - normal:    0.7729  -0.6345       -0
    - offset: -0.02508307
    - center: 0.0193894999101758 -0.01591249974444509      0 
    - vertices: p23(v56) p25(v26) p24(v14)
    - neighboring facets: f281 f287 f384
- f291
    - flags: bottom simplicial tricoplanar seen keepcentrum
    - owner of normal & centrum is facet f291
    - normal:   0.09816   0.9952       -0
    - offset: -0.02508327
    - center: 0.002458499977365136 0.02496249973773956      0 
    - vertices: p3(v57) p1(v27) p2(v6)
    - neighboring facets: f341 f292 f295
- f292
    - flags: bottom simplicial tricoplanar seen
    - owner of normal & centrum is facet f291
    - normal:   0.09816   0.9952       -0
    - offset: -0.02508327
    - center: 0.002458499977365136 0.02496249973773956      0 
    - vertices: p3(v57) p2(v6) p0(v2)
    - neighboring facets: f399 f392 f291
- f295
    - flags: top simplicial tricoplanar seen keepcentrum
    - owner of normal & centrum is facet f295
    - normal:    0.2902    0.957        0
    - offset:  -0.025083
    - center: 0.007281000027433038 0.02400299999862909      0 
    - vertices: p3(v57) p1(v27) p4(v16)
    - neighboring facets: f331 f296 f291
- f296
    - flags: bottom simplicial tricoplanar
    - owner of normal & centrum is facet f295
    - normal:    0.2902    0.957        0
    - offset:  -0.025083
    - center: 0.007281000027433038 0.02400299999862909      0 
    - vertices: p3(v57) p5(v44) p4(v16)
    - neighboring facets: f235 f295 f385
- f299
    - flags: bottom simplicial tricoplanar seen keepcentrum
    - owner of normal & centrum is facet f299
    - normal:    0.9952  0.09816       -0
    - offset: -0.02508327
    - center: 0.02496249973773956 0.002458499977365136      0 
    - vertices: p14(v58) p15(v46) p17(v30)
    - neighboring facets: f373 f301 f308
- f301
    - flags: bottom simplicial tricoplanar seen
    - owner of normal & centrum is facet f299
    - normal:    0.9952  0.09816       -0
    - offset: -0.02508327
    - center: 0.02496249973773956 0.002458499977365136      0 
    - vertices: p14(v58) p17(v30) p16(v1)
    - neighboring facets: f316 f356 f299
- f303
    - flags: top simplicial tricoplanar seen keepcentrum
    - owner of normal & centrum is facet f303
    - normal:     0.882   0.4713       -0
    - offset: -0.02508322
    - center: 0.02212150022387504 0.01182400016114116      0 
    - vertices: p13(v59) p10(v45) p12(v29)
    - neighboring facets: f339 f307 f304
- f304
    - flags: bottom simplicial tricoplanar
    - owner of normal & centrum is facet f303
    - normal:     0.882   0.4713       -0
    - offset: -0.02508322
    - center: 0.02212150022387504 0.01182400016114116      0 
    - vertices: p13(v59) p10(v45) p11(v17)
    - neighboring facets: f239 f393 f303
- f307
    - flags: bottom simplicial tricoplanar seen keepcentrum
    - owner of normal & centrum is facet f307
    - normal:     0.957   0.2902       -0
    - offset:  -0.025083
    - center: 0.02400299999862909 0.007281000027433038      0 
    - vertices: p13(v59) p14(v58) p12(v29)
    - neighboring facets: f345 f303 f308
- f308
    - flags: top simplicial tricoplanar
    - owner of normal & centrum is facet f307
    - normal:     0.957   0.2902       -0
    - offset:  -0.025083
    - center: 0.02400299999862909 0.007281000027433038      0 
    - vertices: p13(v59) p14(v58) p15(v46)
    - neighboring facets: f299 f378 f307
- f311
    - flags: top simplicial tricoplanar seen keepcentrum
    - owner of normal & centrum is facet f311
    - normal:     0.957  -0.2902        0
    - offset:  -0.025083
    - center: 0.02400299999862909 -0.007281000027433038      0 
    - vertices: p19(v60) p18(v47) p20(v23)
    - neighboring facets: f332 f312 f315
- f312
    - flags: top simplicial tricoplanar
    - owner of normal & centrum is facet f311
    - normal:     0.957  -0.2902        0
    - offset:  -0.025083
    - center: 0.02400299999862909 -0.007281000027433038      0 
    - vertices: p19(v60) p20(v23) p21(v9)
    - neighboring facets: f285 f394 f311
- f315
    - flags: bottom simplicial tricoplanar seen keepcentrum
    - owner of normal & centrum is facet f315
    - normal:    0.9952 -0.09816        0
    - offset: -0.02508327
    - center: 0.02496249973773956 -0.002458499977365136      0 
    - vertices: p19(v60) p18(v47) p16(v1)
    - neighboring facets: f352 f316 f311
- f316
    - flags: top simplicial tricoplanar
    - owner of normal & centrum is facet f315
    - normal:    0.9952 -0.09816        0
    - offset: -0.02508327
    - center: 0.02496249973773956 -0.002458499977365136      0 
    - vertices: p19(v60) p17(v30) p16(v1)
    - neighboring facets: f301 f315 f374
- f319
    - flags: bottom simplicial tricoplanar seen keepcentrum
    - owner of normal & centrum is facet f319
    - normal:   -0.6345   0.7729        0
    - offset: -0.02508307
    - center: -0.01591249974444509 0.0193894999101758      0 
    - vertices: p57(v61) p58(v52) p56(v12)
    - neighboring facets: f355 f323 f320
- f320
    - flags: top simplicial tricoplanar
    - owner of normal & centrum is facet f319
    - normal:   -0.6345   0.7729        0
    - offset: -0.02508307
    - center: -0.01591249974444509 0.0193894999101758      0 
    - vertices: p57(v61) p58(v52) p59(v21)
    - neighboring facets: f269 f395 f319
- f323
    - flags: top simplicial tricoplanar seen keepcentrum
    - owner of normal & centrum is facet f323
    - normal:   -0.7729   0.6345        0
    - offset: -0.02508307
    - center: -0.0193894999101758 0.01591249974444509      0 
    - vertices: p57(v61) p54(v33) p56(v12)
    - neighboring facets: f344 f319 f324
- f324
    - flags: top simplicial tricoplanar
    - owner of normal & centrum is facet f323
    - normal:   -0.7729   0.6345        0
    - offset: -0.02508307
    - center: -0.0193894999101758 0.01591249974444509      0 
    - vertices: p57(v61) p55(v50) p54(v33)
    - neighboring facets: f255 f323 f390
- f327
    - flags: top simplicial tricoplanar keepcentrum
    - owner of normal & centrum is facet f327
    - normal:         0        0       -1
    - offset:    -0.1615
    - center: -0.001071666677792867 -0.00258733332157135 -0.1615000069141388 
    - vertices: p62(v62) p46(v31) p44(v19)
    - neighboring facets: f243 f337 f343
- f328
    - flags: top simplicial tricoplanar
    - owner of normal & centrum is facet f327
    - normal:         0        0       -1
    - offset:    -0.1615
    - center: -0.001071666677792867 -0.00258733332157135 -0.1615000069141388 
    - vertices: p62(v62) p54(v33) p52(v20)
    - neighboring facets: f255 f333 f344
- f329
    - flags: bottom simplicial tricoplanar seen
    - owner of normal & centrum is facet f327
    - normal:         0        0       -1
    - offset:    -0.1615
    - center: -0.001071666677792867 -0.00258733332157135 -0.1615000069141388 
    - vertices: p62(v62) p26(v40) p28(v25)
    - neighboring facets: f363 f335 f348
- f330
    - flags: top simplicial tricoplanar
    - owner of normal & centrum is facet f327
    - normal:         0        0       -1
    - offset:    -0.1615
    - center: -0.001071666677792867 -0.00258733332157135 -0.1615000069141388 
    - vertices: p62(v62) p22(v41) p20(v23)
    - neighboring facets: f283 f332 f349
- f331
    - flags: bottom simplicial tricoplanar
    - owner of normal & centrum is facet f327
    - normal:         0        0       -1
    - offset:    -0.1615
    - center: -0.001071666677792867 -0.00258733332157135 -0.1615000069141388 
    - vertices: p62(v62) p1(v27) p4(v16)
    - neighboring facets: f295 f336 f341
- f332
    - flags: bottom simplicial tricoplanar
    - owner of normal & centrum is facet f327
    - normal:         0        0       -1
    - offset:    -0.1615
    - center: -0.001071666677792867 -0.00258733332157135 -0.1615000069141388 
    - vertices: p62(v62) p18(v47) p20(v23)
    - neighboring facets: f311 f330 f352
- f333
    - flags: bottom simplicial tricoplanar
    - owner of normal & centrum is facet f327
    - normal:         0        0       -1
    - offset:    -0.1615
    - center: -0.001071666677792867 -0.00258733332157135 -0.1615000069141388 
    - vertices: p62(v62) p50(v51) p52(v20)
    - neighboring facets: f264 f328 f354
- f334
    - flags: top simplicial tricoplanar
    - owner of normal & centrum is facet f327
    - normal:         0        0       -1
    - offset:    -0.1615
    - center: -0.001071666677792867 -0.00258733332157135 -0.1615000069141388 
    - vertices: p62(v62) p38(v22) p36(v13)
    - neighboring facets: f275 f340 f338
- f335
    - flags: top simplicial tricoplanar seen
    - owner of normal & centrum is facet f327
    - normal:         0        0       -1
    - offset:    -0.1615
    - center: -0.001071666677792867 -0.00258733332157135 -0.1615000069141388 
    - vertices: p62(v62) p30(v39) p28(v25)
    - neighboring facets: f359 f329 f347
- f336
    - flags: top simplicial tricoplanar
    - owner of normal & centrum is facet f327
    - normal:         0        0       -1
    - offset:    -0.1615
    - center: -0.001071666677792867 -0.00258733332157135 -0.1615000069141388 
    - vertices: p62(v62) p6(v42) p4(v16)
    - neighboring facets: f235 f331 f350
- f337
    - flags: bottom simplicial tricoplanar
    - owner of normal & centrum is facet f327
    - normal:         0        0       -1
    - offset:    -0.1615
    - center: -0.001071666677792867 -0.00258733332157135 -0.1615000069141388 
    - vertices: p62(v62) p42(v49) p44(v19)
    - neighboring facets: f252 f327 f353
- f338
    - flags: bottom simplicial tricoplanar
    - owner of normal & centrum is facet f327
    - normal:         0        0       -1
    - offset:    -0.1615
    - center: -0.001071666677792867 -0.00258733332157135 -0.1615000069141388 
    - vertices: p62(v62) p38(v22) p40(v8)
    - neighboring facets: f223 f353 f334
- f339
    - flags: bottom simplicial tricoplanar
    - owner of normal & centrum is facet f327
    - normal:         0        0       -1
    - offset:    -0.1615
    - center: -0.001071666677792867 -0.00258733332157135 -0.1615000069141388 
    - vertices: p62(v62) p10(v45) p12(v29)
    - neighboring facets: f303 f345 f351
- f340
    - flags: bottom simplicial tricoplanar
    - owner of normal & centrum is facet f327
    - normal:         0        0       -1
    - offset:    -0.1615
    - center: -0.001071666677792867 -0.00258733332157135 -0.1615000069141388 
    - vertices: p62(v62) p34(v36) p36(v13)
    - neighboring facets: f271 f334 f346
- f341
    - flags: top simplicial tricoplanar
    - owner of normal & centrum is facet f327
    - normal:         0        0       -1
    - offset:    -0.1615
    - center: -0.001071666677792867 -0.00258733332157135 -0.1615000069141388 
    - vertices: p62(v62) p1(v27) p2(v6)
    - neighboring facets: f291 f400 f331
- f342
    - flags: bottom simplicial tricoplanar
    - owner of normal & centrum is facet f327
    - normal:         0        0       -1
    - offset:    -0.1615
    - center: -0.001071666677792867 -0.00258733332157135 -0.1615000069141388 
    - vertices: p62(v62) p58(v52) p60(v35)
    - neighboring facets: f267 f404 f355
- f343
    - flags: bottom simplicial tricoplanar
    - owner of normal & centrum is facet f327
    - normal:         0        0       -1
    - offset:    -0.1615
    - center: -0.001071666677792867 -0.00258733332157135 -0.1615000069141388 
    - vertices: p62(v62) p46(v31) p48(v0)
    - neighboring facets: f216 f354 f327
- f344
    - flags: bottom simplicial tricoplanar
    - owner of normal & centrum is facet f327
    - normal:         0        0       -1
    - offset:    -0.1615
    - center: -0.001071666677792867 -0.00258733332157135 -0.1615000069141388 
    - vertices: p62(v62) p54(v33) p56(v12)
    - neighboring facets: f323 f355 f328
- f345
    - flags: top simplicial tricoplanar
    - owner of normal & centrum is facet f327
    - normal:         0        0       -1
    - offset:    -0.1615
    - center: -0.001071666677792867 -0.00258733332157135 -0.1615000069141388 
    - vertices: p62(v62) p14(v58) p12(v29)
    - neighboring facets: f307 f339 f356
- f346
    - flags: top simplicial tricoplanar
    - owner of normal & centrum is facet f327
    - normal:         0        0       -1
    - offset:    -0.1615
    - center: -0.001071666677792867 -0.00258733332157135 -0.1615000069141388 
    - vertices: p62(v62) p34(v36) p32(v3)
    - neighboring facets: f219 f347 f340
- f347
    - flags: bottom simplicial tricoplanar
    - owner of normal & centrum is facet f327
    - normal:         0        0       -1
    - offset:    -0.1615
    - center: -0.001071666677792867 -0.00258733332157135 -0.1615000069141388 
    - vertices: p62(v62) p30(v39) p32(v3)
    - neighboring facets: f228 f346 f335
- f348
    - flags: top simplicial tricoplanar
    - owner of normal & centrum is facet f327
    - normal:         0        0       -1
    - offset:    -0.1615
    - center: -0.001071666677792867 -0.00258733332157135 -0.1615000069141388 
    - vertices: p62(v62) p26(v40) p24(v14)
    - neighboring facets: f279 f349 f329
- f349
    - flags: bottom simplicial tricoplanar
    - owner of normal & centrum is facet f327
    - normal:         0        0       -1
    - offset:    -0.1615
    - center: -0.001071666677792867 -0.00258733332157135 -0.1615000069141388 
    - vertices: p62(v62) p22(v41) p24(v14)
    - neighboring facets: f287 f348 f330
- f350
    - flags: bottom simplicial tricoplanar
    - owner of normal & centrum is facet f327
    - normal:         0        0       -1
    - offset:    -0.1615
    - center: -0.001071666677792867 -0.00258733332157135 -0.1615000069141388 
    - vertices: p62(v62) p6(v42) p8(v10)
    - neighboring facets: f231 f351 f336
- f351
    - flags: top simplicial tricoplanar
    - owner of normal & centrum is facet f327
    - normal:         0        0       -1
    - offset:    -0.1615
    - center: -0.001071666677792867 -0.00258733332157135 -0.1615000069141388 
    - vertices: p62(v62) p10(v45) p8(v10)
    - neighboring facets: f240 f350 f339
- f352
    - flags: top simplicial tricoplanar
    - owner of normal & centrum is facet f327
    - normal:         0        0       -1
    - offset:    -0.1615
    - center: -0.001071666677792867 -0.00258733332157135 -0.1615000069141388 
    - vertices: p62(v62) p18(v47) p16(v1)
    - neighboring facets: f315 f356 f332
- f353
    - flags: top simplicial tricoplanar
    - owner of normal & centrum is facet f327
    - normal:         0        0       -1
    - offset:    -0.1615
    - center: -0.001071666677792867 -0.00258733332157135 -0.1615000069141388 
    - vertices: p62(v62) p42(v49) p40(v8)
    - neighboring facets: f248 f338 f337
- f354
    - flags: top simplicial tricoplanar
    - owner of normal & centrum is facet f327
    - normal:         0        0       -1
    - offset:    -0.1615
    - center: -0.001071666677792867 -0.00258733332157135 -0.1615000069141388 
    - vertices: p62(v62) p50(v51) p48(v0)
    - neighboring facets: f259 f343 f333
- f355
    - flags: top simplicial tricoplanar
    - owner of normal & centrum is facet f327
    - normal:         0        0       -1
    - offset:    -0.1615
    - center: -0.001071666677792867 -0.00258733332157135 -0.1615000069141388 
    - vertices: p62(v62) p58(v52) p56(v12)
    - neighboring facets: f319 f344 f342
- f356
    - flags: bottom simplicial tricoplanar
    - owner of normal & centrum is facet f327
    - normal:         0        0       -1
    - offset:    -0.1615
    - center: -0.001071666677792867 -0.00258733332157135 -0.1615000069141388 
    - vertices: p62(v62) p14(v58) p16(v1)
    - neighboring facets: f301 f352 f345
- f359
    - flags: bottom simplicial tricoplanar keepcentrum
    - owner of normal & centrum is facet f359
    - normal:    0.2902   -0.957       -0
    - offset:  -0.025083
    - center: 0.007281000027433038 -0.02400299999862909      0 
    - vertices: p29(v63) p30(v39) p28(v25)
    - neighboring facets: f335 f363 f360
- f360
    - flags: top simplicial tricoplanar
    - owner of normal & centrum is facet f359
    - normal:    0.2902   -0.957       -0
    - offset:  -0.025083
    - center: 0.007281000027433038 -0.02400299999862909      0 
    - vertices: p29(v63) p30(v39) p31(v15)
    - neighboring facets: f227 f396 f359
- f363
    - flags: top simplicial tricoplanar keepcentrum
    - owner of normal & centrum is facet f363
    - normal:    0.4713   -0.882        0
    - offset: -0.02508322
    - center: 0.01182400016114116 -0.02212150022387504      0 
    - vertices: p29(v63) p26(v40) p28(v25)
    - neighboring facets: f329 f359 f364
- f364
    - flags: top simplicial tricoplanar
    - owner of normal & centrum is facet f363
    - normal:    0.4713   -0.882        0
    - offset: -0.02508322
    - center: 0.01182400016114116 -0.02212150022387504      0 
    - vertices: p29(v63) p27(v55) p26(v40)
    - neighboring facets: f279 f363 f388
- f367
    - flags: bottom simplicial tricoplanar keepcentrum
    - owner of normal & centrum is facet f367
    - normal:        -0       -0        1
    - offset:    -0.1615
    - center: -0.006208444272892343 0.001411777869280842 0.1615000069141388 
    - vertices: p63(v64) p61(v53) p59(v21)
    - neighboring facets: f269 f395 f403
- f368
    - flags: bottom simplicial tricoplanar
    - owner of normal & centrum is facet f367
    - normal:        -0       -0        1
    - offset:    -0.1615
    - center: -0.006208444272892343 0.001411777869280842 0.1615000069141388 
    - vertices: p63(v64) p49(v18) p47(v11)
    - neighboring facets: f215 f386 f369
- f369
    - flags: bottom simplicial tricoplanar
    - owner of normal & centrum is facet f367
    - normal:        -0       -0        1
    - offset:    -0.1615
    - center: -0.006208444272892343 0.001411777869280842 0.1615000069141388 
    - vertices: p63(v64) p51(v34) p49(v18)
    - neighboring facets: f260 f368 f380
- f370
    - flags: top simplicial tricoplanar
    - owner of normal & centrum is facet f367
    - normal:        -0       -0        1
    - offset:    -0.1615
    - center: -0.006208444272892343 0.001411777869280842 0.1615000069141388 
    - vertices: p63(v64) p5(v44) p7(v28)
    - neighboring facets: f236 f377 f385
- f371
    - flags: bottom simplicial tricoplanar
    - owner of normal & centrum is facet f367
    - normal:        -0       -0        1
    - offset:    -0.1615
    - center: -0.006208444272892343 0.001411777869280842 0.1615000069141388 
    - vertices: p63(v64) p45(v48) p43(v32)
    - neighboring facets: f251 f379 f386
- f372
    - flags: top simplicial tricoplanar
    - owner of normal & centrum is facet f367
    - normal:        -0       -0        1
    - offset:    -0.1615
    - center: -0.006208444272892343 0.001411777869280842 0.1615000069141388 
    - vertices: p63(v64) p37(v54) p39(v38)
    - neighboring facets: f276 f382 f389
- f373
    - flags: top simplicial tricoplanar
    - owner of normal & centrum is facet f367
    - normal:        -0       -0        1
    - offset:    -0.1615
    - center: -0.006208444272892343 0.001411777869280842 0.1615000069141388 
    - vertices: p63(v64) p15(v46) p17(v30)
    - neighboring facets: f299 f374 f378
- f374
    - flags: bottom simplicial tricoplanar
    - owner of normal & centrum is facet f367
    - normal:        -0       -0        1
    - offset:    -0.1615
    - center: -0.006208444272892343 0.001411777869280842 0.1615000069141388 
    - vertices: p63(v64) p19(v60) p17(v30)
    - neighboring facets: f316 f373 f394
- f375
    - flags: top simplicial tricoplanar
    - owner of normal & centrum is facet f367
    - normal:        -0       -0        1
    - offset:    -0.1615
    - center: -0.006208444272892343 0.001411777869280842 0.1615000069141388 
    - vertices: p63(v64) p33(v37) p35(v24)
    - neighboring facets: f221 f389 f381
- f376
    - flags: bottom simplicial tricoplanar
    - owner of normal & centrum is facet f367
    - normal:        -0       -0        1
    - offset:    -0.1615
    - center: -0.006208444272892343 0.001411777869280842 0.1615000069141388 
    - vertices: p63(v64) p27(v55) p25(v26)
    - neighboring facets: f281 f384 f388
- f377
    - flags: bottom simplicial tricoplanar
    - owner of normal & centrum is facet f367
    - normal:        -0       -0        1
    - offset:    -0.1615
    - center: -0.006208444272892343 0.001411777869280842 0.1615000069141388 
    - vertices: p63(v64) p9(v43) p7(v28)
    - neighboring facets: f233 f370 f383
- f378
    - flags: top simplicial tricoplanar
    - owner of normal & centrum is facet f367
    - normal:        -0       -0        1
    - offset:    -0.1615
    - center: -0.006208444272892343 0.001411777869280842 0.1615000069141388 
    - vertices: p63(v64) p13(v59) p15(v46)
    - neighboring facets: f308 f373 f393
- f379
    - flags: bottom simplicial tricoplanar
    - owner of normal & centrum is facet f367
    - normal:        -0       -0        1
    - offset:    -0.1615
    - center: -0.006208444272892343 0.001411777869280842 0.1615000069141388 
    - vertices: p63(v64) p43(v32) p41(v5)
    - neighboring facets: f247 f382 f371
- f380
    - flags: top simplicial tricoplanar
    - owner of normal & centrum is facet f367
    - normal:        -0       -0        1
    - offset:    -0.1615
    - center: -0.006208444272892343 0.001411777869280842 0.1615000069141388 
    - vertices: p63(v64) p51(v34) p53(v7)
    - neighboring facets: f263 f387 f369
- f381
    - flags: bottom simplicial tricoplanar
    - owner of normal & centrum is facet f367
    - normal:        -0       -0        1
    - offset:    -0.1615
    - center: -0.006208444272892343 0.001411777869280842 0.1615000069141388 
    - vertices: p63(v64) p33(v37) p31(v15)
    - neighboring facets: f227 f396 f375
- f382
    - flags: top simplicial tricoplanar
    - owner of normal & centrum is facet f367
    - normal:        -0       -0        1
    - offset:    -0.1615
    - center: -0.006208444272892343 0.001411777869280842 0.1615000069141388 
    - vertices: p63(v64) p39(v38) p41(v5)
    - neighboring facets: f225 f379 f372
- f383
    - flags: top simplicial tricoplanar
    - owner of normal & centrum is facet f367
    - normal:        -0       -0        1
    - offset:    -0.1615
    - center: -0.006208444272892343 0.001411777869280842 0.1615000069141388 
    - vertices: p63(v64) p9(v43) p11(v17)
    - neighboring facets: f239 f393 f377
- f384
    - flags: top simplicial tricoplanar
    - owner of normal & centrum is facet f367
    - normal:        -0       -0        1
    - offset:    -0.1615
    - center: -0.006208444272892343 0.001411777869280842 0.1615000069141388 
    - vertices: p63(v64) p23(v56) p25(v26)
    - neighboring facets: f288 f376 f391
- f385
    - flags: top simplicial tricoplanar
    - owner of normal & centrum is facet f367
    - normal:        -0       -0        1
    - offset:    -0.1615
    - center: -0.006208444272892343 0.001411777869280842 0.1615000069141388 
    - vertices: p63(v64) p3(v57) p5(v44)
    - neighboring facets: f296 f370 f392
- f386
    - flags: top simplicial tricoplanar
    - owner of normal & centrum is facet f367
    - normal:        -0       -0        1
    - offset:    -0.1615
    - center: -0.006208444272892343 0.001411777869280842 0.1615000069141388 
    - vertices: p63(v64) p45(v48) p47(v11)
    - neighboring facets: f244 f368 f371
- f387
    - flags: bottom simplicial tricoplanar
    - owner of normal & centrum is facet f367
    - normal:        -0       -0        1
    - offset:    -0.1615
    - center: -0.006208444272892343 0.001411777869280842 0.1615000069141388 
    - vertices: p63(v64) p55(v50) p53(v7)
    - neighboring facets: f257 f380 f390
- f388
    - flags: bottom simplicial tricoplanar
    - owner of normal & centrum is facet f367
    - normal:        -0       -0        1
    - offset:    -0.1615
    - center: -0.006208444272892343 0.001411777869280842 0.1615000069141388 
    - vertices: p63(v64) p29(v63) p27(v55)
    - neighboring facets: f364 f376 f396
- f389
    - flags: bottom simplicial tricoplanar
    - owner of normal & centrum is facet f367
    - normal:        -0       -0        1
    - offset:    -0.1615
    - center: -0.006208444272892343 0.001411777869280842 0.1615000069141388 
    - vertices: p63(v64) p37(v54) p35(v24)
    - neighboring facets: f272 f375 f372
- f390
    - flags: bottom simplicial tricoplanar
    - owner of normal & centrum is facet f367
    - normal:        -0       -0        1
    - offset:    -0.1615
    - center: -0.006208444272892343 0.001411777869280842 0.1615000069141388 
    - vertices: p63(v64) p57(v61) p55(v50)
    - neighboring facets: f324 f387 f395
- f391
    - flags: bottom simplicial tricoplanar
    - owner of normal & centrum is facet f367
    - normal:        -0       -0        1
    - offset:    -0.1615
    - center: -0.006208444272892343 0.001411777869280842 0.1615000069141388 
    - vertices: p63(v64) p23(v56) p21(v9)
    - neighboring facets: f285 f394 f384
- f392
    - flags: bottom simplicial tricoplanar
    - owner of normal & centrum is facet f367
    - normal:        -0       -0        1
    - offset:    -0.1615
    - center: -0.006208444272892343 0.001411777869280842 0.1615000069141388 
    - vertices: p63(v64) p3(v57) p0(v2)
    - neighboring facets: f292 f399 f385
- f393
    - flags: bottom simplicial tricoplanar
    - owner of normal & centrum is facet f367
    - normal:        -0       -0        1
    - offset:    -0.1615
    - center: -0.006208444272892343 0.001411777869280842 0.1615000069141388 
    - vertices: p63(v64) p13(v59) p11(v17)
    - neighboring facets: f304 f383 f378
- f394
    - flags: top simplicial tricoplanar
    - owner of normal & centrum is facet f367
    - normal:        -0       -0        1
    - offset:    -0.1615
    - center: -0.006208444272892343 0.001411777869280842 0.1615000069141388 
    - vertices: p63(v64) p19(v60) p21(v9)
    - neighboring facets: f312 f391 f374
- f395
    - flags: top simplicial tricoplanar
    - owner of normal & centrum is facet f367
    - normal:        -0       -0        1
    - offset:    -0.1615
    - center: -0.006208444272892343 0.001411777869280842 0.1615000069141388 
    - vertices: p63(v64) p57(v61) p59(v21)
    - neighboring facets: f320 f367 f390
- f396
    - flags: top simplicial tricoplanar
    - owner of normal & centrum is facet f367
    - normal:        -0       -0        1
    - offset:    -0.1615
    - center: -0.006208444272892343 0.001411777869280842 0.1615000069141388 
    - vertices: p63(v64) p29(v63) p31(v15)
    - neighboring facets: f360 f381 f388
- f399
    - flags: top simplicial tricoplanar keepcentrum
    - owner of normal & centrum is facet f399
    - normal:  -0.09816   0.9952        0
    - offset: -0.02508327
    - center: -0.002458499977365136 0.02496249973773956      0 
    - vertices: p63(v64) p2(v6) p0(v2)
    - neighboring facets: f292 f392 f400
- f400
    - flags: top simplicial tricoplanar
    - owner of normal & centrum is facet f399
    - normal:  -0.09816   0.9952        0
    - offset: -0.02508327
    - center: -0.002458499977365136 0.02496249973773956      0 
    - vertices: p63(v64) p62(v62) p2(v6)
    - neighboring facets: f341 f399 f404
- f403
    - flags: top simplicial tricoplanar keepcentrum
    - owner of normal & centrum is facet f403
    - normal:   -0.2902    0.957        0
    - offset:  -0.025083
    - center: -0.007281000027433038 0.02400299999862909      0 
    - vertices: p63(v64) p61(v53) p60(v35)
    - neighboring facets: f267 f404 f367
- f404
    - flags: bottom simplicial tricoplanar
    - owner of normal & centrum is facet f403
    - normal:   -0.2902    0.957        0
    - offset:  -0.025083
    - center: -0.007281000027433038 0.02400299999862909      0 
    - vertices: p63(v64) p62(v62) p60(v35)
    - neighboring facets: f342 f403 f400
