<robot name="dhm">

  --&gt;


  <material name="green">
    <color rgba="0 0 0.8 1" />
  </material>
  <link name="base_link">
    <inertial>
      <mass value="0.001" />
      <origin rpy="0 0 0" xyz="0 0 0" />
      <inertia ixx="4e-08" ixy="0" ixz="0" iyy="4e-08" iyz="0" izz="4e-08" />
    </inertial>
  </link>
  <link name="Pelvis">
    <visual>
      <geometry>
        <mesh filename="package://human_description/stl/Pelvis.stl" /></geometry>
      <origin rpy="0 0 0" xyz="0 0.00642243367935 0" />
      <material name="green" />
    </visual>
    <collision>
      <geometry>
        <box size="0.221801614764 0.174155132641 0.259394550173" />
      </geometry>
      <origin rpy="0 0 0" xyz="0 0.00642243367935 0" />
    </collision>
    <inertial>
      <mass value="2.15616477063" />
      <origin rpy="0 0 0" xyz="0 0.00642243367935 0" />
      <inertia ixx="0.0894214878728" ixy="0" ixz="0" iyy="0.100672139435" iyz="0" izz="0.0474250766736" />
    </inertial>
  </link>
  <link name="body_L5_1">
    <inertial>
      <mass value="0.001" />
      <origin rpy="0 0 0" xyz="0 0 0" />
      <inertia ixx="4e-08" ixy="0" ixz="0" iyy="4e-08" iyz="0" izz="4e-08" />
    </inertial>
  </link>
  <link name="body_L5_2">
    <inertial>
      <mass value="0.001" />
      <origin rpy="0 0 0" xyz="0 0 0" />
      <inertia ixx="4e-08" ixy="0" ixz="0" iyy="4e-08" iyz="0" izz="4e-08" />
    </inertial>
  </link>
  <link name="L5">
    <visual>
      <geometry>
        <mesh filename="package://human_description/stl/L5.stl" /></geometry>
      <origin rpy="0 0 0" xyz="0 0.04675 0" />
      <material name="green" />
    </visual>
    <collision>
      <geometry>
        <box size="0.211719723183  0.0935 0.213269896194" />
      </geometry>
      <origin rpy="0 0 0" xyz="0 0.04675 0" />
    </collision>
    <inertial>
      <mass value="0.5424068159" />
      <origin rpy="0 0 0" xyz="0 0.04675 0" />
      <inertia ixx="0.038872800341" ixy="0" ixz="0" iyy="0.0545268559204" iyz="0" izz="0.0232394393237" />
    </inertial>
  </link>
  <link name="body_L3_1">
    <inertial>
      <mass value="0.001" />
      <origin rpy="0 0 0" xyz="0 0 0" />
      <inertia ixx="4e-08" ixy="0" ixz="0" iyy="4e-08" iyz="0" izz="4e-08" />
    </inertial>
  </link>
  <link name="body_L3_2">
    <inertial>
      <mass value="0.001" />
      <origin rpy="0 0 0" xyz="0 0 0" />
      <inertia ixx="4e-08" ixy="0" ixz="0" iyy="4e-08" iyz="0" izz="4e-08" />
    </inertial>
  </link>
  <link name="L3">
    <visual>
      <geometry>
        <mesh filename="package://human_description/stl/L3.stl" /></geometry>
      <origin rpy="0 0 0" xyz="0 0.0425 0" />
      <material name="green" />
    </visual>
    <collision>
      <geometry>
        <box size="0.211719723183  0.085 0.213269896194" />
      </geometry>
      <origin rpy="0 0 0" xyz="0 0.0425 0" />
    </collision>
    <inertial>
      <mass value="2.169627264" />
      <origin rpy="0 0 0" xyz="0 0.0425 0" />
      <inertia ixx="0.0382145645615" ixy="0" ixz="0" iyy="0.0545268559204" iyz="0" izz="0.0225812035442" />
    </inertial>
  </link>
  <link name="body_T12_1">
    <inertial>
      <mass value="0.001" />
      <origin rpy="0 0 0" xyz="0 0 0" />
      <inertia ixx="4e-08" ixy="0" ixz="0" iyy="4e-08" iyz="0" izz="4e-08" />
    </inertial>
  </link>
  <link name="body_T12_2">
    <inertial>
      <mass value="0.001" />
      <origin rpy="0 0 0" xyz="0 0 0" />
      <inertia ixx="4e-08" ixy="0" ixz="0" iyy="4e-08" iyz="0" izz="4e-08" />
    </inertial>
  </link>
  <link name="T12">
    <visual>
      <geometry>
        <mesh filename="package://human_description/stl/T12.stl" /></geometry>
      <origin rpy="0 0 0" xyz="0 0.051 0" />
      <material name="green" />
    </visual>
    <collision>
      <geometry>
        <box size="0.201637831603 0.102 0.350718915802" />
      </geometry>
      <origin rpy="0 0 0" xyz="0 0.051 0" />
    </collision>
    <inertial>
      <mass value="1.474101944" />
      <origin rpy="0 0 0" xyz="0 0.051 0" />
      <inertia ixx="0.0461168816576" ixy="0" ixz="0" iyy="0.0565751311189" iyz="0" izz="0.0176512350015" />
    </inertial>
  </link>
  <link name="body_T8_1">
    <inertial>
      <mass value="0.001" />
      <origin rpy="0 0 0" xyz="0 0 0" />
      <inertia ixx="4e-08" ixy="0" ixz="0" iyy="4e-08" iyz="0" izz="4e-08" />
    </inertial>
  </link>
  <link name="body_T8_2">
    <inertial>
      <mass value="0.001" />
      <origin rpy="0 0 0" xyz="0 0 0" />
      <inertia ixx="4e-08" ixy="0" ixz="0" iyy="4e-08" iyz="0" izz="4e-08" />
    </inertial>
  </link>
  <link name="T8">
    <visual>
      <geometry>
        <mesh filename="package://human_description/stl/T8.stl" /></geometry>
      <origin rpy="0 0 0" xyz="0 0.0595 0" />
      <material name="green" />
    </visual>
    <collision>
      <geometry>
        <box size="0.201637831603 0.119 0.350718915802" />
      </geometry>
      <origin rpy="0 0 0" xyz="0 0.0595 0" />
    </collision>
    <inertial>
      <mass value="5.896407774" />
      <origin rpy="0 0 0" xyz="0 0.0595 0" />
      <inertia ixx="0.0711234227368" ixy="0" ixz="0" iyy="0.0848626966784" iyz="0" izz="0.0284249527528" />
    </inertial>
  </link>
  <link name="body_Neck_1">
    <inertial>
      <mass value="0.001" />
      <origin rpy="0 0 0" xyz="0 0 0" />
      <inertia ixx="4e-08" ixy="0" ixz="0" iyy="4e-08" iyz="0" izz="4e-08" />
    </inertial>
  </link>
  <link name="body_Neck_2">
    <inertial>
      <mass value="0.001" />
      <origin rpy="0 0 0" xyz="0 0 0" />
      <inertia ixx="4e-08" ixy="0" ixz="0" iyy="4e-08" iyz="0" izz="4e-08" />
    </inertial>
  </link>
  <link name="Neck">
    <visual>
      <geometry>
        <mesh filename="package://human_description/stl/Neck.stl" /></geometry>
      <origin rpy="-1.57079632679 0 0" xyz="0 0.04675 0" />
      <material name="green" />
    </visual>
    <collision>
      <geometry>
        <cylinder length="0.0935" radius="0.0453685121107" />
      </geometry>
      <origin rpy="-1.57079632679 0 0" xyz="0 0.04675 0" />
    </collision>
    <inertial>
      <mass value="0.3659405022" />
      <origin rpy="-1.57079632679 0 0" xyz="0 0.04675 0" />
      <inertia ixx="0.000600378535122" ixy="0" ixz="0" iyy="0.000600378535122" iyz="0" izz="0.000497049290614" />
    </inertial>
  </link>
  <link name="body_Head_1">
    <inertial>
      <mass value="0.001" />
      <origin rpy="0 0 0" xyz="0 0 0" />
      <inertia ixx="4e-08" ixy="0" ixz="0" iyy="4e-08" iyz="0" izz="4e-08" />
    </inertial>
  </link>
  <link name="body_Head_2">
    <inertial>
      <mass value="0.001" />
      <origin rpy="0 0 0" xyz="0 0 0" />
      <inertia ixx="4e-08" ixy="0" ixz="0" iyy="4e-08" iyz="0" izz="4e-08" />
    </inertial>
  </link>
  <link name="Head">
    <visual>
      <geometry>
        <mesh filename="package://human_description/stl/Head.stl" /></geometry>
      <origin rpy="-1.57079632679 0 0" xyz="0 0.0017 0" />
      <material name="green" />
    </visual>
    <collision>
      <geometry>
        <cylinder length="0.2142" radius="0.1" />
      </geometry>
      <origin rpy="-1.57079632679 0 0" xyz="0 0.0017 0" />
    </collision>
    <inertial>
      <mass value="1.463762009" />
      <origin rpy="-1.57079632679 0 0" xyz="0 0.0017 0" />
      <inertia ixx="0.0274864310442" ixy="0" ixz="0" iyy="0.0274864310442" iyz="0" izz="0.0217336613" />
    </inertial>
  </link>
  <link name="body_RightShoulder_1">
    <inertial>
      <mass value="0.001" />
      <origin rpy="0 0 0" xyz="0 0 0" />
      <inertia ixx="4e-08" ixy="0" ixz="0" iyy="4e-08" iyz="0" izz="4e-08" />
    </inertial>
  </link>
  <link name="body_RightShoulder_2">
    <inertial>
      <mass value="0.001" />
      <origin rpy="0 0 0" xyz="0 0 0" />
      <inertia ixx="4e-08" ixy="0" ixz="0" iyy="4e-08" iyz="0" izz="4e-08" />
    </inertial>
  </link>
  <link name="Right Shoulder">
    <visual>
      <geometry>
        <mesh filename="package://human_description/stl/Right_Shoulder.stl" /></geometry>
      <origin rpy="0 0 0" xyz="0 0 0.0758625" />
      <material name="green" />
    </visual>
    <inertial>
      <mass value="0.518525485884" />
      <origin rpy="0 0 0" xyz="0 0 0.0758625" />
      <inertia ixx="0.00146907282604" ixy="0" ixz="0" iyy="0.00146907282604" iyz="0" izz="0.000948695100622" />
    </inertial>
  </link>
  <link name="body_RightUpperArm_1">
    <inertial>
      <mass value="0.001" />
      <origin rpy="0 0 0" xyz="0 0 0" />
      <inertia ixx="4e-08" ixy="0" ixz="0" iyy="4e-08" iyz="0" izz="4e-08" />
    </inertial>
  </link>
  <link name="body_RightUpperArm_2">
    <inertial>
      <mass value="0.001" />
      <origin rpy="0 0 0" xyz="0 0 0" />
      <inertia ixx="4e-08" ixy="0" ixz="0" iyy="4e-08" iyz="0" izz="4e-08" />
    </inertial>
  </link>
  <link name="Right Upper Arm">
    <visual>
      <geometry>
        <mesh filename="package://human_description/stl/Right_Upper_Arm.stl" /></geometry>
      <origin rpy="1.57079632679 0 0" xyz="0 -0.1615 0" />
      <material name="green" />
    </visual>
    <collision>
      <geometry>
        <cylinder length="0.323" radius="0.0504094579008" />
      </geometry>
      <origin rpy="1.57079632679 0 0" xyz="0 -0.1615 0" />
    </collision>
    <inertial>
      <mass value="0.74562028551" />
      <origin rpy="1.57079632679 0 0" xyz="0 -0.1615 0" />
      <inertia ixx="0.0162855230253" ixy="0" ixz="0" iyy="0.0162855230253" iyz="0" izz="0.00221790958943" />
    </inertial>
  </link>
  <link name="body_RightForearm_1">
    <inertial>
      <mass value="0.001" />
      <origin rpy="0 0 0" xyz="0 0 0" />
      <inertia ixx="4e-08" ixy="0" ixz="0" iyy="4e-08" iyz="0" izz="4e-08" />
    </inertial>
  </link>
  <link name="body_RightForearm_2">
    <inertial>
      <mass value="0.001" />
      <origin rpy="0 0 0" xyz="0 0 0" />
      <inertia ixx="4e-08" ixy="0" ixz="0" iyy="4e-08" iyz="0" izz="4e-08" />
    </inertial>
  </link>
  <link name="Right Forearm">
    <visual>
      <geometry>
        <mesh filename="package://human_description/stl/Right_Forearm.stl" /></geometry>
      <origin rpy="1.57079632679 0 0" xyz="0 -0.1275 0" />
      <material name="green" />
    </visual>
    <collision>
      <geometry>
        <cylinder length="0.255" radius="0.0403275663206" />
      </geometry>
      <origin rpy="1.57079632679 0 0" xyz="0 -0.1275 0" />
    </collision>
    <inertial>
      <mass value="0.26201549792" />
      <origin rpy="1.57079632679 0 0" xyz="0 -0.1275 0" />
      <inertia ixx="0.00618658877721" ixy="0" ixz="0" iyy="0.00618658877721" iyz="0" izz="0.000863584595673" />
    </inertial>
  </link>
  <link name="body_RightHand_1">
    <inertial>
      <mass value="0.001" />
      <origin rpy="0 0 0" xyz="0 0 0" />
      <inertia ixx="4e-08" ixy="0" ixz="0" iyy="4e-08" iyz="0" izz="4e-08" />
    </inertial>
  </link>
  <link name="body_RightHand_2">
    <inertial>
      <mass value="0.001" />
      <origin rpy="0 0 0" xyz="0 0 0" />
      <inertia ixx="4e-08" ixy="0" ixz="0" iyy="4e-08" iyz="0" izz="4e-08" />
    </inertial>
  </link>
  <link name="Right Hand">
    <visual>
      <geometry>
        <mesh filename="package://human_description/stl/Right_Hand.stl" /></geometry>
      <origin rpy="0 0 0" xyz="0 -0.085 0" />
      <material name="green" />
    </visual>
    <collision>
      <geometry>
        <box size="0.0806551326413 0.17 0.0302456747405" />
      </geometry>
      <origin rpy="0 0 0" xyz="0 -0.085 0" />
    </collision>
    <inertial>
      <mass value="0.414245436006" />
      <origin rpy="0 0 0" xyz="0 -0.085 0" />
      <inertia ixx="0.00102922043113" ixy="0" ixz="0" iyy="0.000256143530847" iyz="0" izz="0.00122220528314" />
    </inertial>
  </link>
  <link name="body_LeftShoulder_1">
    <inertial>
      <mass value="0.001" />
      <origin rpy="0 0 0" xyz="0 0 0" />
      <inertia ixx="4e-08" ixy="0" ixz="0" iyy="4e-08" iyz="0" izz="4e-08" />
    </inertial>
  </link>
  <link name="body_LeftShoulder_2">
    <inertial>
      <mass value="0.001" />
      <origin rpy="0 0 0" xyz="0 0 0" />
      <inertia ixx="4e-08" ixy="0" ixz="0" iyy="4e-08" iyz="0" izz="4e-08" />
    </inertial>
  </link>
  <link name="Left Shoulder">
    <visual>
      <geometry>
        <mesh filename="package://human_description/stl/Left_Shoulder.stl" /></geometry>
      <origin rpy="0 0 0" xyz="0 0 -0.0758625" />
      <material name="green" />
    </visual>
    <inertial>
      <mass value="0.518525485884" />
      <origin rpy="0 0 0" xyz="0 0 -0.0758625" />
      <inertia ixx="0.00146907282604" ixy="0" ixz="0" iyy="0.00146907282604" iyz="0" izz="0.000948695100622" />
    </inertial>
  </link>
  <link name="body_LeftUpperArm_1">
    <inertial>
      <mass value="0.001" />
      <origin rpy="0 0 0" xyz="0 0 0" />
      <inertia ixx="4e-08" ixy="0" ixz="0" iyy="4e-08" iyz="0" izz="4e-08" />
    </inertial>
  </link>
  <link name="body_LeftUpperArm_2">
    <inertial>
      <mass value="0.001" />
      <origin rpy="0 0 0" xyz="0 0 0" />
      <inertia ixx="4e-08" ixy="0" ixz="0" iyy="4e-08" iyz="0" izz="4e-08" />
    </inertial>
  </link>
  <link name="Left Upper Arm">
    <visual>
      <geometry>
        <mesh filename="package://human_description/stl/Left_Upper_Arm.stl" /></geometry>
      <origin rpy="1.57079632679 0 0" xyz="0 -0.1615 0" />
      <material name="green" />
    </visual>
    <collision>
      <geometry>
        <cylinder length="0.323" radius="0.0504094579008" />
      </geometry>
      <origin rpy="1.57079632679 0 0" xyz="0 -0.1615 0" />
    </collision>
    <inertial>
      <mass value="0.74562028551" />
      <origin rpy="1.57079632679 0 0" xyz="0 -0.1615 0" />
      &gt;

      <inertia ixx="0.0162855230253" ixy="0" ixz="0" iyy="0.0162855230253" iyz="0" izz="0.00221790958943" />
    </inertial>
  </link>
  <link name="body_LeftForearm_1">
    <inertial>
      <mass value="0.001" />
      <origin rpy="0 0 0" xyz="0 0 0" />
      <inertia ixx="4e-08" ixy="0" ixz="0" iyy="4e-08" iyz="0" izz="4e-08" />
    </inertial>
  </link>
  <link name="body_LeftForearm_2">
    <inertial>
      <mass value="0.001" />
      <origin rpy="0 0 0" xyz="0 0 0" />
      <inertia ixx="4e-08" ixy="0" ixz="0" iyy="4e-08" iyz="0" izz="4e-08" />
    </inertial>
  </link>
  <link name="Left Forearm">
    <visual>
      <geometry>
        <mesh filename="package://human_description/stl/Left_Forearm.stl" /></geometry>
      <origin rpy="1.57079632679 0 0" xyz="0 -0.1275 0" />
      <material name="green" />
    </visual>
    <collision>
      <geometry>
        <cylinder length="0.255" radius="0.0403275663206" />
      </geometry>
      <origin rpy="1.57079632679 0 0" xyz="0 -0.1275 0" />
    </collision>
    <inertial>
      <mass value="0.36201549792" />
      <origin rpy="1.57079632679 0 0" xyz="0 -0.1275 0" />
      <inertia ixx="0.00618658877721" ixy="0" ixz="0" iyy="0.00618658877721" iyz="0" izz="0.000863584595673" />
    </inertial>
  </link>
  <link name="body_LeftHand_1">
    <inertial>
      <mass value="0.001" />
      <origin rpy="0 0 0" xyz="0 0 0" />
      <inertia ixx="4e-08" ixy="0" ixz="0" iyy="4e-08" iyz="0" izz="4e-08" />
    </inertial>
  </link>
  <link name="body_LeftHand_2">
    <inertial>
      <mass value="0.001" />
      <origin rpy="0 0 0" xyz="0 0 0" />
      <inertia ixx="4e-08" ixy="0" ixz="0" iyy="4e-08" iyz="0" izz="4e-08" />
    </inertial>
  </link>
  <link name="Left Hand">
    <visual>
      <geometry>
        <mesh filename="package://human_description/stl/Left_Hand.stl" /></geometry>
      <origin rpy="0 0 0" xyz="0 -0.085 0" />
      <material name="green" />
    </visual>
    <collision>
      <geometry>
        <box size="0.0806551326413 0.17 0.0302456747405" />
      </geometry>
      <origin rpy="0 0 0" xyz="0 -0.085 0" />
    </collision>
    <inertial>
      <mass value="0.114245436006" />
      <origin rpy="0 0 0" xyz="0 -0.085 0" />
      <inertia ixx="0.00102922043113" ixy="0" ixz="0" iyy="0.000256143530847" iyz="0" izz="0.00122220528314" />
    </inertial>
  </link>
  <link name="body_RightUpperLeg_1">
    <inertial>
      <mass value="0.001" />
      <origin rpy="0 0 0" xyz="0 0 0" />
      <inertia ixx="4e-08" ixy="0" ixz="0" iyy="4e-08" iyz="0" izz="4e-08" />
    </inertial>
  </link>
  <link name="body_RightUpperLeg_2">
    <inertial>
      <mass value="0.001" />
      <origin rpy="0 0 0" xyz="0 0 0" />
      <inertia ixx="4e-08" ixy="0" ixz="0" iyy="4e-08" iyz="0" izz="4e-08" />
    </inertial>
  </link>
  <link name="Right Upper Leg">
    <visual>
      <geometry>
        <mesh filename="package://human_description/stl/Right_Upper_Leg.stl" /></geometry>
      <origin rpy="1.57079632679 0 0" xyz="0 -0.221 0" />
      <material name="green" />
    </visual>
    <collision>
      <geometry>
        <cylinder length="0.442" radius="0.0806551326413" />
      </geometry>
      <origin rpy="1.57079632679 0 0" xyz="0 -0.221 0" />
    </collision>
    <inertial>
      <mass value="2.17279140765" />
      <origin rpy="1.57079632679 0 0" xyz="0 -0.221 0" />
      <inertia ixx="0.164253928006" ixy="0" ixz="0" iyy="0.164253928006" iyz="0" izz="0.0298356525849" />
    </inertial>
  </link>
  <link name="body_RightLowerLeg_1">
    <inertial>
      <mass value="0.001" />
      <origin rpy="0 0 0" xyz="0 0 0" />
      <inertia ixx="4e-08" ixy="0" ixz="0" iyy="4e-08" iyz="0" izz="4e-08" />
    </inertial>
  </link>
  <link name="body_RightLowerLeg_2">
    <inertial>
      <mass value="0.001" />
      <origin rpy="0 0 0" xyz="0 0 0" />
      <inertia ixx="4e-08" ixy="0" ixz="0" iyy="4e-08" iyz="0" izz="4e-08" />
    </inertial>
  </link>
  <link name="Right Lower Leg">
    <visual>
      <geometry>
        <mesh filename="package://human_description/stl/Right_Lower_Leg.stl" /></geometry>
      <origin rpy="1.57079632679 0 0" xyz="0 -0.1955 0" />
      <material name="green" />
    </visual>
    <collision>
      <geometry>
        <cylinder length="0.391" radius="0.060491349481" />
      </geometry>
      <origin rpy="1.57079632679 0 0" xyz="0 -0.1955 0" />
    </collision>
    <inertial>
      <mass value="0.81028096513" />
      <origin rpy="1.57079632679 0 0" xyz="0 -0.1955 0" />
      <inertia ixx="0.0383740610749" ixy="0" ixz="0" iyy="0.0383740610749" iyz="0" izz="0.00514169477793" />
    </inertial>
  </link>
  <link name="body_RightFoot_1">
    <inertial>
      <mass value="0.001" />
      <origin rpy="0 0 0" xyz="0 0 0" />
      <inertia ixx="4e-08" ixy="0" ixz="0" iyy="4e-08" iyz="0" izz="4e-08" />
    </inertial>
  </link>
  <link name="body_RightFoot_2">
    <inertial>
      <mass value="0.001" />
      <origin rpy="0 0 0" xyz="0 0 0" />
      <inertia ixx="4e-08" ixy="0" ixz="0" iyy="4e-08" iyz="0" izz="4e-08" />
    </inertial>
  </link>
  <link name="Right Foot">
    <visual>
      <geometry>
        <mesh filename="package://human_description/stl/Right_Foot.stl" /></geometry>
      <origin rpy="0 0 0" xyz="0.054264 -0.034 0" />
      <material name="green" />
    </visual>
    <collision>
      <geometry>
        <box size="0.18088 0.068 0.10336" />
      </geometry>
      <origin rpy="0 0 0" xyz="0.054264 -0.034 0" />
    </collision>
    <inertial>
      <mass value="0.728672694661" />
      <origin rpy="0 0 0" xyz="0.054264 -0.034 0" />
      <inertia ixx="0.000929500330065" ixy="0" ixz="0" iyy="0.00263541871012" iyz="0" izz="0.00226748213674" />
    </inertial>
  </link>
  <link name="body_RightToe_1">
    <inertial>
      <mass value="0.001" />
      <origin rpy="0 0 0" xyz="0 0 0" />
      <inertia ixx="4e-08" ixy="0" ixz="0" iyy="4e-08" iyz="0" izz="4e-08" />
    </inertial>
  </link>
  <link name="body_RightToe_2">
    <inertial>
      <mass value="0.001" />
      <origin rpy="0 0 0" xyz="0 0 0" />
      <inertia ixx="4e-08" ixy="0" ixz="0" iyy="4e-08" iyz="0" izz="4e-08" />
    </inertial>
  </link>
  <link name="Right Toe">
    <visual>
      <geometry>
        <mesh filename="package://human_description/stl/Right_Toe.stl" /></geometry>
      <origin rpy="0 0 0" xyz="0.03876 0.0204 0" />
      <material name="green" />
    </visual>
    <collision>
      <geometry>
        <box size="0.07752 0.0408 0.10336" />
      </geometry>
      <origin rpy="0 0 0" xyz="0.03876 0.0204 0" />
    </collision>
    <inertial>
      <mass value="0.182168173665" />
      <origin rpy="0 0 0" xyz="0.03876 0.0204 0" />
      <inertia ixx="0.000187449981982" ixy="0" ixz="0" iyy="0.000253405645204" iyz="0" izz="0.000116496401324" />
    </inertial>
  </link>
  <link name="body_LeftUpperLeg_1">
    <inertial>
      <mass value="0.001" />
      <origin rpy="0 0 0" xyz="0 0 0" />
      <inertia ixx="4e-08" ixy="0" ixz="0" iyy="4e-08" iyz="0" izz="4e-08" />
    </inertial>
  </link>
  <link name="body_LeftUpperLeg_2">
    <inertial>
      <mass value="0.001" />
      <origin rpy="0 0 0" xyz="0 0 0" />
      <inertia ixx="4e-08" ixy="0" ixz="0" iyy="4e-08" iyz="0" izz="4e-08" />
    </inertial>
  </link>
  <link name="Left Upper Leg">
    <visual>
      <geometry>
        <mesh filename="package://human_description/stl/Left_Upper_Leg.stl" /></geometry>
      <origin rpy="1.57079632679 0 0" xyz="0 -0.221 0" />
      <material name="green" />
    </visual>
    <collision>
      <geometry>
        <cylinder length="0.442" radius="0.0806551326413" />
      </geometry>
      <origin rpy="1.57079632679 0 0" xyz="0 -0.221 0" />
    </collision>
    <inertial>
      <mass value="2.17279140765" />
      <origin rpy="1.57079632679 0 0" xyz="0 -0.221 0" />
      <inertia ixx="0.164253928006" ixy="0" ixz="0" iyy="0.164253928006" iyz="0" izz="0.0298356525849" />
    </inertial>
  </link>
  <link name="body_LeftLowerLeg_1">
    <inertial>
      <mass value="0.001" />
      <origin rpy="0 0 0" xyz="0 0 0" />
      <inertia ixx="4e-08" ixy="0" ixz="0" iyy="4e-08" iyz="0" izz="4e-08" />
    </inertial>
  </link>
  <link name="body_LeftLowerLeg_2">
    <inertial>
      <mass value="0.001" />
      <origin rpy="0 0 0" xyz="0 0 0" />
      <inertia ixx="4e-08" ixy="0" ixz="0" iyy="4e-08" iyz="0" izz="4e-08" />
    </inertial>
  </link>
  <link name="Left Lower Leg">
    <visual>
      <geometry>
        <mesh filename="package://human_description/stl/Left_Lower_Leg.stl" /></geometry>
      <origin rpy="1.57079632679 0 0" xyz="0 -0.1955 0" />
      <material name="green" />
    </visual>
    <collision>
      <geometry>
        <cylinder length="-0.391" radius="0.060491349481" />
      </geometry>
      <origin rpy="1.57079632679 0 0" xyz="0 -0.1955 0" />
    </collision>
    <inertial>
      <mass value="0.81028096513" />
      <origin rpy="1.57079632679 0 0" xyz="0 -0.1955 0" />
      <inertia ixx="0.0383740610749" ixy="0" ixz="0" iyy="0.0383740610749" iyz="0" izz="0.00514169477793" />
    </inertial>
  </link>
  <link name="body_LeftFoot_1">
    <inertial>
      <mass value="0.001" />
      <origin rpy="0 0 0" xyz="0 0 0" />
      <inertia ixx="4e-08" ixy="0" ixz="0" iyy="4e-08" iyz="0" izz="4e-08" />
    </inertial>
  </link>
  <link name="body_LeftFoot_2">
    <inertial>
      <mass value="0.001" />
      <origin rpy="0 0 0" xyz="0 0 0" />
      <inertia ixx="4e-08" ixy="0" ixz="0" iyy="4e-08" iyz="0" izz="4e-08" />
    </inertial>
  </link>
  <link name="Left Foot">
    <visual>
      <geometry>
        <mesh filename="package://human_description/stl/Left_Foot.stl" /></geometry>
      <origin rpy="0 0 0" xyz="0.054264 -0.034 0" />
      <material name="green" />
    </visual>
    <collision>
      <geometry>
        <box size="0.18088 0.068 0.10336" />
      </geometry>
      <origin rpy="0 0 0" xyz="0.054264 -0.034 0" />
    </collision>
    <inertial>
      <mass value="0.728672694661" />
      <origin rpy="0 0 0" xyz="0.054264 -0.034 0" />
      <inertia ixx="0.000929500330065" ixy="0" ixz="0" iyy="0.00263541871012" iyz="0" izz="0.00226748213674" />
    </inertial>
  </link>
  <link name="body_LeftToe_1">
    <inertial>
      <mass value="0.001" />
      <origin rpy="0 0 0" xyz="0 0 0" />
      <inertia ixx="4e-08" ixy="0" ixz="0" iyy="4e-08" iyz="0" izz="4e-08" />
    </inertial>
  </link>
  <link name="body_LeftToe_2">
    <inertial>
      <mass value="0.001" />
      <origin rpy="0 0 0" xyz="0 0 0" />
      <inertia ixx="4e-08" ixy="0" ixz="0" iyy="4e-08" iyz="0" izz="4e-08" />
    </inertial>
  </link>
  <link name="Left Toe">
    <visual>
      <geometry>
        <mesh filename="package://human_description/stl/Left_Toe.stl" /></geometry>
      <origin rpy="0 0 0" xyz="0.03876 0.0204 0" />
      <material name="green" />
    </visual>
    <collision>
      <geometry>
        <box size="0.07752 0.0408 0.10336" />
      </geometry>
      <origin rpy="0 0 0" xyz="0.03876 0.0204 0" />
    </collision>
    <inertial>
      <mass value="0.182168173665" />
      <origin rpy="0 0 0" xyz="0.03876 0.0204 0" />
      <inertia ixx="0.000187449981982" ixy="0" ixz="0" iyy="0.000253405645204" iyz="0" izz="0.000116496401324" />
    </inertial>
  </link>


  <joint name="root_ISB_orientation" type="fixed">
    <parent link="base_link" />
    <child link="Pelvis" />
    <origin rpy="1.57079632679 0 0" xyz="0 0 0" />
  </joint>

  <joint name="jL5S1_Z" type="revolute">
    <parent link="Pelvis" />
    <child link="body_L5_1" />
    <axis xyz="0 0 1" />
    <origin xyz="0 0.0935 0" />
    <limit effort="1000" lower="-6.28318530718" upper="6.28318530718" velocity="1.0" />
    <dynamics damping="0.01" friction="0.0" />
  </joint>
  <joint name="jL5S1_X" type="revolute">
    <parent link="body_L5_1" />
    <child link="body_L5_2" />
    <axis xyz="1 0 0" />
    <origin xyz="0 0 0" />
    <limit effort="1000" lower="-6.28318530718" upper="6.28318530718" velocity="1.0" />
    <dynamics damping="0.01" friction="0.0" />
  </joint>
  <joint name="jL5S1_Y" type="revolute">
    <parent link="body_L5_2" />
    <child link="L5" />
    <axis xyz="0 1 0" />
    <origin xyz="0 0 0" />
    <limit effort="1000" lower="-6.28318530718" upper="6.28318530718" velocity="1.0" />
    <dynamics damping="0.01" friction="0.0" />
  </joint>
  <joint name="jL4L3_Z" type="revolute">
    <parent link="L5" />
    <child link="body_L3_1" />
    <axis xyz="0 0 1" />
    <origin xyz="0 0.0935 0" />
    <limit effort="1000" lower="-6.28318530718" upper="6.28318530718" velocity="1.0" />
    <dynamics damping="0.01" friction="0.0" />
  </joint>
  <joint name="jL4L3_X" type="revolute">
    <parent link="body_L3_1" />
    <child link="body_L3_2" />
    <axis xyz="1 0 0" />
    <origin xyz="0 0 0" />
    <limit effort="1000" lower="-6.28318530718" upper="6.28318530718" velocity="1.0" />
    <dynamics damping="0.01" friction="0.0" />
  </joint>
  <joint name="jL4L3_Y" type="revolute">
    <parent link="body_L3_2" />
    <child link="L3" />
    <axis xyz="0 1 0" />
    <origin xyz="0 0 0" />
    <limit effort="1000" lower="-6.28318530718" upper="6.28318530718" velocity="1.0" />
    <dynamics damping="0.01" friction="0.0" />
  </joint>
  <joint name="jL1T12_Z" type="revolute">
    <parent link="L3" />
    <child link="body_T12_1" />
    <axis xyz="0 0 1" />
    <origin xyz="0 0.085 0" />
    <limit effort="1000" lower="-6.28318530718" upper="6.28318530718" velocity="1.0" />
    <dynamics damping="0.01" friction="0.0" />
  </joint>
  <joint name="jL1T12_X" type="revolute">
    <parent link="body_T12_1" />
    <child link="body_T12_2" />
    <axis xyz="1 0 0" />
    <origin xyz="0 0 0" />
    <limit effort="1000" lower="-6.28318530718" upper="6.28318530718" velocity="1.0" />
    <dynamics damping="0.01" friction="0.0" />
  </joint>
  <joint name="jL1T12_Y" type="revolute">
    <parent link="body_T12_2" />
    <child link="T12" />
    <axis xyz="0 1 0" />
    <origin xyz="0 0 0" />
    <limit effort="1000" lower="-6.28318530718" upper="6.28318530718" velocity="1.0" />
    <dynamics damping="0.01" friction="0.0" />
  </joint>
  <joint name="jT9T8_Z" type="revolute">
    <parent link="T12" />
    <child link="body_T8_1" />
    <axis xyz="0 0 1" />
    <origin xyz="0 0.102 0" />
    <limit effort="1000" lower="-6.28318530718" upper="6.28318530718" velocity="1.0" />
    <dynamics damping="0.01" friction="0.0" />
  </joint>
  <joint name="jT9T8_X" type="revolute">
    <parent link="body_T8_1" />
    <child link="body_T8_2" />
    <axis xyz="1 0 0" />
    <origin xyz="0 0 0" />
    <limit effort="1000" lower="-6.28318530718" upper="6.28318530718" velocity="1.0" />
    <dynamics damping="0.01" friction="0.0" />
  </joint>
  <joint name="jT9T8_Y" type="revolute">
    <parent link="body_T8_2" />
    <child link="T8" />
    <axis xyz="0 1 0" />
    <origin xyz="0 0 0" />
    <limit effort="1000" lower="-6.28318530718" upper="6.28318530718" velocity="1.0" />
    <dynamics damping="0.01" friction="0.0" />
  </joint>
  <joint name="jT1C7_Z" type="revolute">
    <parent link="T8" />
    <child link="body_Neck_1" />
    <axis xyz="0 0 1" />
    <origin xyz="0 0.119 0" />
    <limit effort="1000" lower="-6.28318530718" upper="6.28318530718" velocity="1.0" />
    <dynamics damping="0.01" friction="0.0" />
  </joint>
  <joint name="jT1C7_X" type="revolute">
    <parent link="body_Neck_1" />
    <child link="body_Neck_2" />
    <axis xyz="1 0 0" />
    <origin xyz="0 0 0" />
    <limit effort="1000" lower="-6.28318530718" upper="6.28318530718" velocity="1.0" />
    <dynamics damping="0.01" friction="0.0" />
  </joint>
  <joint name="jT1C7_Y" type="revolute">
    <parent link="body_Neck_2" />
    <child link="Neck" />
    <axis xyz="0 1 0" />
    <origin xyz="0 0 0" />
    <limit effort="1000" lower="-6.28318530718" upper="6.28318530718" velocity="1.0" />
    <dynamics damping="0.01" friction="0.0" />
  </joint>
  <joint name="jC1Head_Z" type="revolute">
    <parent link="Neck" />
    <child link="body_Head_1" />
    <axis xyz="0 0 1" />
    <origin xyz="0 0.0935 0" />
    <limit effort="1000" lower="-6.28318530718" upper="6.28318530718" velocity="1.0" />
    <dynamics damping="0.01" friction="0.0" />
  </joint>
  <joint name="jC1Head_X" type="revolute">
    <parent link="body_Head_1" />
    <child link="body_Head_2" />
    <axis xyz="1 0 0" />
    <origin xyz="0 0 0" />
    <limit effort="1000" lower="-6.28318530718" upper="6.28318530718" velocity="1.0" />
    <dynamics damping="0.01" friction="0.0" />
  </joint>
  <joint name="jC1Head_Y" type="revolute">
    <parent link="body_Head_2" />
    <child link="Head" />
    <axis xyz="0 1 0" />
    <origin xyz="0 0 0" />
    <limit effort="1000" lower="-6.28318530718" upper="6.28318530718" velocity="1.0" />
    <dynamics damping="0.01" friction="0.0" />
  </joint>

  <joint name="jRightC7Shoulder_Z" type="revolute">
    <parent link="T8" />
    <child link="body_RightShoulder_1" />
    <axis xyz="0 0 1" />
    <origin xyz="0 0.0765 0.026775" />
    <limit effort="1000" lower="-6.28318530718" upper="6.28318530718" velocity="1.0" />
    <dynamics damping="0.01" friction="0.0" />
  </joint>
  <joint name="jRightC7Shoulder_X" type="revolute">
    <parent link="body_RightShoulder_1" />
    <child link="body_RightShoulder_2" />
    <axis xyz="1 0 0" />
    <origin xyz="0 0 0" />
    <limit effort="1000" lower="-6.28318530718" upper="6.28318530718" velocity="1.0" />
    <dynamics damping="0.01" friction="0.0" />
  </joint>
  <joint name="jRightC7Shoulder_Y" type="revolute">
    <parent link="body_RightShoulder_2" />
    <child link="Right Shoulder" />
    <axis xyz="0 1 0" />
    <origin xyz="0 0 0" />
    <limit effort="1000" lower="-6.28318530718" upper="6.28318530718" velocity="1.0" />
    <dynamics damping="0.01" friction="0.0" />
  </joint>
  <joint name="jRightShoulder_Z" type="revolute">
    <parent link="Right Shoulder" />
    <child link="body_RightUpperArm_1" />
    <axis xyz="0 0 1" />
    <origin xyz="0 0 0.151725" />
    <limit effort="1000" lower="-6.28318530718" upper="6.28318530718" velocity="1.0" />
    <dynamics damping="0.01" friction="0.0" />
  </joint>
  <joint name="jRightShoulder_X" type="revolute">
    <parent link="body_RightUpperArm_1" />
    <child link="body_RightUpperArm_2" />
    <axis xyz="1 0 0" />
    <origin xyz="0 0 0" />
    <limit effort="1000" lower="-6.28318530718" upper="6.28318530718" velocity="1.0" />
    <dynamics damping="0.01" friction="0.0" />
  </joint>
  <joint name="jRightShoulder_Y" type="revolute">
    <parent link="body_RightUpperArm_2" />
    <child link="Right Upper Arm" />
    <axis xyz="0 1 0" />
    <origin xyz="0 0 0" />
    <limit effort="1000" lower="-6.28318530718" upper="6.28318530718" velocity="1.0" />
    <dynamics damping="0.01" friction="0.0" />
  </joint>
  <joint name="jRightElbow_Z" type="revolute">
    <parent link="Right Upper Arm" />
    <child link="body_RightForearm_1" />
    <axis xyz="0 0 1" />
    <origin xyz="0 -0.323 0" />
    <limit effort="1000" lower="-6.28318530718" upper="6.28318530718" velocity="1.0" />
    <dynamics damping="0.01" friction="0.0" />
  </joint>
  <joint name="jRightElbow_X" type="revolute">
    <parent link="body_RightForearm_1" />
    <child link="body_RightForearm_2" />
    <axis xyz="1 0 0" />
    <origin xyz="0 0 0" />
    <limit effort="1000" lower="-6.28318530718" upper="6.28318530718" velocity="1.0" />
    <dynamics damping="0.01" friction="0.0" />
  </joint>
  <joint name="jRightElbow_Y" type="revolute">
    <parent link="body_RightForearm_2" />
    <child link="Right Forearm" />
    <axis xyz="0 1 0" />
    <origin xyz="0 0 0" />
    <limit effort="1000" lower="-6.28318530718" upper="6.28318530718" velocity="1.0" />
    <dynamics damping="0.01" friction="0.0" />
  </joint>
  <joint name="jRightWrist_X" type="revolute">
    <parent link="Right Forearm" />
    <child link="body_RightHand_1" />
    <axis xyz="1 0 0" />
    <origin xyz="0 -0.255 0" />
    <limit effort="1000" lower="-6.28318530718" upper="6.28318530718" velocity="1.0" />
    <dynamics damping="0.01" friction="0.0" />
  </joint>
  <joint name="jRightWrist_Z" type="revolute">
    <parent link="body_RightHand_1" />
    <child link="body_RightHand_2" />
    <axis xyz="0 0 1" />
    <origin xyz="0 0 0" />
    <limit effort="1000" lower="-6.28318530718" upper="6.28318530718" velocity="1.0" />
    <dynamics damping="0.01" friction="0.0" />
  </joint>
  <joint name="jRightWrist_Y" type="revolute">
    <parent link="body_RightHand_2" />
    <child link="Right Hand" />
    <axis xyz="0 1 0" />
    <origin xyz="0 0 0" />
    <limit effort="1000" lower="-6.28318530718" upper="6.28318530718" velocity="1.0" />
    <dynamics damping="0.01" friction="0.0" />
  </joint>

  <joint name="jLeftC7Shoulder_Z" type="revolute">
    <parent link="T8" />
    <child link="body_LeftShoulder_1" />
    <axis xyz="0 0 1" />
    <origin xyz="0 0.0765 -0.026775" />
    <limit effort="1000" lower="-6.28318530718" upper="6.28318530718" velocity="1.0" />
    <dynamics damping="0.01" friction="0.0" />
  </joint>
  <joint name="jLeftC7Shoulder_X" type="revolute">
    <parent link="body_LeftShoulder_1" />
    <child link="body_LeftShoulder_2" />
    <axis xyz="1 0 0" />
    <origin xyz="0 0 0" />
    <limit effort="1000" lower="-6.28318530718" upper="6.28318530718" velocity="1.0" />
    <dynamics damping="0.01" friction="0.0" />
  </joint>
  <joint name="jLeftC7Shoulder_Y" type="revolute">
    <parent link="body_LeftShoulder_2" />
    <child link="Left Shoulder" />
    <axis xyz="0 1 0" />
    <origin xyz="0 0 0" />
    <limit effort="1000" lower="-6.28318530718" upper="6.28318530718" velocity="1.0" />
    <dynamics damping="0.01" friction="0.0" />
  </joint>
  <joint name="jLeftShoulder_Z" type="revolute">
    <parent link="Left Shoulder" />
    <child link="body_LeftUpperArm_1" />
    <axis xyz="0 0 1" />
    <origin xyz="0 0 -0.151725" />
    <limit effort="1000" lower="-6.28318530718" upper="6.28318530718" velocity="1.0" />
    <dynamics damping="0.01" friction="0.0" />
  </joint>
  <joint name="jLeftShoulder_X" type="revolute">
    <parent link="body_LeftUpperArm_1" />
    <child link="body_LeftUpperArm_2" />
    <axis xyz="1 0 0" />
    <origin xyz="0 0 0" />
    <limit effort="1000" lower="-6.28318530718" upper="6.28318530718" velocity="1.0" />
    <dynamics damping="0.01" friction="0.0" />
  </joint>
  <joint name="jLeftShoulder_Y" type="revolute">
    <parent link="body_LeftUpperArm_2" />
    <child link="Left Upper Arm" />
    <axis xyz="0 1 0" />
    <origin xyz="0 0 0" />
    <limit effort="1000" lower="-6.28318530718" upper="6.28318530718" velocity="1.0" />
    <dynamics damping="0.01" friction="0.0" />
  </joint>
  <joint name="jLeftElbow_Z" type="revolute">
    <parent link="Left Upper Arm" />
    <child link="body_LeftForearm_1" />
    <axis xyz="0 0 1" />
    <origin xyz="0 -0.323 0" />
    <limit effort="1000" lower="-6.28318530718" upper="6.28318530718" velocity="1.0" />
    <dynamics damping="0.01" friction="0.0" />
  </joint>
  <joint name="jLeftElbow_X" type="revolute">
    <parent link="body_LeftForearm_1" />
    <child link="body_LeftForearm_2" />
    <axis xyz="1 0 0" />
    <origin xyz="0 0 0" />
    <limit effort="1000" lower="-6.28318530718" upper="6.28318530718" velocity="1.0" />
    <dynamics damping="0.01" friction="0.0" />
  </joint>
  <joint name="jLeftElbow_Y" type="revolute">
    <parent link="body_LeftForearm_2" />
    <child link="Left Forearm" />
    <axis xyz="0 1 0" />
    <origin xyz="0 0 0" />
    <limit effort="1000" lower="-6.28318530718" upper="6.28318530718" velocity="1.0" />
    <dynamics damping="0.01" friction="0.0" />
  </joint>
  <joint name="jLeftWrist_X" type="revolute">
    <parent link="Left Forearm" />
    <child link="body_LeftHand_1" />
    <axis xyz="1 0 0" />
    <origin xyz="0 -0.255 0" />
    <limit effort="1000" lower="-6.28318530718" upper="6.28318530718" velocity="1.0" />
    <dynamics damping="0.01" friction="0.0" />
  </joint>
  <joint name="jLeftWrist_Z" type="revolute">
    <parent link="body_LeftHand_1" />
    <child link="body_LeftHand_2" />
    <axis xyz="0 0 1" />
    <origin xyz="0 0 0" />
    <limit effort="1000" lower="-6.28318530718" upper="6.28318530718" velocity="1.0" />
    <dynamics damping="0.01" friction="0.0" />
  </joint>
  <joint name="jLeftWrist_Y" type="revolute">
    <parent link="body_LeftHand_2" />
    <child link="Left Hand" />
    <axis xyz="0 1 0" />
    <origin xyz="0 0 0" />
    <limit effort="1000" lower="-6.28318530718" upper="6.28318530718" velocity="1.0" />
    <dynamics damping="0.01" friction="0.0" />
  </joint>

  <joint name="jRightHip_Z" type="revolute">
    <parent link="Pelvis" />
    <child link="body_RightUpperLeg_1" />
    <axis xyz="0 0 1" />
    <origin xyz="0 0 0.08925" />
    <limit effort="1000" lower="-6.28318530718" upper="6.28318530718" velocity="1.0" />
    <dynamics damping="0.01" friction="0.0" />
  </joint>
  <joint name="jRightHip_X" type="revolute">
    <parent link="body_RightUpperLeg_1" />
    <child link="body_RightUpperLeg_2" />
    <axis xyz="1 0 0" />
    <origin xyz="0 0 0" />
    <limit effort="1000" lower="-6.28318530718" upper="6.28318530718" velocity="1.0" />
    <dynamics damping="0.01" friction="0.0" />
  </joint>
  <joint name="jRightHip_Y" type="revolute">
    <parent link="body_RightUpperLeg_2" />
    <child link="Right Upper Leg" />
    <axis xyz="0 1 0" />
    <origin xyz="0 0 0" />
    <limit effort="1000" lower="-6.28318530718" upper="6.28318530718" velocity="1.0" />
    <dynamics damping="0.01" friction="0.0" />
  </joint>
  <joint name="jRightKnee_Z" type="revolute">
    <parent link="Right Upper Leg" />
    <child link="body_RightLowerLeg_1" />
    <axis xyz="0 0 1" />
    <origin xyz="0 -0.442 0" />
    <limit effort="1000" lower="-6.28318530718" upper="6.28318530718" velocity="1.0" />
    <dynamics damping="0.01" friction="0.0" />
  </joint>
  <joint name="jRightKnee_X" type="revolute">
    <parent link="body_RightLowerLeg_1" />
    <child link="body_RightLowerLeg_2" />
    <axis xyz="1 0 0" />
    <origin xyz="0 0 0" />
    <limit effort="1000" lower="-6.28318530718" upper="6.28318530718" velocity="1.0" />
    <dynamics damping="0.01" friction="0.0" />
  </joint>
  <joint name="jRightKnee_Y" type="revolute">
    <parent link="body_RightLowerLeg_2" />
    <child link="Right Lower Leg" />
    <axis xyz="0 1 0" />
    <origin xyz="0 0 0" />
    <limit effort="1000" lower="-6.28318530718" upper="6.28318530718" velocity="1.0" />
    <dynamics damping="0.01" friction="0.0" />
  </joint>
  <joint name="jRightAnkle_Z" type="revolute">
    <parent link="Right Lower Leg" />
    <child link="body_RightFoot_1" />
    <axis xyz="0 0 1" />
    <origin xyz="0 -0.391 0" />
    <limit effort="1000" lower="-6.28318530718" upper="6.28318530718" velocity="1.0" />
    <dynamics damping="0.01" friction="0.0" />
  </joint>
  <joint name="jRightAnkle_X" type="revolute">
    <parent link="body_RightFoot_1" />
    <child link="body_RightFoot_2" />
    <axis xyz="1 0 0" />
    <origin xyz="0 0 0" />
    <limit effort="1000" lower="-6.28318530718" upper="6.28318530718" velocity="1.0" />
    <dynamics damping="0.01" friction="0.0" />
  </joint>
  <joint name="jRightAnkle_Y" type="revolute">
    <parent link="body_RightFoot_2" />
    <child link="Right Foot" />
    <axis xyz="0 1 0" />
    <origin xyz="0 0 0" />
    <limit effort="1000" lower="-6.28318530718" upper="6.28318530718" velocity="1.0" />
    <dynamics damping="0.01" friction="0.0" />
  </joint>
  <joint name="jRightBallFoot_Z" type="revolute">
    <parent link="Right Foot" />
    <child link="body_RightToe_1" />
    <axis xyz="0 0 1" />
    <origin xyz="0.144704 -0.068 0" />
    <limit effort="1000" lower="-6.28318530718" upper="6.28318530718" velocity="1.0" />
    <dynamics damping="0.01" friction="0.0" />
  </joint>
  <joint name="jRightBallFoot_X" type="revolute">
    <parent link="body_RightToe_1" />
    <child link="body_RightToe_2" />
    <axis xyz="1 0 0" />
    <origin xyz="0 0 0" />
    <limit effort="1000" lower="-6.28318530718" upper="6.28318530718" velocity="1.0" />
    <dynamics damping="0.01" friction="0.0" />
  </joint>
  <joint name="jRightBallFoot_Y" type="revolute">
    <parent link="body_RightToe_2" />
    <child link="Right Toe" />
    <axis xyz="0 1 0" />
    <origin xyz="0 0 0" />
    <limit effort="1000" lower="-6.28318530718" upper="6.28318530718" velocity="1.0" />
    <dynamics damping="0.01" friction="0.0" />
  </joint>

  <joint name="jLeftHip_Z" type="revolute">
    <parent link="Pelvis" />
    <child link="body_LeftUpperLeg_1" />
    <axis xyz="0 0 1" />
    <origin xyz="0 0 -0.08925" />
    <limit effort="1000" lower="-6.28318530718" upper="6.28318530718" velocity="1.0" />
    <dynamics damping="0.01" friction="0.0" />
  </joint>
  <joint name="jLeftHip_X" type="revolute">
    <parent link="body_LeftUpperLeg_1" />
    <child link="body_LeftUpperLeg_2" />
    <axis xyz="1 0 0" />
    <origin xyz="0 0 0" />
    <limit effort="1000" lower="-6.28318530718" upper="6.28318530718" velocity="1.0" />
    <dynamics damping="0.01" friction="0.0" />
  </joint>
  <joint name="jLeftHip_Y" type="revolute">
    <parent link="body_LeftUpperLeg_2" />
    <child link="Left Upper Leg" />
    <axis xyz="0 1 0" />
    <origin xyz="0 0 0" />
    <limit effort="1000" lower="-6.28318530718" upper="6.28318530718" velocity="1.0" />
    <dynamics damping="0.01" friction="0.0" />
  </joint>
  <joint name="jLeftKnee_Z" type="revolute">
    <parent link="Left Upper Leg" />
    <child link="body_LeftLowerLeg_1" />
    <axis xyz="0 0 1" />
    <origin xyz="0 -0.442 0" />
    <limit effort="1000" lower="-6.28318530718" upper="6.28318530718" velocity="1.0" />
    <dynamics damping="0.01" friction="0.0" />
  </joint>
  <joint name="jLeftKnee_X" type="revolute">
    <parent link="body_LeftLowerLeg_1" />
    <child link="body_LeftLowerLeg_2" />
    <axis xyz="1 0 0" />
    <origin xyz="0 0 0" />
    <limit effort="1000" lower="-6.28318530718" upper="6.28318530718" velocity="1.0" />
    <dynamics damping="0.01" friction="0.0" />
  </joint>
  <joint name="jLeftKnee_Y" type="revolute">
    <parent link="body_LeftLowerLeg_2" />
    <child link="Left Lower Leg" />
    <axis xyz="0 1 0" />
    <origin xyz="0 0 0" />
    <limit effort="1000" lower="-6.28318530718" upper="6.28318530718" velocity="1.0" />
    <dynamics damping="0.01" friction="0.0" />
  </joint>
  <joint name="jLeftAnkle_Z" type="revolute">
    <parent link="Left Lower Leg" />
    <child link="body_LeftFoot_1" />
    <axis xyz="0 0 1" />
    <origin xyz="0 -0.391 0" />
    <limit effort="1000" lower="-6.28318530718" upper="6.28318530718" velocity="1.0" />
    <dynamics damping="0.01" friction="0.0" />
  </joint>
  <joint name="jLeftAnkle_X" type="revolute">
    <parent link="body_LeftFoot_1" />
    <child link="body_LeftFoot_2" />
    <axis xyz="1 0 0" />
    <origin xyz="0 0 0" />
    <limit effort="1000" lower="-6.28318530718" upper="6.28318530718" velocity="1.0" />
    <dynamics damping="0.01" friction="0.0" />
  </joint>
  <joint name="jLeftAnkle_Y" type="revolute">
    <parent link="body_LeftFoot_2" />
    <child link="Left Foot" />
    <axis xyz="0 1 0" />
    <origin xyz="0 0 0" />
    <limit effort="1000" lower="-6.28318530718" upper="6.28318530718" velocity="1.0" />
    <dynamics damping="0.01" friction="0.0" />
  </joint>
  <joint name="jLeftBallFoot_Z" type="revolute">
    <parent link="Left Foot" />
    <child link="body_LeftToe_1" />
    <axis xyz="0 0 1" />
    <origin xyz="0.144704 -0.068 0" />
    <limit effort="1000" lower="-6.28318530718" upper="6.28318530718" velocity="1.0" />
    <dynamics damping="0.01" friction="0.0" />
  </joint>
  <joint name="jLeftBallFoot_X" type="revolute">
    <parent link="body_LeftToe_1" />
    <child link="body_LeftToe_2" />
    <axis xyz="1 0 0" />
    <origin xyz="0 0 0" />
    <limit effort="1000" lower="-6.28318530718" upper="6.28318530718" velocity="1.0" />
    <dynamics damping="0.01" friction="0.0" />
  </joint>
  <joint name="jLeftBallFoot_Y" type="revolute">
    <parent link="body_LeftToe_2" />
    <child link="Left Toe" />
    <axis xyz="0 1 0" />
    <origin xyz="0 0 0" />
    <limit effort="1000" lower="-6.28318530718" upper="6.28318530718" velocity="1.0" />
    <dynamics damping="0.01" friction="0.0" />
  </joint>

  <gazebo>
    <plugin filename="libgazebo_ros_control.so" name="gazebo_ros_control">
      <robotNamespace>/</robotNamespace>
    </plugin>
  </gazebo>
</robot>
